Account Number,Name,Address,Credit Limit
A0123,university of rome la sapienza,"34826 LILAC ST, UNION CITY, 94587",22000
A2460,geen meer,"5212 VISTA DEL MAR AVE, BAKERSFIELD, 93311",16000
A9685,sicredi,"7040 E BLACKBIRD LN, ANAHEIM, 92807",11000
A9686,fairview health services,"887 WAGGONER RD, PARADISE, 95969",22000
B1353,windstream communications,"10702 APRICOT ST, OAKLAND, 94603",11000
C2342,amcor,"8306 ASTER AV, OAKLAND, 94605",16000
C2343,the pampered chef,"7308 PARKWOOD CI, DUBLIN, 94568",11000
C2344,j. walter thompson worldwide,"157 Gladys Ave, Mountain View, ",33000
D3075,owens corning,"4251 TANAGER TE, FREMONT, 94555",22000
E1574,edwards lifesciences,"1527 W CATHERINE DR, ANAHEIM, 92801",11000
E5842,westrock company,"410 ROBERTS LN, BAKERSFIELD, 93308",22000
E5843,policia militar,"405 ALCATRAZ AV, OAKLAND, 94609",38000
E5844,sony mobile communications,"42680 MORAGA RD, TEMECULA, 92592",11000
F0861,arm,"10307 GLENN ST, BAKERSFIELD, 93312",11000
F0984,diversey inc,"6173 MAURITANIA AV, OAKLAND, 94605",11000
F0985,servicenow,"607 PALOMINO DR, PLEASANTON, 94566",8000
F0986,achmea,"11549 CIRCLE WY, DUBLIN, 94568",11000
F0987,air india,"6376 SCENIC AV, LIVERMORE, 94551",22000
F1512,sealed air corporation,"1361 E ROSEWOOD AVE, ANAHEIM, 92805",22000
F3075,cobb county schools,"123 FLOWER ST, BAKERSFIELD, 93305",22000
H0615,l brands,"68 LANCE WY, HAYWARD, 94544",27000
H1056,steelcase,"35675 BALLANTINE PL, FREMONT, 94536",22000
H3251,lam research,"1030 CLAY ST, ALBANY, 94706",11000
H3252,navistar inc,"2122 S CAMINO ST, ANAHEIM, 92802",13000
H3253,leo burnett,"2515 W LINCOLN AVE, ANAHEIM, 92801",9000
H3254,bearingpoint,"3945 MYERS ST, OROVILLE, 95966",22000
H8615,fearless fly,"30801 Barrons Way, Union City, 94587",5000
J0615,yokogawa,"28809 SOUTH LAKE DR, TEMECULA, 92591",5000
J0616,crossmark,"2055 CECELIA LN, CHICO, 95926",11000
J0617,bharat petroleum corporation limited,"1520 172ND AV, HAYWARD, 94541",33000
J0618,korn ferry,"1787 De Pina Ln, Hayward, 94545",33000
J0619,kinder morgan,"549 REGULUS RD, LIVERMORE, 94550",27000
K0369,globant,"8332 PEACHTREE AV, NEWARK, 94560",11000
L3451,puma,"26574 COLETTE ST, HAYWARD, 94544",27000
M0492,pt pln (persero),"33847 WHITEHEAD LN, FREMONT, 94555",22000
M1599,laing o'rourke,"3471 CUMBERLAND GAP CT, PLEASANTON, 94588",27000
M1600,saudi oger ltd.,"349 OAKDALE DR, BAKERSFIELD, 93309",22000
P0738,christus health,"3073 LUSITANA DR, LIVERMORE, 94550",22000
P0861,millercoors,"10317 LOUGHTON AVE, BAKERSFIELD, 93311",11000
P1107,equifax,"6435 BRANN ST, OAKLAND, 94605",5000
P1230,epsilon,"10332 BICHESTER CT, BAKERSFIELD, 93311",38000
P1231,mobilink,"8510 BEAVER DR, BAKERSFIELD, 93312",17000
P1232,university of massachusetts amherst,"645 MAGNOLIA AVE, BAKERSFIELD, 93305",27000
P1233,younique products,"108 S LEVEL PL, ANAHEIM, 92804",22000
P1234,the cheesecake factory,"3833 FOOTHILL BL, OAKLAND, 94601",82000
P1235,educational testing service (ets),"6580 E VIA ARBOLES, ANAHEIM, 92807",14000
P1236,wolters kluwer,"632 S VELARE ST, ANAHEIM, 92804",5000
P1237,tenneco,"157 E El Camino Real, Mountain View, ",11000
P1238,university of tehran,"3640 NORTHWOOD DR, CASTRO VALLEY, 94546",11000
P3857,sca - hygiene and forest products company,"27301 AVON LN, TEMECULA, 92591",16000
R0738,san diego unified school district,"831 CARRGROVE CT, CHICO, 95926",5000
T2133,private family,"146 W 168TH ST, GARDENA, CA, 90248",22000
T2134,indian air force,"2031 12TH ST, OROVILLE, 95965",5000
T2135,"petco animal supplies, inc.","4314 CIMARRON RIDGE DR, BAKERSFIELD, 93313",27000
T2136,"regeneron pharmaceuticals, inc.","1807 ALAMEDA AV, ALAMEDA, 94501",16000
T2137,braskem,"1674 Fordham Way, Mountain View, ",27000
T2138,swedish medical center,"2121 102ND AV, OAKLAND, 94603",55000
T2139,giant eagle,"8575 MAHOGANY PL, NEWARK, 94560",38000
T3468,wayfair,"10761 MCKAY LN, DUBLIN, 94568",22000
T3525,mrv engenharia,"40741 GREYSTONE TE, FREMONT, 94538",16000
T3526,kier group,"10548 RIDGECREST DR, JACKSON, 95642",27000
T3527,cardiff university,"1310 PESANTE RD, BAKERSFIELD, 93306",19000
T3528,divan city otel,"32404 NEW HARBOR WY, UNION CITY, 94587",22000
T3529,weill cornell medical college,"1207 Via Los Trancos, Unincorporated Alameda County, 94580",11000
T3530,department of justice and constitutional development,"9925 BANCROFT AV, OAKLAND, 94603",27000
U3075,canadian natural resources limited (cnrl),"622 Arcadia Dr, Hayward, 94541",22000
U3076,military,"1353 VIA VISTA, SAN LORENZO, 94580",22000
U3077,palm beach county school district,"41 CONCOW-MAIDU DR, OROVILLE, 95966",6000
U3078,essilor,"8467 MONTNA DR, PARADISE, 95969",27000
U3079,zoetis,"1904 BLACKFOOT DR, FREMONT, 94539",16000
U3080,university of louisville,"4312 Null Dr, Antioch, 94509",38000
U3081,asus,"27083 Underwood Ave, Hayward, 94544",22000
V1230,uba group,"30310 TRADEWATER CT, TEMECULA, 92591",27000
V3274,food lion,"3187 KELLY ST, HAYWARD, 94541",11000
W0861,alaska airlines,"3315 FARNAM ST, OAKLAND, 94601",5000
W9875,åf,"21731 NICOLLE AVE, CARSON, CA, 90745",22000
W9876,cnn,"544 S MELROSE ST, ANAHEIM, 92805",8000
W9877,university of the witwatersrand,"2911 CRESCENT RIDGE ST, BAKERSFIELD, 93313",22000
W9878,free-lance,"515 S LAURINDA LN, Orange, ",16000
W9879,universidad complutense de madrid,"1083 AILEEN ST, OAKLAND, 94608",27000
W9880,funny types,"303 MEDFORD AV, HAYWARD, 94541",22000
W9881,nationwide childrens hospital,"31114 BUNKER DR, TEMECULA, 92591",27000
X8642,baycare health system,"1916 Florida St, Hayward, 94545",22000
X8643,sonda,"413 N HANDY ST, Orange, ",22000
Z4321,sweco,"38226 ASHFORD WY, FREMONT, 94536",27000
Z4322,pt hm sampoerna tbk,"20700 AVALON BLVD, CARSON, CA, 90746",22000
Z4323,cairo university,"207 WEEDY WAY, OROVILLE, 95901",27000
Z4324,smurfit kappa,"606 E 18th St, Antioch, 94509",22000
Z4325,city of houston,"687 Alquire Pkwy, Hayward, 94544",22000
Z4326,bnl gruppo bnp paribas,"2235 E VERMONT AVE, ANAHEIM, 92806",6000
Z4327,local government,"3002 MING AVE, BAKERSFIELD, 93304",27000
Z4328,harley-davidson motor company,"2223 East Ave, Unincorporated Alameda County, 94541",16000
Z4329,devry university,"106 MARGE CT, UNION CITY, 94587",38000
Z4330,norwegian cruise line,"1536 Lipton St, Antioch, 94509",22000
Z4331,"ann inc. (parent company of ann taylor, loft & lou & grey)","2037 LAGUNA DR, HAYWARD, 94545",27000
Z4332,con edison,"1224 GEORGETOWN AV, SAN LEANDRO, 94579",11000
Z4333,caltrans,"5683 WOODROSE WY, LIVERMORE, 94551",5000
Z4334,sikorsky aircraft,"5314 CHRISTINE PINE CT, BAKERSFIELD, 93313",22000
Z4335,ryanair,"181 PULLMAN ST, LIVERMORE, 94551",8000
Z4336,sharp healthcare,"18792 E BOND AV, Orange, ",22000
