ACCOUNT_NO	INVOICE_NO	TYPE	GROSS_AMT	GST	PST	PAID_FLAG	DATE	CUST_REF	COMMENT
C020	46000	I	2345.54	153.45	173.74		11/4/2014 0:00:00	A     5574	
R008	46001	I	692.72	45.32	51.31	P	1/4/2015 0:00:00	O     9844	
W008	46002	I	337.61	22.09	25.01	P	1/4/2015 0:00:00	Q     7639	
D014	46003	I	2306.54	150.9	170.85	P	1/4/2015 0:00:00	Z     5721	
H014	46004	I	2306.54	150.9	170.85	P	1/4/2015 0:00:00	W     8122	
M014	46005	I	1124.15	73.54	83.27	P	1/4/2015 0:00:00	X     2768	
C020	46006	I	3039.84	198.87	225.17		12/5/2014 0:00:00	X     9574	
R005	46007	I	1971.26	128.96	146.02	P	1/5/2015 0:00:00	T     9789	
G020	46008	I	2345.54	153.45	173.74	P	1/5/2015 0:00:00	S     8350	
M020	46009	I	3617.01	236.63	267.93	P	1/5/2015 0:00:00	Z     5068	
M123	46010	I	79.91	5.23	5.92		12/22/2014 0:00:00	V      587	
T004	46010	I	39.94	2.61	2.96		1/22/2015 0:00:00	Q     8882	
F123	46012	I	50.0	3.27	3.7	P	1/22/2015 0:00:00	K     3449	
T003	46013	I	3543.54	231.82	262.48		1/22/2015 0:00:00	D     8050	
N001	46014	I	3766.58	246.41	279.01		1/22/2015 0:00:00	K     3049	
N002	46015	I	24.99	1.63	1.85	P	1/22/2015 0:00:00	C      999	
F123	46016	I	2100.0	137.38	155.56		1/21/2015 0:00:00	Q      451	
A123	46017	I	50.0	3.27	3.7		1/22/2015 0:00:00	M     7134	
A123	46018	I	2100.0	137.38	155.56		1/22/2015 0:00:00	S     7316	
M123	46019	I	1975.65	129.25	146.34		1/22/2015 0:00:00	W      305	
G010	46020	I	2345.54	153.45	173.74		1/23/2015 0:00:00	L      751	
T010	46021	I	3689.05	241.34	273.26	P	1/23/2015 0:00:00	G      752	
P010	46022	I	4133.88	270.44	306.21		1/23/2015 0:00:00	G     7565	
M010	46023	I	2093.15	136.94	155.05	P	1/23/2015 0:00:00	F     7554	
B010	46024	I	2345.54	153.45	173.74	P	1/23/2015 0:00:00	V     5414	
F123	46025	I	123.76	8.1	9.17		1/29/2015 0:00:00	C     9610	
N005	46026	I	238.37	15.59	17.66		1/29/2015 0:00:00	Z     5004	
M123	46027	I	218.62	14.3	16.19	P	1/29/2015 0:00:00	V     6578	
T005	46028	I	421.09	27.55	31.19		1/29/2015 0:00:00	L     6746	
A123	46029	I	123.76	8.1	9.17		1/29/2015 0:00:00	G     7264	
F128	46030	I	2564.34	167.76	189.95		1/31/2015 0:00:00	N     4301	
P008	46031	I	283.98	18.58	21.04		1/31/2015 0:00:00	A     4754	
P008	46032	I	4848.66	317.2	359.16		1/31/2015 0:00:00	I     7053	
F128	46033	I	2361.0	154.46	174.89		1/31/2015 0:00:00	G     8569	
A128	46034	I	2361.0	154.46	174.89		1/31/2015 0:00:00	I     4686	
A128	46035	I	2564.34	167.76	189.95		1/31/2015 0:00:00	C     2311	
M128	46036	I	1311.12	85.77	97.12	P	1/31/2015 0:00:00	T     4961	
M128	46037	I	4512.18	295.19	334.24		1/31/2015 0:00:00	J      625	
T008	46038	I	9266.43	606.22	686.4		1/31/2015 0:00:00	G     9699	
T008	46039	I	145.2	9.5	10.76	P	1/31/2015 0:00:00	Y     1406	
R020	46040	I	218.16	14.27	16.16		2/4/2015 0:00:00	S     6291	
H025	46041	I	1383.92	90.54	102.51	P	2/4/2015 0:00:00	F     7148	
M025	46042	I	156.51	10.24	11.59	P	2/4/2015 0:00:00	Z     3527	
W020	46043	I	24.67	1.61	1.83	P	2/4/2015 0:00:00	H     4936	
D025	46044	I	1383.92	90.54	102.51		2/4/2015 0:00:00	D     5309	
N005	46045	C	-18.76	-1.23	-1.39		2/5/2015 0:00:00	N     2077	WRONG PRICE
M123	46046	C	-64.38	-4.21	-4.77	P	2/5/2015 0:00:00	I      641	WRONG PRICE
M010	46047	I	1180.56	77.23	87.45		2/5/2015 0:00:00	V     1548	
T010	46048	I	1590.44	104.05	117.81	P	2/5/2015 0:00:00	I     7700	
A123	46049	C	-78.96	-5.17	-5.85		2/5/2015 0:00:00	U     6881	WRONG PRICE
P010	46050	I	1026.61	67.16	76.05	P	2/5/2015 0:00:00	X     9387	
G010	46051	I	762.04	49.85	56.45		2/5/2015 0:00:00	D     7733	
F123	46052	C	-78.96	-5.17	-5.85		2/5/2015 0:00:00	T     9466	WRONG PRICE
B010	46053	I	762.04	49.85	56.45		2/5/2015 0:00:00	E     1972	
T005	46054	C	-15.3	-1.0	-1.13		2/5/2015 0:00:00	A     5636	WRONG PRICE
W020	46055	I	2.34	0.15	0.17		2/7/2015 0:00:00	P     5595	
C020	46056	I	762.04	9.8	5.53	P	2/7/2015 0:00:00	W     3121	
D014	46057	I	862.04	56.4	63.85	P	2/7/2015 0:00:00	J     4936	
G020	46058	I	762.04	49.85	56.45		2/7/2015 0:00:00	I     5096	
R005	46059	I	72.15	4.72	5.34	P	2/7/2015 0:00:00	Q     8508	
M020	46060	I	578.99	37.88	42.89	P	2/7/2015 0:00:00	J     6738	
R008	46061	I	816.27	53.4	60.46		2/7/2015 0:00:00	E     9646	
H025	46062	I	517.22	33.84	38.31		2/7/2015 0:00:00	B     8291	
D025	46063	I	517.22	33.84	38.31		2/7/2015 0:00:00	G     9311	
W008	46064	I	752.52	49.23	55.74	P	2/7/2015 0:00:00	F     5011	
M025	46065	I	70.78	4.63	5.24		2/7/2015 0:00:00	O      384	
R020	46066	I	17.12	1.12	1.27		2/7/2015 0:00:00	J     9640	
K001	46067	I	568.94	37.22	42.14	P	2/7/2015 0:00:00	T     4893	
M014	46068	I	794.71	51.99	58.87	P	2/7/2015 0:00:00	A      276	
W005	46069	I	54.82	3.59	4.06	P	2/7/2015 0:00:00	R     5049	
H014	46070	I	862.04	56.4	63.85	P	2/7/2015 0:00:00	Y     6063	
H025	46071	I	1811.1	118.48	134.16		2/12/2015 0:00:00	B     2989	
M025	46072	I	2003.34	131.06	148.4		2/12/2015 0:00:00	F      304	
H025	46073	P	-2000.59	0.0	0.0		2/12/2015 0:00:00	J     2564	
H025	46073	I	47.8	3.13	3.54		2/12/2015 0:00:00	J     2564	
G010	46074	I	2018.5	132.05	149.52		2/12/2015 0:00:00	R     1827	
M025	46075	P	-536.05	0.0	0.0		2/12/2015 0:00:00	V     6626	
M025	46075	I	255.6	16.72	18.93		2/12/2015 0:00:00	V     6626	
M010	46076	I	3334.34	218.13	246.99		2/12/2015 0:00:00	M     1443	
B010	46077	I	2018.5	132.05	149.52		2/12/2015 0:00:00	K     8814	
R025	46078	I	455.78	29.82	33.76		2/12/2015 0:00:00	Y     3679	
W025	46079	P	-62.99	0.0	0.0		2/12/2015 0:00:00	R     3885	
W025	46079	I	44.66	2.92	3.31		2/12/2015 0:00:00	R     3885	
W025	46080	I	504.16	32.98	37.35	P	2/12/2015 0:00:00	K     8307	
T010	46081	I	3851.6	251.97	285.3		2/12/2015 0:00:00	K     2826	
P010	46082	I	2331.63	152.54	172.71		2/12/2015 0:00:00	O     2089	
R025	46083	P	-235.09	0.0	0.0		2/12/2015 0:00:00	Z     8449	
R025	46083	I	13.85	0.91	1.03		2/12/2015 0:00:00	Z     8448	
M014	46084	I	3735.46	244.38	276.7		2/16/2015 0:00:00	P     6650	
D025	46085	I	1811.1	118.48	134.16		2/16/2015 0:00:00	D     4340	
W011	46086	I	1810.29	118.43	134.1		2/16/2015 0:00:00	B     7448	
R011	46087	I	1462.84	95.7	108.36		2/16/2015 0:00:00	Q     9494	
H014	46088	I	3018.5	197.47	223.59	P	2/16/2015 0:00:00	F     4946	
D014	46089	I	3018.5	197.47	223.59	P	2/16/2015 0:00:00	Q     4990	
C020	46090	I	9018.5	590.0	668.04	P	2/16/2015 0:00:00	I     2759	
K001	46091	I	1992.21	130.33	147.57		2/16/2015 0:00:00	K     6423	
M020	46092	I	8780.52	574.43	650.41	P	2/17/2015 0:00:00	B     6356	
W005	46093	I	13479.34	881.83	998.47		2/17/2015 0:00:00	C     1748	
G020	46094	I	9018.5	590.0	668.04		2/17/2015 0:00:00	P     4089	
R005	46095	I	13844.67	905.73	1025.53		2/17/2015 0:00:00	D     2370	
T010	46096	I	96.52	6.31	7.15		2/18/2015 0:00:00	B     1108	
B010	46097	I	289.32	18.93	21.43		2/18/2015 0:00:00	H     1025	
C020	46098	I	289.32	18.93	21.43		2/18/2015 0:00:00	F     3582	
W011	46099	I	176.3	11.53	13.06	P	2/18/2015 0:00:00	M     3204	
M020	46100	I	492.29	32.21	36.47	P	2/18/2015 0:00:00	L     3359	
W005	46101	I	916.0	59.93	67.85		2/18/2015 0:00:00	W     9860	
M014	46102	I	268.65	17.58	19.9		2/18/2015 0:00:00	R     1273	
M010	46103	I	140.74	9.21	10.43		2/18/2015 0:00:00	J     8216	
P010	46104	I	198.43	12.98	14.7		2/18/2015 0:00:00	H     1539	
G010	46105	I	289.32	18.93	21.43		2/18/2015 0:00:00	U     4316	
R005	46106	I	538.33	35.22	39.88		2/18/2015 0:00:00	J     9259	
D014	46107	I	389.32	25.47	28.84		2/18/2015 0:00:00	T     8268	
G020	46108	I	289.32	18.93	21.43	P	2/18/2015 0:00:00	P     3317	
D025	46109	P	-2000.59	0.0	0.0		2/18/2015 0:00:00	T     8025	
D025	46109	I	20.0	1.31	1.48		2/18/2015 0:00:00	T     8025	
R011	46110	I	255.49	16.71	18.93		2/18/2015 0:00:00	J     8049	
H014	46111	I	389.32	25.47	28.84		2/18/2015 0:00:00	X     5765	
A128	46112	I	320.5	20.97	23.74		2/25/2015 0:00:00	P     5806	
T006	46113	I	2706.64	177.07	200.49		2/25/2015 0:00:00	L      798	
F128	46114	I	320.5	20.97	23.74		2/25/2015 0:00:00	I     2410	
F123	46115	I	1765.25	115.48	130.76		2/25/2015 0:00:00	Q     2700	
N005	46116	I	1412.08	92.38	104.6		2/25/2015 0:00:00	M      121	
T008	46117	I	81.91	5.36	6.07		2/25/2015 0:00:00	G      716	
M123	46118	I	3383.59	221.36	250.64		2/25/2015 0:00:00	G     5145	
M128	46119	I	285.74	18.69	21.17	P	2/25/2015 0:00:00	A     6669	
A123	46120	I	1765.25	115.48	130.76		2/25/2015 0:00:00	J     1347	
P008	46121	I	91.87	6.01	6.81		2/25/2015 0:00:00	E     7040	
B010	46122	I	1028.05	67.26	76.15		2/27/2015 0:00:00	R     3791	
M010	46123	I	827.44	54.13	61.29		2/27/2015 0:00:00	S     9616	
R010	46124	I	193.76	12.68	14.35	P	2/27/2015 0:00:00	X     3814	
T010	46125	I	155.95	10.2	11.55		2/27/2015 0:00:00	A     4633	
G010	46126	I	1028.05	67.26	76.15		2/27/2015 0:00:00	H      274	
Z001	46127	I	1563.61	102.29	115.82		3/1/2015 0:00:00	D     8963	
M025	46128	I	3609.43	236.13	267.37		3/3/2015 0:00:00	F     9804	
T006	46129	I	1447.32	94.68	107.21		3/3/2015 0:00:00	I     9795	
M123	46130	I	5446.64	356.32	403.45		3/3/2015 0:00:00	Q     4386	
H025	46131	I	2416.83	158.11	179.02		3/3/2015 0:00:00	N     1465	
P006	46132	I	906.14	59.28	67.12		3/3/2015 0:00:00	N     3432	
A123	46133	I	3410.05	223.09	252.6		3/3/2015 0:00:00	A     6056	
F123	46134	I	3410.05	223.09	252.6	P	3/3/2015 0:00:00	D     9712	
W007	46135	I	342.06	22.38	25.34		3/4/2015 0:00:00	W     1685	
R007	46136	I	492.72	32.23	36.5		3/4/2015 0:00:00	V     2475	
C020	46137	I	1028.05	67.26	76.15	P	3/4/2015 0:00:00	U     9930	
M020	46138	I	713.71	46.69	52.87		3/4/2015 0:00:00	F      491	
G020	46139	I	1028.05	67.26	76.15		3/4/2015 0:00:00	C     2446	
D014	46140	I	4028.05	263.52	298.37		3/4/2015 0:00:00	Z     3246	
R020	46141	I	901.22	58.96	66.76	P	3/4/2015 0:00:00	H     9480	
M014	46142	I	1026.45	67.15	76.03		3/4/2015 0:00:00	D     9044	
H014	46143	I	4028.05	263.52	298.37		3/4/2015 0:00:00	C     2657	
W020	46144	I	229.65	15.02	17.01		3/4/2015 0:00:00	S     8587	
R025	46145	I	2961.86	193.77	219.4		3/5/2015 0:00:00	E     3320	
P009	46146	I	146.41	9.58	10.85		3/5/2015 0:00:00	L     1592	
M010	46147	I	6.15	0.4	0.46		3/5/2015 0:00:00	Q     1708	
D014	46148	I	234.51	15.34	17.37	P	3/5/2015 0:00:00	L     1382	
T009	46149	I	211.26	13.82	15.65		3/5/2015 0:00:00	P     5391	
C020	46150	I	234.51	15.34	17.37		3/5/2015 0:00:00	M     5554	
M128	46151	I	768.28	50.26	56.91		3/5/2015 0:00:00	V     6983	
G020	46152	I	234.51	15.34	17.37		3/5/2015 0:00:00	E     6208	
H014	46153	I	234.51	15.34	17.37		3/5/2015 0:00:00	H     3190	
T010	46154	I	4.75	0.31	0.35		3/5/2015 0:00:00	I      657	
W025	46155	I	4423.41	289.38	327.66		3/5/2015 0:00:00	I     8272	
B010	46156	I	10.11	0.66	0.75		3/5/2015 0:00:00	F     9213	
M020	46157	I	182.69	11.95	13.53		3/5/2015 0:00:00	G     5542	
F128	46158	I	532.45	34.83	39.44		3/5/2015 0:00:00	D     8601	
W020	46159	I	1408.55	92.15	104.34		3/5/2015 0:00:00	Y     6368	
A128	46160	I	532.45	34.83	39.44		3/5/2015 0:00:00	U     1449	
R007	46161	I	53.94	3.53	4.0		3/5/2015 0:00:00	J     6864	
R020	46162	I	760.1	49.73	56.3		3/5/2015 0:00:00	Q     8983	
M014	46163	I	434.57	28.43	32.19		3/5/2015 0:00:00	W     8318	
G010	46164	I	10.11	0.66	0.75		3/5/2015 0:00:00	O     9423	
R010	46165	I	7.81	0.51	0.58	P	3/5/2015 0:00:00	R     7450	
W007	46166	I	42.02	2.75	3.11		3/5/2015 0:00:00	O     4228	
D025	46167	I	2416.83	158.11	179.02		3/7/2015 0:00:00	J     1545	
K001	46168	I	2658.51	173.92	196.93		3/7/2015 0:00:00	A     5426	
D025	46169	I	140.71	9.21	10.42		3/7/2015 0:00:00	I     3289	
K001	46170	I	154.78	10.13	11.47		3/7/2015 0:00:00	W     6115	
M025	46171	I	95.95	6.28	7.11		3/7/2015 0:00:00	V     7278	
H025	46172	I	140.71	9.21	10.42		3/7/2015 0:00:00	U     7856	
W025	46173	I	37.55	2.46	2.78		3/9/2015 0:00:00	O     3020	
R025	46174	I	55.06	3.6	4.08		3/9/2015 0:00:00	A     5775	
K001	46210	I	6682.5	437.17	495.0		3/11/2015 0:00:00	H     6628	
F128	46175	I	431.8	28.25	31.99		3/15/2015 0:00:00	U     6317	
M128	46176	I	157.08	10.28	11.64		3/15/2015 0:00:00	H     8228	
P010	46177	I	286.14	18.72	21.2		3/15/2015 0:00:00	J     6696	
T010	46178	I	104.09	6.81	7.71		3/15/2015 0:00:00	B     2884	
A128	46179	I	431.8	28.25	31.99		3/15/2015 0:00:00	E     8346	
F123	46180	I	1520.98	99.5	112.67		3/17/2015 0:00:00	K     4450	
P006	46181	I	2002.03	130.97	148.3		3/17/2015 0:00:00	O     7000	
T006	46182	I	3311.46	216.64	245.29		3/17/2015 0:00:00	Z     8470	
A123	46183	I	1520.98	99.5	112.67		3/17/2015 0:00:00	V     9359	
M123	46184	I	2515.78	164.58	186.35		3/17/2015 0:00:00	A     4531	
T010	46185	C	-1588.16	-103.9	-117.64		3/18/2015 0:00:00	I     9884	
A128	46186	C	-431.0	-28.2	-31.93		3/18/2015 0:00:00	O      624	
B008	46187	C	-431.0	-28.2	-31.93		3/18/2015 0:00:00	X      857	
F128	46188	C	-431.0	-28.2	-31.93		3/18/2015 0:00:00	Z     1538	
F130	46189	C	-431.0	-28.2	-31.93		3/18/2015 0:00:00	C      605	
T010	46190	C	-1.54	-0.1	-0.11		3/18/2015 0:00:00	O     6826	
M128	46191	C	-634.79	-41.53	-47.02		3/18/2015 0:00:00	W     5138	
M130	46192	C	-44.45	-2.91	-3.29		3/18/2015 0:00:00	F     6273	
P010	46193	C	-1078.31	-70.54	-79.87		3/18/2015 0:00:00	S     5252	
P010	46194	C	-14.93	-0.98	-1.11		3/18/2015 0:00:00	Q     6421	
R010	46195	I	0.33	0.02	0.02		3/21/2015 0:00:00	Q     1563	
W025	46196	I	16095.58	1052.98	1192.27		3/21/2015 0:00:00	V     7610	
W020	46197	I	17307.59	1132.27	1282.04		3/21/2015 0:00:00	P     4077	
R020	46198	I	10564.84	691.16	782.58		3/21/2015 0:00:00	J     1497	
R025	46199	I	13001.28	850.55	963.06		3/21/2015 0:00:00	Q     3676	
D025	46200	I	6075.0	397.43	450.0		3/21/2015 0:00:00	Y     5531	
C020	46201	I	34.0	2.22	2.52		3/21/2015 0:00:00	R     3216	
W007	46202	I	58.34	3.82	4.32		3/21/2015 0:00:00	T     3403	
B010	46203	I	10.34	0.68	0.77		3/21/2015 0:00:00	E     9337	
D014	46204	I	10125.0	662.38	750.0		3/21/2015 0:00:00	P     6210	
T010	46205	I	0.01	0.0	0.0		3/21/2015 0:00:00	W       27	
M014	46206	I	16587.03	1085.13	1228.67		3/21/2015 0:00:00	B     2960	
M020	46207	I	46.83	3.06	3.47		3/21/2015 0:00:00	D     3128	
G010	46208	I	10.34	0.68	0.77		3/21/2015 0:00:00	Y     7937	
G020	46209	I	34.0	2.22	2.52		3/21/2015 0:00:00	A     8975	
H014	46211	I	10125.0	662.38	750.0		3/21/2015 0:00:00	V     3543	
M025	46212	I	7520.85	492.02	557.1		3/21/2015 0:00:00	C     9724	
R007	46213	I	42.36	2.77	3.14		3/21/2015 0:00:00	X     7614	
M010	46214	I	0.4	0.03	0.03		3/21/2015 0:00:00	L      931	
H025	46215	I	6075.0	397.43	450.0		3/21/2015 0:00:00	B     7559	
M014	46216	C	-1945.75	-127.29	-144.13		3/23/2015 0:00:00	Z     2236	
C020	46217	C	-234.51	-15.34	-17.37		3/23/2015 0:00:00	L     4150	
T010	46218	C	-5.81	-0.38	-0.43		3/23/2015 0:00:00	F     3362	
D014	46219	C	-2500.51	0.0	0.0		3/23/2015 0:00:00	S     5178	
R025	46220	C	-98.14	-6.42	-7.27		3/23/2015 0:00:00	Y     3634	
H014	46221	C	-2500.51	-163.58	-185.22		3/23/2015 0:00:00	U     6004	
W020	46222	C	-2447.82	-160.14	-181.32		3/23/2015 0:00:00	I     6582	
B010	46223	C	-10.11	-0.66	-0.75		3/23/2015 0:00:00	S     7624	
H025	46224	C	-1500.31	-98.15	-111.13		3/23/2015 0:00:00	M     3744	
G020	46225	C	-234.51	-15.34	-17.37		3/23/2015 0:00:00	W     8425	
M025	46226	C	-1125.14	-73.61	-83.34		3/23/2015 0:00:00	U     9265	
G010	46227	C	-10.11	-0.66	-0.75		3/23/2015 0:00:00	K     3771	
R010	46228	C	-7.29	-0.48	-0.54		3/23/2015 0:00:00	O     6430	
R007	46229	C	-38.73	-2.53	-2.87		3/23/2015 0:00:00	Y     2310	
R020	46230	C	-3145.73	-205.8	-233.02		3/23/2015 0:00:00	M     4849	
M010	46231	C	-8.06	-0.53	-0.6		3/23/2015 0:00:00	E     6305	
M020	46232	C	-36.03	-2.36	-2.67		3/23/2015 0:00:00	C     3197	
W007	46233	C	-5.95	-0.39	-0.44		3/23/2015 0:00:00	G     5341	
W025	46234	C	-73.6	-4.81	-5.45		3/23/2015 0:00:00	F     3953	
D025	46235	C	-1500.31	-98.15	-111.13		3/23/2015 0:00:00	N     7018	
W025	46236	I	529.63	34.65	39.23		3/25/2015 0:00:00	I     4178	
M025	46237	I	336.47	22.01	24.92		3/25/2015 0:00:00	V     2149	
D025	46238	I	193.08	12.63	14.3		3/25/2015 0:00:00	J     1720	
K001	46239	I	212.39	13.89	15.73		3/25/2015 0:00:00	L     8320	
H025	46240	I	193.08	12.63	14.3		3/25/2015 0:00:00	Y     9604	
R025	46241	I	303.92	19.88	22.51		3/25/2015 0:00:00	F     7773	
R025	46242	I	1414.91	92.56	104.81		3/26/2015 0:00:00	Z     5601	
W025	46243	I	2602.38	170.25	192.77		3/26/2015 0:00:00	Q      666	
H014	46244	I	1245.43	81.48	92.25		3/27/2015 0:00:00	N     8872	
H025	46245	I	747.26	48.89	55.35		3/27/2015 0:00:00	C     1114	
M025	46246	I	1369.12	89.57	101.42		3/27/2015 0:00:00	M     4576	
W020	46247	I	655.02	42.85	48.52		3/27/2015 0:00:00	G     9407	
W020	46248	I	287.24	18.79	21.28		3/27/2015 0:00:00	C     4499	
W025	46249	I	2278.87	149.08	168.81		3/27/2015 0:00:00	U     3014	
R020	46250	I	651.58	42.63	48.27		3/27/2015 0:00:00	N     2910	
R025	46251	I	1243.8	81.37	92.13		3/27/2015 0:00:00	E     3930	
M014	46252	I	1707.7	111.72	126.5		3/27/2015 0:00:00	Q     4790	
R020	46253	I	592.83	38.78	43.91		3/27/2015 0:00:00	Q     4574	
H014	46254	I	1545.56	101.11	114.49		3/27/2015 0:00:00	B     5275	
M014	46255	I	549.03	35.92	40.67		3/27/2015 0:00:00	L     6290	
W025	46256	I	18349.53	1200.44	1359.22		3/28/2015 0:00:00	K     4463	
R025	46257	I	9624.71	629.65	712.94		3/28/2015 0:00:00	N     1515	
M025	46258	I	948.4	62.04	70.25		3/29/2015 0:00:00	H     7960	
D025	46259	I	747.26	48.89	55.35		3/29/2015 0:00:00	W     6235	
K001	46260	I	1020.07	6.67	7.55		3/29/2015 0:00:00	V     2940	
W025	46261	I	1511.79	98.9	111.98		3/29/2015 0:00:00	T     9329	
K001	46262	I	821.99	53.78	60.89		3/29/2015 0:00:00	Q     1071	
D025	46263	I	927.34	60.67	68.69		3/29/2015 0:00:00	I     1750	
R025	46264	I	1478.21	96.71	109.5		3/29/2015 0:00:00	L     5599	
H025	46265	I	927.34	60.67	68.69		3/29/2015 0:00:00	J     1640	
M025	46266	I	1705.61	111.58	126.34		3/29/2015 0:00:00	O     6896	
H025	46267	I	927.34	60.67	68.69		3/29/2015 0:00:00	I     1368	
W020	46268	I	46.26	3.03	3.43		3/30/2015 0:00:00	Z     3464	
M014	46269	I	407.89	26.68	30.21		3/30/2015 0:00:00	Y      294	
R010	46270	I	518.66	33.93	38.42		3/30/2015 0:00:00	D      371	
B010	46271	I	299.9	19.62	22.21		3/30/2015 0:00:00	S     7855	
D014	46272	I	321.8	21.05	23.84		3/30/2015 0:00:00	D     6275	
R008	46273	I	1485.16	97.16	110.01		3/30/2015 0:00:00	B     9751	
R020	46274	I	36.5	2.39	2.7		3/30/2015 0:00:00	R     2348	
G010	46275	I	299.9	19.62	22.21		3/30/2015 0:00:00	F     2424	
G020	46276	I	3456.2	226.11	256.01		3/30/2015 0:00:00	J     9280	
H014	46277	I	321.8	21.05	23.84		3/30/2015 0:00:00	M     2567	
M020	46278	I	4160.92	272.21	308.22		3/30/2015 0:00:00	Z     2339	
C020	46279	I	3456.2	226.11	256.01		3/30/2015 0:00:00	R     6345	
M010	46280	I	512.33	33.52	37.95		3/30/2015 0:00:00	J     6917	
T010	46281	I	886.05	57.97	65.63		3/30/2015 0:00:00	K     5604	
W008	46282	I	1787.98	116.97	132.44		3/30/2015 0:00:00	B     7778	
T007	46100	P	-1684.99	0.0	0.0		3/31/2015 0:00:00	W     3699	ON ACCOUNT
T007	46100	I	5.3	0.35	0.39		3/31/2015 0:00:00	W     3699	
A123	46283	P	-2000.0	0.0	0.0		3/31/2015 0:00:00	Z     6979	ON ACCOUNT
A123	46283	I	200.0	13.08	14.81		3/31/2015 0:00:00	Z     6979	
F123	46284	P	-2000.0	0.0	0.0		3/31/2015 0:00:00	C     1607	ON ACCOUNT
F123	46284	I	14.71	0.96	1.09		3/31/2015 0:00:00	C     1607	
D014	46285	I	1545.56	101.11	114.49		3/31/2015 0:00:00	N     4718	
M123	46287	P	-1512.18	0.0	0.0		3/31/2015 0:00:00	I     5741	ON ACCOUNT
M123	46287	I	23.0	1.5	1.7		3/31/2015 0:00:00	I     5741	
P007	46288	P	-2228.55	0.0	0.0		3/31/2015 0:00:00	X     8024	ON ACCOUNT
P007	46288	I	19.99	1.31	1.48		3/31/2015 0:00:00	X     8024	
D014	46286	I	1245.43	81.48	92.25		4/1/2015 0:00:00	H     7759	
