W007	Matt Cash Co	879-97	20150409	83516.79		701218	20150409	V.S.T
W007	I M A Crook	97 2089.29J	20150611	14432.19		701391	20150611	HV
M100	M Cash Inc	UP-76409	20151003	75000		701774	20151008	HMV
M100	The Cash Co Inc	784566542	20151101	59096.84		701875	20151101	V.S.T
W007	F O R CASH	97 3 PMP	20151127	4580.68		701945	20151127	VST
M100	Crooks Inc	PI7683	20150210	21632.22		701046	20150212	H.M.V.
C202	Matt Cash	51726	20150306	6242.74		701117	20150306	HMV
M100	Cashonly	UY-9371	20150428	2792.72		701270	20150501	HV
W007	CASH & CO	LD35622	20150522	25242.2		701341	20150523	HV
M100	Cash Inc	CS - 717 -97	20150915	75000		701728	20150917	VST
W007	Crooks R Us	97 2085.29J	20151017	71409.78		701825	20151018	HMV
M100	Co Cash Inc	T5352	20151019	75000		701849	20151022	V.S.T
M025	Luke Hair	51498	20150210	50067.31		701027	20150212	HV
C202	CASH INC	13597	20150216	9264.18		701071	20150219	VST
W007	Cash Inc	AB 3265 M	20150319	104112.83		701166	20150325	HMV
W007	The Matt Cash Co	97/3972/U	20150807	6539.64		701600	20150808	HMV
C202	Only Cash	BC 469904 W	20150821	5885.73		701650	20150822	HMV
W007	Cash 'N' Co	XQV 97 12	20150928	5319.96		701764	20151002	HV
W007	Mr Cash Co	22 31 97	20151012	75000		701803	20151013	VST
M100	Cash Back Inc	CB3456	20151119	2922.78		701927	20151120	H.M.V.
C202	F O R Cash Only	MHY 1458	20150718	30850.11		701529	20150721	VST
C202	P Crook	.JFM.1256	20151003	78794.09		701801	20151006	HMV
M100	Matt Cash & Co	In879-97	20150626	190071.38		701443	20150630	HMV
C202	Cash Co	LD35610	20151005	13867.72		701793	20151009	HMV
C202	Cash F O R Us	OO P 643	20150831	49033.14		701702	20150907	HV
P006	Nellie Dunn	000496CJW	20150110	64592.51		701007	20150203	H.M.V.
M014	Linda Hand	GR132 97	20150111	26340.3		701013	20150205	HMV
M128	Maurice Mynah	IN-392817	20150114	11649.19		701022	20150209	BC
R025	Ray	54976/10	20150117	96166.49		701037	20150212	V.S.T
F123	Dick Tate	35214DUF	20150117	13041.42		701039	20150212	HMV
D014	Chimps Teaparty	147865CTR	20150117	30097.05		701042	20150212	HMV
P009	P Green	566701T	20150117	29990.31		701058	20150216	BC
G020	Gus Main	T5727VB	20150126	5241.15		701067	20150217	VMH
M128	Microcomputers	5750MCC	20150202	97376.4		701092	20150226	HMV
A128	A Meadow	117- 2293	20150202	4735.39		701095	20150226	VST
B008	A Raid	3501050	20150129	22880.98		701103	20150228	H.M
T005	Read I.M.	47/952	20150208	80710.31		701104	20150303	BC
T007	Tim Table	261199FF	20150209	37704.8		701115	20150306	HMV
M025	Luke Hair	51522	20150209	86780.44		701120	20150306	HMV
D025	Denise Bent	81344	20150210	696.6		701124	20150307	CW
P010	Penny Cillin	100161	20150212	36147.13		701126	20150309	BC
G010	Fixes	871472BUZ	20150126	6732.3		701130	20150309	HMV
Z001	Miles Long	FR-977 45	20150214	779.52		701139	20150312	WJT
R007	Philip Upp Garage	1361/21	20150219	96240.88		701149	20150315	HMV
T005	Reed I	21569	20150115	7695.32		701153	20150310	HMV
K001	Joyce Tick	54655	20150223	18892.71		701163	20150320	BC
W011	Witch Products	26G	20150221	99361.47		701167	20150322	BC
W025	Wite Wash	2001/108.63	20150228	1685.05		701170	20150324	HMV
N001	Mike Atsil	AZ356	20150228	52171.73		701173	20150324	HV
D025	Denise Bent	81345	20150228	21668		701175	20150324	VST
P009	P Green	566737T	20150301	31819.37		701184	20150327	BC
G020	Gus Main	T5740VB	20150228	27273.46		701193	20150324	H.M.V.
R008	Phillippa Pail	97/1261/A	20150309	50522.27		701198	20150403	HMV
T005	Ronnie Biggs	7899456	20150309	57811.31		701206	20150403	HMV
Z001	Wong Way	10004-97-213	20150316	6476.3		701221	20150410	H.M.V.
N001	Mike Atsil	AZ357	20150313	23294.64		701225	20150407	H.M.V.
B010	Carter Bout	971027A	20150321	5950.71		701228	20150416	CW
R008	Penny Cillin	100171	20150319	91641.27		701229	20150416	HMV
W007	Trevor Wills	TJ9740	20150321	14503.02		701230	20150416	WJT
P007	Nellie Dunn	000512CJW	20150321	86376.13		701231	20150416	BC
T010	Wanda Farr	10047 A	20150321	23563.96		701232	20150416	HMV
M130	Microcomputers	5770MCC	20150324	16269.36		701240	20150418	CB
C202	Cary S Matic	CS - 589 -97	20150324	79217.47		701241	20150418	H.M.V.
A128	A Meadow	117- 2314	20150324	8885.12		701243	20150418	BC
M014	Kurt N Upp	123485	20150328	2457.94		701248	20150423	VMH
M025	L Hair	263 A2Z	20150328	15151.15		701249	20150423	WJT
T005	Ri Pent	PPN98812	20150330	20284.39		701254	20150424	HMV
F123	Dick Tate	35234DUF	20150402	645.08		701263	20150427	HV
T007	Tim Table	261212FF	20150406	17354.96		701268	20150428	HMV
A128	A Meadow	117- 2320	20150411	6184.65		701289	20150507	H.M.V.
M014	Kurt N Upp	123489	20150413	15906.2		701294	20150508	VMH
W007	Trevor Wills	TJ9745	20150416	69994.18		701306	20150510	WJT
F130	Farmer	14641	20150417	13206.82		701310	20150512	VMH
M014	Linda Hand	GR178 97	20150418	715.77		701313	20150514	HV
Z001	Miles Long	FR-990 65	20150420	1991.02		701318	20150515	H.M.V.
H014	Honor Toze	659847	20150427	76994.34		701335	20150522	WJT
H025	Ivan Aker	WNZ51C	20150501	33303.69		701347	20150526	HV
P009	P Green	566768T	20150507	66946.87		701357	20150531	HMV
M020	Luke Hair	2883 BNA	20150507	7398.41		701359	20150531	HMV
Z001	Miles Long	FR-998 69	20150508	12413.11		701363	20150602	BC
F130	1 Moore	IN 6476 97	20150509	470.47		701365	20150604	PJM
R008	Phillippa Pail	97/1288/A	20150511	49274.67		701371	20150605	V.S.T
M123	Luke Hair	51594	20150511	10304.58		701372	20150605	HMV
F128	Ern Payed	82 119 1	20150512	622.32		701373	20150606	VMH
K001	Jackie Tupp	917375	20150508	780.82		701383	20150602	HMV
K001	Joyce Tick	54701	20150515	225.06		701388	20150609	WJT
P007	Nellie Dunn	000521CJW	20150522	637.93		701404	20150616	BC
M130	Microcomputers	5811MCC	20150526	4697.62		701413	20150620	HV
T005	Ri Pent	PPN98865	20150601	19032.26		701427	20150626	BC
B008	A Raid	3501087	20150602	8414.94		701429	20150627	WJT
T006	Round Table	BUR1364-G	20150529	18735.57		701433	20150623	BC
T009	Truckstop	97 2061.29J	20150605	29339.05		701442	20150630	WJT
W008	Winchester	1670 IOU-97	20150605	2373.08		701445	20150630	HMV
G010	Fixes	871511BUZ	20150608	52536.79		701450	20150701	HMV
F130	Farmer	14653	20150608	177.41		701451	20150703	CW
W007	Trevor Wills	TJ9754	20150612	5336.12		701471	20150707	H.M.V.
G010	Fixes	871516BUZ	20150615	9986.12		701474	20150710	HMV
R020	Polly Gunn	L-1304/66	20150615	71600.4		701476	20150710	BC
W007	Trevor Wills	TJ9757	20150618	50519.21		701489	20150712	HMV
M025	Luke Hair	2922 BNA	20150620	438.96		701497	20150716	WJT
Z001	Miles Long	FR-1024 81	20150622	6753.64		701501	20150717	VMH
A128	A Meadow	117- 2358	20150622	27891.77		701502	20150717	VMH
M128	Maurice Mynah	IN-392887	20150625	32163		701505	20150720	VMH
M123	Luke Hair	51611	20150619	77696.65		701510	20150714	HMV
T004	Richmond	IN/1163/97	20150629	1770.98		701518	20150724	BC
K001	Jackie Tupp	917383	20150629	24923.54		701521	20150724	WJT
M025	Joyce Tick	54727	20150702	44063.84		701526	20150727	HMV
W020	Witch Products	43G	20150626	3571.32		701530	20150721	WJT
Z001	Wong Way	10011-97-213	20150703	6741.05		701532	20150727	HMV
W025	Wite Wash	2001/125.63	20150626	3621.38		701533	20150721	BC
G010	Fixes	871531BUZ	20150704	5099.39		701538	20150730	WJT
M025	Luke Hair	2923 BNA	20150704	23528.33		701543	20150730	WJT
R010	Phillippa Pail	97/1320/A	20150704	50741.01		701555	20150730	HMV
B010	Carter Bout	971056A	20150706	51717.96		701563	20150731	WJT
M130	Microcomputers	5845MCC	20150809	63116.33		701575	20150803	HV
R011	Pole Tacks	LBQ-727-XY	20150714	18756.95		701595	20150808	WJT
M025	Joyce Tick	54737	20150714	39639.96		701597	20150808	HV
W011	Winchester	1672 IOU-97	20150714	16563.96		701602	20150808	BC
T010	Wanda Farr	10098 A	20150706	20187.94		701612	20150814	WJT
G010	Fixes	871539BUZ	20150720	74918.27		701613	20150814	WJT
C202	Cary S Matic	CS - 659 -97	20150720	4839.81		701621	20150814	BC
A128	A Meadow	117- 2381	20150721	41431.33		701623	20150815	BC
F130	1 Moore	IN 6502 97	20150721	36418.5		701624	20150815	HMV
M025	L Hair	312 A2Z	20150721	19555.36		701629	20150815	WJT
F128	Ern Payed	82 157 1	20150723	9403.61		701632	20150816	WJT
T005	Richmond	IN/1170/97	20150725	39420.82		701639	20150819	HMV
F123	Dick Tate	35276DUF	20150727	7786.03		701643	20150821	HMV
T008	Tim Table	261239FF	20150728	1988.78		701648	20150822	H.M.V.
W025	Wite Wash	2001/131.63	20150730	23672.29		701654	20150823	HMV
R008	Penny Cillin	100227	20150724	190.61		701661	20150818	HMV
G010	Fixes	871542BUZ	20150730	83645.9		701665	20150827	HMV
F130	Farmer	14688	20150801	36711.04		701666	20150827	WJT
R020	Polly Gunn	L-1329/71	20150801	2515.3		701667	20150827	V.S.T
M025	Luke Hair	2950 BNA	20150803	72319.62		701670	20150828	HMV
P009	O Kay Yahs	BC 469827 W	20150803	87818.28		701671	20150828	HV
G020	Gus Main	T5822VB	20150803	34501.96		701677	20150828	WJT
H025	IM Right	4901- 97	20150807	76200.59		701689	20150901	HMV
T005	Richmond	IN/1171/97	20150808	299.23		701691	20150903	BC
T007	Round Table	BUR1377-G	20150808	16024.17		701692	20150903	H.M.V.
K001	Jackie Tupp	917408	20150808	58838.39		701694	20150903	HMV
W011	Winchester	1680 IOU-97	20150814	94909.33		701704	20150908	WJT
Z001	Wong Way	10015-97-213	20150814	15465.78		701705	20150908	V.S.T
W025	Wite Wash	2001/137.63	20150814	41948.29		701706	20150908	BC
N001	Mike Atsil	AZ397	20150814	1974.75		701709	20150908	VMH
R010	Phillippa Pail	97/1343/A	20150824	54374.1		701734	20150918	HMV
T004	Ri Pent	PPN98900	20150825	69534		701738	20150919	WJT
H025	IM Right	4908- 97	20150828	9059.22		701741	20150922	WJT
R025	Ray	55004/10	20150829	5165.1		701745	20150924	V.S.T
D025	Chimps Teaparty	147928CTR	20150903	2868.66		701750	20150927	BC
M025	Joyce Tick	54789	20150903	30819.9		701751	20150927	VMH
T010	Wanda Farr	10118 A	20150907	13528.85		701762	20151002	HMV
M025	Luke Hair	2968 BNA	20150907	54744		701768	20151002	WJT
P009	O Kay Yahs	BC 469849 W	20150907	26421.25		701769	20151002	VMH
F123	Denise Bent	81372	20150912	19194.58		701786	20151008	HMV
W007	Trevor Wills	TJ9775	20150912	44035.95		701789	20151008	HMV
R008	Philip Upp Garage	1458/21	20150918	316.4		701808	20151013	H.M.V.
K001	Jackie Tupp	917418	20150921	16360.27		701817	20151016	HMV
F123	Dick Tate	35288DUF	20150922	58571.77		701818	20151017	WJT
T009	Truckstop	97 2076.29J	20150924	6313.86		701824	20151018	HMV
P008	Noah Lott	9449 NL	20151002	620.31		701852	20151026	VMH
K001	Jackie Tupp	917419	20151005	76686.73		701867	20151030	HMV
M025	Joyce Tick	54814	20151006	23104.1		701872	20151031	H.M.V.
Z001	Wong Way	10019-97-213	20151002	16466.83		701878	20151027	HV
Z001	Mike Atsil	AZ410	20151010	40446.46		701882	20151105	CW
H025	Ivan Aker	WNZ98C	20151012	61426.43		701883	20151106	WJT
B010	Carter Bout	971070A	20151012	573.91		701885	20151106	H.M
G020	Fixes	871559BUZ	20151015	59798.89		701890	20151108	WJT
M020	Linda Hand	GR266 97	20151009	71433.11		701894	20151103	HMV
M014	Kurt N Upp	123540	20151020	99834.78		701905	20151114	HMV
M123	Luke Hair	51720	20151020	18008.48		701908	20151114	V.S.T
T006	Ronnie Biggs	7899511	20151016	11139.21		701915	20151110	HMV
T005	Richmond	IN/1183/97	20151023	13355.03		701916	20151119	WJT
K001	Jackie Tupp	917425	20151016	70866.39		701919	20151111	WJT
R011	Pole Tacks	LBQ-757-XY	20151023	64492.21		701922	20151119	BC
W011	Winchester	1697 IOU-97	20151026	2698.91		701929	20151120	BC
Z001	Wong Way	10022-97-213	20151026	48696.01		701930	20151120	BC
N001	Microcomputers	5900MCC	20151031	3038.95		701941	20151126	HMV
B008	A Meadow	117- 2411	20151102	97454.56		701944	20151127	HMV
Z001	Mike Atsil	AZ450	20151030	4977.15		701950	20151124	H.M.V.
P007	Nellie Dunn	000564CJW	20151106	63995.56		701956	20151130	HMV
G010	Farmer	14712	20151106	56203.15		701959	20151201	HMV
P010	P Green	566933T	20151113	42441.89		701983	20151208	BC
M025	Luke Hair	3012 BNA	20151116	12400.19		701985	20151210	H.M.V.
H014	Gus Main	T5872VB	20151119	3015.3		701992	20151213	VMH
P008	Noah Lott	9460 NL	20151119	48274.38		701994	20151213	CW
W007	Trevor Wills	TJ9729	20150108	9620.16		701006	20150203	HMV
G010	Fixes	871456BUZ	20150110	37418.72		701009	20150205	WJT
F130	Farmer	14598	20150110	50.63		701010	20150205	HMV
R011	Polly Gunn	L-1221/55	20150110	6865.13		701011	20150205	HMV
C202	Cary S Matic	CS - 563 -97	20150112	20431.8		701017	20150207	H.M.V.
F128	Ern Payed	82 64 1	20150108	18682.41		701028	20150112	HMV
R007	Philip Upp Garage	1345/21	20150115	4538.39		701029	20150210	HMV
N005	N Rich	9724631	20150115	53189.36		701031	20150210	BC
K001	Joyce Tick	54621	20150117	7106.92		701043	20150212	WJT
T007	Tim Table	261197FF	20150117	48399.72		701044	20150212	BC
W020	Wite Wash	2001/102.63	20150108	35637.48		701050	20150215	V.S.T
P006	Nellie Dunn	000500CJW	20150119	60539.44		701053	20150215	HMV
A128	A Meadow	117- 2290	20150122	19284.31		701065	20150217	HMV
M025	Luke Hair	51505	20150126	79500		701073	20150219	H.M.V.
H025	Ivan Aker	WNZ35C	20150126	4178.69		701078	20150221	VST
F130	Farmer	14614	20150129	60355.21		701086	20150224	WJT
P009	P Green	566713T	20150129	14425.71		701088	20150224	BC
G020	Gus Main	T5730VB	20150202	3819.33		701097	20150228	VMH
T005	Ronnie Biggs	7899449	20150205	78151.51		701105	20150303	HMV
T008	Truckstop	97 2044.29J	20150207	11375.26		701116	20150306	HMV
W011	Witch Products	25G	20150209	21650.08		701118	20150306	HMV
M025	Luke Hair	51524	20150209	18793.41		701121	20150306	BC
N001	Mike Atsil	AZ355	20150219	7699.6		701122	20150306	CB
F130	Farmer	14624	20150210	8907.75		701131	20150309	WJT
R011	Polly Gunn	L-1243/58	20150210	56238.78		701132	20150309	WJT
P009	P Green	566727T	20150210	41374.39		701133	20150309	BC
M014	Linda Hand	GR158 97	20150205	32164.91		701134	20150303	WJT
P008	O Kay Yahs	BC 469718 W	20150212	46487.36		701136	20150310	HMV
R008	Phillippa Pail	97/1252/A	20150216	3549.45		701147	20150314	HMV
F128	Ern Payed	82 95 1	20150217	79826.53		701148	20150315	WJT
F123	Dick Tate	35222DUF	20150219	4603.16		701159	20150317	BC
T008	Truckstop	97 2046.29J	20150223	8707.37		701165	20150321	HMV
P007	Nellie Dunn	000511CJW	20150228	7988.72		701179	20150328	WJT
F130	1 Moore	IN 6462 97	20150226	62656.6		701192	20150324	BC
R007	Philip Upp Garage	1374/21	20150309	2174.63		701201	20150403	HMV
T004	Richmond	IN/1151/97	20150309	79839.54		701207	20150403	WJT
R025	Ray	54982/10	20150309	64073.74		701209	20150408	HMV
F123	Dick Tate	35225DUF	20150310	0		701211	20150406	HMV
W025	Wite Wash	2001/111.63	20150315	47203.5		701222	20150410	HV
W005	Will Scarlet	323/4/QPZ/1	20150316	49277.48		701223	20150411	HMV
P009	P Green	566743T	20150322	67059.93		701236	20150417	HMV
M014	Linda Hand	GR173 97	20150322	54107.38		701237	20150417	V.S.T
R008	Phillippa Pail	97/1267/A	20150327	28842.89		701250	20150423	WJT
R010	Pole Tacks	LBQ-692-XY	20150403	55043.73		701265	20150428	HMV
D014	Chimps Teaparty	147888CTR	20150403	2621.72		701266	20150428	CW
K001	Joyce Tick	54685	20150403	41219.56		701267	20150430	HMV
W011	Witch Products	32G	20150406	43407.9		701271	20150501	BC
W008	Winchester	1658 IOU-97	20150406	25698.11		701272	20150501	V.S.T
C202	Cary S Matic	CS - 599 -97	20150410	75819.56		701287	20150507	H.M.V.
Z001	Miles Long	FR-985 62	20150410	29232.42		701288	20150507	HV
M128	Maurice Mynah	IN-392858	20150410	49060.86		701292	20150507	HV
P007	Noah Lott	9391 NL	20150411	16040.01		701293	20150507	HMV
R007	Philip Upp Garage	1392/21	20150412	706.55		701299	20150508	WJT
N001	Mike Atsil	AZ358	20150720	2396.48		701301	20150814	BC
T010	Wanda Farr	10051 A	20150410	34958.34		701308	20150505	WJT
M020	Luke Hair	2879 BNA	20150418	47092.73		701314	20150515	HMV
C202	Cary S Matic	CS - 607 -97	20150419	19182.6		701317	20150515	HMV
B008	A Raid	3501077	20150417	884.74		701327	20150512	WJT
R025	Ray	54988/10	20150424	13115.65		701332	20150521	HMV
K001	Jackie Tupp	917363	20150424	67743.21		701333	20150521	HMV
T008	Tim Table	261216FF	20150427	20148.19		701339	20150523	HMV
N001	Mike Atsil	AZ362	20150424	79910.95		701346	20150519	HV
P007	Nellie Dunn	000517CJW	20150501	16.8		701352	20150529	H.M.V.
P007	Noah Lott	9406 NL	20150510	24139.51		701368	20150605	HV
M014	Kurt N Upp	123494	20150510	12694.7		701369	20150605	VMH
T005	Ronnie Biggs	7899469	20150512	9105.26		701379	20150608	WJT
T009	Truckstop	97 2058.29J	20150515	17955.92		701390	20150611	WJT
M020	Linda Hand	GR185 97	20150523	518.84		701410	20150619	HV
P008	O Kay Yahs	BC 469777 W	20150524	38001.45		701412	20150619	BC
P007	Noah Lott	9418 NL	20150529	8142.67		701420	20150623	CW
M025	L Hair	276 A2Z	20150529	41172.95		701422	20150625	BC
P006	N Rich	9724724	20150601	2686.29		701428	20150627	VST
Z001	Wong Way	10009-97-213	20150605	78202.6		701446	20150630	BC
R020	Polly Gunn	L-1298/65	20150606	8797.55		701452	20150703	HMV
M123	Luke Hair	51603	20150608	17636.37		701463	20150704	HMV
F128	Ern Payed	82 130 1	20150608	9114.22		701464	20150704	H.M.V.
N001	Mike Atsil	AZ369	20150605	61724.77		701466	20150630	VST
H025	Ivan Aker	WNZ67C	20150605	23665.34		701467	20150630	HV
D025	Denise Bent	81359	20150605	43394.03		701468	20150630	VMH
P010	P Green	566798T	20150613	77939.09		701477	20150710	V.S.T
H025	Ivan Aker	WNZ84C	20150615	11816.8		701485	20150711	H.M.V.
B010	Carter Bout	971039A	20150616	4896.01		701487	20150712	WJT
P010	P Green	566800T	20150619	12435.98		701495	20150714	WJT
G020	Gus Main	T5778VB	20150622	67037.75		701504	20150718	HMV
M014	Kurt N Upp	123505	20150623	527.05		701507	20150720	H.M.V.
T005	Ri Pent	PPN98866	20150626	45528.32		701513	20150721	HMV
T007	Round Table	BUR1366-G	20150629	260.06		701519	20150724	HMV
R025	Ray	54995/10	20150629	20110.83		701520	20150724	HMV
P007	Nellie Dunn	000528CJW	20150626	145.5		701531	20150721	VST
P010	P Green	566814T	20150703	4259.28		701541	20150730	WJT
M020	Linda Hand	GR217 97	20150703	25675.23		701542	20150730	BC
P008	Noah Lott	9424 NL	20150703	3776.81		701552	20150730	VMH
F128	Ern Payed	82 151 1	20150703	7646.99		701557	20150722	HMV
R007	Philip Upp Garage	1421/21	20150703	79365.72		701558	20150730	HMV
H025	Ivan Aker	WNZ85C	20150704	40164.52		701561	20150731	HMV
R008	Penny Cillin	100212	20150704	60391.48		701564	20150731	HMV
W007	Trevor Wills	TJ9761	20150704	3733.11		701565	20150731	BC
C202	Cary S Matic	CS - 651 -97	20150707	96235.53		701576	20150803	VMH
A128	A Meadow	117- 2371	20150703	37054.5		701578	20150728	BC
T006	Ronnie Biggs	7899482	20150713	2091.7		701588	20150808	H.M.V.
F123	Dick Tate	35273DUF	20150713	38987.53		701593	20150808	H.M.V.
T008	Tim Table	261238FF	20150713	22134.42		701598	20150808	H.M.V.
D025	Denise Bent	81362	20150717	3999.23		701607	20150811	CW
F130	Farmer	14680	20150718	16151.32		701614	20150814	WJT
P010	P Green	566819T	20150718	15491.86		701616	20150814	BC
M128	Maurice Mynah	IN-392900	20150720	2351.9		701626	20150815	HV
R007	Philip Upp Garage	1440/21	20150721	868.11		701633	20150816	WJT
T007	Round Table	BUR1375-G	20150724	2859.23		701640	20150820	V.S.T
H014	Honor Toze	659898	20150725	21131.83		701644	20150821	HMV
R011	Pole Tacks	LBQ-729-XY	20150725	62589.67		701645	20150821	V.S.T
M025	Joyce Tick	54761	20150727	13640.88		701647	20150822	VMH
W005	Will Scarlet	336/4/QPZ/1	20150728	60258.16		701655	20150823	V.S.T
H025	Ivan Aker	WNZ88C	20150724	1042.41		701658	20150818	HMV
M020	Linda Hand	GR229 97	20150731	1526.46		701669	20150827	WJT
F130	1 Moore	IN 6508 97	20150803	9337.45		701676	20150828	HMV
M025	Joyce Tick	54783	20150809	69932.77		701699	20150904	VMH
W020	Witch Products	51G	20150812	16.64		701703	20150907	H.M.V.
R008	Penny Cillin	100232	20150815	10358.39		701713	20150911	HMV
W007	Trevor Wills	TJ9773	20150815	33532.93		701714	20150911	V.S.T
P007	Nellie Dunn	000549CJW	20150816	84054.85		701715	20150911	VMH
R020	Polly Gunn	L-1335/72	20150817	97835.16		701719	20150912	WJT
M025	Luke Hair	2959 BNA	20150814	30200.55		701722	20150908	HMV
P009	O Kay Yahs	BC 469840 W	20150814	12698.08		701723	20150908	VMH
M130	Microcomputers	5868MCC	20150820	97746.53		701724	20150914	VMH
N005	Miles Long	FR-1050 114	20150815	13170.73		701726	20150911	VMH
W008	Willis T. J.	JK-43-JW/97	20150907	75000		701770	20151003	BC
R008	Philip Upp Garage	1446/21	20150910	62628.52		701782	20151005	H.M.V.
T004	Ri Pent	PPN98905	20150904	80737.13		701783	20150929	WJT
B010	Carter Bout	971061A	20150911	30536.55		701787	20151008	HMV
G010	Fixes	871550BUZ	20150912	7693.74		701792	20151009	HMV
M025	Luke Hair	2969 BNA	20150915	41644.48		701797	20151012	WJT
P009	O Kay Yahs	BC 469857 W	20150915	25519.67		701798	20151012	VMH
F130	Ern Payed	82 185 1	20150918	55375.7		701807	20151013	BC
T006	Ronnie Biggs	7899500	20150919	78605.73		701813	20151016	HMV
W011	Winchester	1687 IOU-97	20150924	17129.56		701827	20151019	HMV
M123	Luke Hair	51701	20150925	66988.58		701829	20151020	WJT
F123	Denise Bent	81373	20150925	29188.2		701832	20151022	HMV
B010	Carter Bout	971068A	20150925	66046.21		701833	20151022	HMV
P007	Nellie Dunn	000562CJW	20150925	50547.23		701836	20151022	CW
H014	Ian Till	4821- 97	20150926	72290.81		701839	20151023	HV
M130	Microcomputers	5892MCC	20150928	18177.06		701845	20151024	CW
M014	Kurt N Upp	123537	20150925	56896.72		701853	20151020	WJT
M025	L Hair	342 A2Z	20150925	66365.59		701854	20151020	HMV
F130	Ern Payed	82 196 1	20151003	50907.75		701857	20151030	BC
R025	Ray	55009/10	20151003	29616.37		701866	20151030	WJT
F123	Dick Tate	35292DUF	20151003	19397.27		701868	20151030	WJT
R011	Pole Tacks	LBQ-755-XY	20151005	53309.77		701870	20151030	HMV
T008	Tim Table	261256FF	20151006	10649.17		701873	20151101	WJT
W011	Winchester	1692 IOU-97	20151002	84737.41		701877	20151027	HV
W008	Trevor Wills	TJ9780	20151013	88915.38		701887	20151108	BC
P007	Nellie Dunn	000563CJW	20151013	546.43		701888	20151108	H.M.V.
P010	P Green	566881T	20151008	89907.27		701893	20151103	H.M.V.
M025	Luke Hair	2990 BNA	20151015	19407.56		701895	20151109	H.M.V.
D014	Cary S Matic	CS - 698 -97	20151016	1138.78		701898	20151110	BC
B008	A Meadow	117- 2404	20151016	28650.9		701900	20151110	BC
H014	Gus Main	T5856VB	20151017	10023.66		701902	20151113	VMH
P008	Noah Lott	9452 NL	20151019	17777.64		701904	20151114	VMH
R010	Phillippa Pail	97/1371/A	20151019	40697.41		701907	20151114	V.S.T
B008	A Raid	3501124	20151020	14288.57		701913	20151116	BC
T007	Round Table	BUR1390-G	20151022	87217.32		701917	20151116	HMV
R025	Ray	55012/10	20151016	61538.44		701918	20151110	HMV
F123	Dick Tate	35296DUF	20151016	43000.92		701920	20151110	WJT
W005	Will Scarlet	351/4/QPZ/1	20151026	8691.83		701932	20151120	BC
R020	Polly Gunn	L-1366/78	20151106	5332.03		701960	20151201	WJT
F123	Denise Bent	81382	20151106	5934.18		701969	20151203	WJT
M020	Linda Hand	GR286 97	20151113	38790.82		701984	20151210	HMV
M128	Maurice Mynah	IN-392943	20151119	6146.89		701993	20151213	H.M.V.
D025	Denise Bent	81340	20150105	75373.66		701003	20150202	BC
P010	Penny Cillin	100139	20150107	37754.37		701005	20150203	HMV
F130	1 Moore	IN 6428 97	20150112	78262.98		701020	20150209	CW
G020	Gus Main	T5721VB	20150112	14370.05		701021	20150209	VMH
P007	Noah Lott	9358 NL	20150115	48911.96		701023	20150212	WJT
M014	Kurt N Upp	123456	20150115	8072.34		701024	20150212	WJT
R008	Phillippa Pail	97/1238/A	20150111	39245.38		701026	20150212	HMV
T005	Ri Pent	PPN98765	20150114	57170.89		701030	20150210	WJT
B008	A Raid	3501040	20150114	38149.16		701032	20150210	H.V.
T005	Ronnie Biggs	7899446	20150114	16281.75		701034	20150210	WJT
F123	Edward Zoff	99799ABC	20150117	2713.16		701052	20150115	HMV
G010	Fixes	871463BUZ	20150119	3685.75		701055	20150216	WJT
F130	Farmer	14604	20150119	21053.24		701056	20150216	HMV
F130	1 Moore	IN 6438 97	20150121	40325.22		701066	20150217	CW
M128	Maurice Mynah	IN-392830	20150122	33607.97		701068	20150219	CB
R008	Phillippa Pail	97/1247/A	20150122	86117.39		701072	20150219	BC
B010	Carter Bout	971005A	20150125	16048.24		701080	20150221	VMH
G010	Fixes	871465BUZ	20150128	9351.19		701085	20150224	WJT
Z001	Miles Long	FR-972 42	20150129	3649.83		701094	20150226	HMV
F130	1 Moore	IN 6446 97	20150129	24163.78		701096	20150226	CW
M025	Luke Hair	51516	20150202	76855.73		701098	20150228	H.M.V.
F128	Ern Payed	82 84 1	20150202	2338.22		701099	20150228	WJT
A128	A Meadow	117- 2299	20150115	1428.23		701140	20150312	VST
G020	Gus Main	T5732VB	20150115	5941.66		701142	20150312	HMV
M025	L Hair	232 A2Z	20150214	5033.83		701146	20150313	HMV
R025	Ray	54980/10	20150212	1861.26		701157	20150310	H.M.V.
W008	Winchester	1652 IOU-97	20150226	68196.81		701168	20150324	WJT
M014	Linda Hand	GR162 97	20150228	66083.48		701185	20150327	V.S.T
P008	O Kay Yahs	BC 469730 W	20150301	61190.89		701187	20150329	WJT
C202	Cary S Matic	CS - 586 -97	20150301	89607.29		701189	20150329	H.M.V.
Z001	Miles Long	FR-981 55	20150305	27856.65		701190	20150331	BC
R010	Pole Tacks	LBQ-691-XY	20150309	54682.48		701213	20150406	HMV
D014	Chimps Teaparty	147878CTR	20150305	18738.66		701214	20150331	HMV
K001	Joyce Tick	54669	20150312	193487.22		701215	20150407	HMV
P008	O Kay Yahs	BC 469743 W	20150321	65444.28		701239	20150417	BC
G020	Gus Main	T5746VB	20150323	7388.62		701245	20150419	HMV
F128	Ern Payed	82 108 1	20150328	41916.29		701252	20150424	HV
P006	N Rich	9724673	20150329	49753.9		701255	20150425	BC
W005	Will Scarlet	329/4/QPZ/1	20150406	72475.35		701275	20150502	BC
P007	Nellie Dunn	000513CJW	20150402	48672.02		701277	20150428	CB
F130	Farmer	14639	20150409	3151.97		701280	20150505	HV
G020	Gus Main	T5755VB	20150410	27589.03		701291	20150507	HMV
R008	Phillippa Pail	97/1274/A	20150411	27125.44		701296	20150508	WJT
R008	Penny Cillin	100176	20150412	26701.63		701305	20150509	WJT
R011	Polly Gunn	L-1271/62	20150417	27540.23		701311	20150514	HMV
F130	1 Moore	IN 6474 97	20150418	58626.59		701320	20150515	PJM
T005	Ri Pent	PPN98842	20150416	841.8		701325	20150512	HMV
R010	Pole Tacks	LBQ-702-XY	20150424	43867.99		701336	20150522	BC
T010	Wanda Farr	10059 A	20150501	2758.74		701353	20150529	V.S.T
F130	Farmer	14651	20150503	3528.29		701355	20150530	VMH
P008	O Kay Yahs	BC 469767 W	20150430	6434.24		701360	20150526	H.M.V.
M130	Microcomputers	5799MCC	20150507	53618.16		701361	20150602	BC
C202	Cary S Matic	CS - 613 -97	20150507	17168.51		701362	20150602	HMV
A128	A Meadow	117- 2333	20150507	8694.55		701364	20150602	CW
M025	L Hair	270 A2Z	20150509	51211.19		701370	20150605	HMV
R007	Philip Upp Garage	1394/21	20150510	7437.91		701374	20150606	WJT
T005	Ri Pent	PPN98850	20150510	8914.29		701375	20150606	HMV
R025	Ray	54990/10	20150507	22724.88		701382	20150602	HMV
F123	Dick Tate	35248DUF	20150507	50898.84		701384	20150602	VMH
D025	Chimps Teaparty	147895CTR	20150514	989.94		701387	20150609	BC
D025	Denise Bent	81356	20150518	27389.59		701400	20150615	HV
T010	Wanda Farr	10065 A	20150522	393.2		701405	20150618	H.M.V.
G010	Fixes	871505BUZ	20150522	1537.26		701406	20150618	H.M.V.
R020	Polly Gunn	L-1287/64	20150522	77328.4		701408	20150618	HMV
M128	Maurice Mynah	IN-392875	20150529	10534.35		701419	20150623	VST
T005	Ronnie Biggs	7899475	20150601	5232.23		701431	20150629	V.S.T
T004	Richmond	IN/1161/97	20150601	27547.05		701432	20150629	HMV
R010	Pole Tacks	LBQ-714-XY	20150529	8073.53		701438	20150623	HMV
W025	Wite Wash	2001/123.63	20150605	51122.83		701447	20150702	HMV
Z001	Miles Long	FR-1010 75	20150608	49225.03		701459	20150704	CW
R007	Philip Upp Garage	1413/21	20150608	11008.05		701465	20150706	HMV
B010	Carter Bout	971037A	20150613	23422.28		701469	20150710	HMV
P007	Nellie Dunn	000524CJW	20150611	3332.74		701472	20150707	HV
T010	Wanda Farr	10072 A	20150612	13281.74		701473	20150809	H.M.V.
M025	Luke Hair	2919 BNA	20150612	9197.83		701479	20150710	V.S.T
C202	Cary S Matic	CS - 624 -97	20150613	2656.45		701482	20150710	VMH
N001	Mike Atsil	AZ387	20150716	18100.3		701484	20150811	VMH
R008	Penny Cillin	100201	20150615	70348.7		701488	20150712	WJT
T010	Wanda Farr	10076 A	20150619	3666.7		701491	20150717	HMV
P008	O Kay Yahs	BC 469799 W	20150619	28072.51		701498	20150716	VST
M130	Microcomputers	5837MCC	20150619	17344.95		701499	20150716	VMH
F130	1 Moore	IN 6487 97	20150620	18570.19		701503	20150717	VMH
P006	N Rich	9724743	20150625	944.91		701514	20150721	VMH
T009	Truckstop	97 2064.29J	20150625	16318.97		701528	20150721	V.S.T
P008	O Kay Yahs	BC 469813 W	20150703	40609.31		701544	20150730	VMH
F130	1 Moore	IN 6493 97	20150703	54155.77		701549	20150730	WJT
M128	Maurice Mynah	IN-392898	20150703	1572.21		701551	20150730	HMV
D025	Denise Bent	81361	20150703	45972.65		701562	20150731	VMH
T010	Wanda Farr	10088 A	20150703	39132.42		701567	20150731	HMV
F130	Farmer	14677	20150703	8384.5		701569	20150731	HMV
P010	P Green	566817T	20150704	19647.86		701571	20150731	HMV
M020	Linda Hand	GR223 97	20150706	79002.68		701572	20150801	HMV
M025	Luke Hair	2938 BNA	20150706	74054.8		701573	20150801	HMV
P009	O Kay Yahs	BC 469817 W	20150706	5676.82		701574	20150803	HMV
F130	1 Moore	IN 6497 97	20150809	74935.34		701579	20150804	BC
T007	Round Table	BUR1370-G	20150712	21598.62		701590	20150808	WJT
H014	Honor Toze	659888	20150712	60341.35		701594	20150808	BC
W020	Witch Products	47G	20150712	8228.56		701601	20150808	V.S.T
B010	Carter Bout	971057A	20150716	5302.61		701608	20150811	WJT
M020	Linda Hand	GR227 97	20150717	71653.36		701617	20150814	HMV
R010	Phillippa Pail	97/1321/A	20150720	15947.69		701630	20150815	BC
F128	Edward Zoff	99827ABC	20150727	53088.1		701656	20150823	VMH
N001	Mike Atsil	AZ394	20150723	32433		701657	20150818	HV
W007	Trevor Wills	TJ9769	20150730	10959.33		701662	20150825	WJT
A128	A Meadow	117- 2387	20150801	11729.85		701675	20150828	BC
M128	Maurice Mynah	IN-392912	20150803	51108.17		701678	20150829	HV
F128	Ern Payed	82 162 1	20150730	29527.27		701684	20150825	WJT
R025	Ray	55001/10	20150807	32895.41		701693	20150903	WJT
H014	Honor Toze	659904	20150807	89987.81		701696	20150904	HMV
T008	Tim Table	261241FF	20150814	28401.09		701700	20150911	HMV
T009	Truckstop	97 2072.29J	20150810	27182.07		701701	20150907	HMV
W005	Will Scarlet	343/4/QPZ/1	20150812	12097.78		701707	20150908	V.S.T
F128	Edward Zoff	99828ABC	20150812	68656.55		701708	20150908	CW
H025	Ivan Aker	WNZ89C	20150814	5913.96		701710	20150910	HMV
C202	Cary S Matic	CS - 675 -97	20150812	25960.81		701725	20150908	BC
G020	Gus Main	T5828VB	20150821	5325.14		701729	20150917	WJT
M123	Luke Hair	51673	20150823	4690.78		701735	20150919	HMV
P006	N Rich	9724806	20150824	32502.53		701739	20150920	VMH
T005	Richmond	IN/1176/97	20150828	3120.83		701743	20150924	HMV
F123	Dick Tate	35284DUF	20150829	76992.02		701747	20150925	HMV
H014	Honor Toze	659917	20150829	17174.58		701748	20150925	WJT
W025	Wite Wash	2001/139.63	20150904	43317.73		701758	20150928	HMV
F128	Edward Zoff	99833ABC	20150904	2546.59		701760	20151002	H.M.V.
C202	Cary S Matic	CS - 678 -97	20150907	23209.27		701771	20151003	BC
A128	A Meadow	117- 2393	20150907	75777.62		701773	20151003	BC
P008	Noah Lott	9442 NL	20150907	11940.05		701777	20151005	VMH
C202	Cary S Matic	CS - 681 -97	20150914	83160.52		701800	20151012	BC
P006	N Rich	9724807	20150918	15877.15		701810	20151015	VMH
H014	Honor Toze	659924	20150920	15658.95		701819	20151017	WJT
M025	Joyce Tick	54803	20150921	30248.48		701822	20151018	CW
T008	Tim Table	261250FF	20150921	94868.35		701823	20151018	HMV
W005	Wanda Farr	10125 A	20150925	47353.89		701837	20151022	BC
M025	Luke Hair	2984 BNA	20150926	24072.05		701843	20151023	V.S.T
G020	Gus Main	T5850VB	20150924	57716.72		701850	20151020	HV
R008	Philip Upp Garage	1459/21	20150924	6586.88		701858	20151020	HMV
F128	Edward Zoff	99838ABC	20151008	13875.31		701881	20151103	HMV
F123	Denise Bent	81380	20151010	94058.95		701884	20151106	WJT
G010	Farmer	14697	20151008	18700.53		701891	20151103	HMV
R008	Philip Upp Garage	1464/21	20151018	7973.99		701910	20151114	BC
F130	Ern Payed	82 211 1	20151101	1610.73		701948	20151128	WJT
R008	Philip Upp Garage	1470/21	20151102	3435.15		701949	20151129	HMV
R008	Penny Cillin	100264	20151029	22093.3		701954	20151124	H.M.V.
D014	Cary S Matic	CS - 709 -97	20151105	40732.77		701966	20151201	HMV
R008	Penny Cillin	100273	20151106	24004.54		701971	20151204	H.M.V.
P007	Nellie Dunn	000566CJW	20151106	432.34		701975	20151204	HMV
M014	Kurt N Upp	123547	20151116	41632.87		701995	20151213	BC
M025	L Hair	363 A2Z	20151031	48087.15		701996	20151215	WJT
H025	Ivan Aker	WNZ28C	20150104	79571.88		701002	20150202	BC
T009	Wanda Farr	10000 A	20150106	4522.28		701008	20150203	BC
M128	Microcomputers	5731MCC	20150110	73703.93		701016	20150228	HMV
T005	Reid IM	KN216JP	20150113	18228.91		701033	20150210	HMV
T004	Richmond	IN/1145/97	20150114	47438.23		701035	20150212	HMV
K001	Jackie Tupp	917328	20150114	38309.89		701038	20150212	VMH
H014	Honor Toze	659813	20150114	9474.74		701040	20150212	CW
R010	Pole Tacks	LBQ-684-XY	20150114	11129.65		701041	20150212	H.M.V.
W011	Witch Products	21G	20150115	29033.8		701047	20150212	HMV
M128	Microcomputers	5745MCC	20150111	17304.8		701062	20150206	HMV
M014	Kurt N Upp	123461	20150121	68262.53		701070	20150219	WJT
F128	Ern Payed	82 76 1	20150122	54881.69		701074	20150219	WJT
P006	Nellie Dunn	000504CJW	20150125	24308.55		701083	20150223	HMV
M020	Luke Hair	2850 BNA	20150128	3593.3		701090	20150226	V.S.T
N005	N Rich	9724644	20150202	50123.84		701102	20150228	CB
T004	Richmond	IN/1146/97	20150203	92390.9		701106	20150303	HMV
R010	Pole Tacks	LBQ-687-XY	20150203	88748.91		701112	20150303	HMV
D014	Chimps Teaparty	147870CTR	20150205	1197.58		701113	20150305	HMV
K001	Joyce Tick	54640	20150205	45492.03		701114	20150306	HMV
M128	Microcomputers	5753MCC	20150210	2590.3		701137	20150310	WJT
P007	Noah Lott	9370 NL	20150115	9565.97		701144	20150313	CB
T005	Ronnie Biggs	7899450	20150223	50345.19		701154	20150323	BC
D014	Chimps Teaparty	147873CTR	20150219	91635.74		701162	20150319	VMH
F123	Edward Zoff	99800ABC	20150224	1484.63		701172	20150324	BC
P010	Penny Cillin	100170	20150226	84795.24		701177	20150326	HMV
W007	Trevor Wills	TJ9739	20150226	53520.08		701178	20150328	HMV
M020	Luke Hair	2856 BNA	20150228	65013.64		701186	20150328	H.M.V.
M025	Luke Hair	51547	20150306	24393.13		701199	20150403	HMV
P006	N Rich	9724664	20150306	19238.73		701203	20150403	H.M.V.
T005	Ried I.M.	GHO 975	20150306	32680.67		701205	20150403	V.S.T
T006	Round Table	BUR1354-G	20150306	12854.41		701208	20150403	V.S.T
T008	Truckstop	97 2048.29J	20150312	51554.92		701217	20150409	BC
F130	Farmer	14636	20150319	2856.94		701234	20150416	HMV
Z001	Miles Long	FR-983 58	20150321	15197.54		701242	20150418	CB
M128	Maurice Mynah	IN-392848	20150317	48421.08		701246	20150414	BC
H014	IM Right	4835- 97	20150328	32956.22		701257	20150425	VMH
T005	Ronnie Biggs	7899459	20150328	43195.93		701258	20150425	HMV
T004	Richmond	IN/1155/97	20150329	24452.9		701259	20150427	V.S.T
T006	Round Table	BUR1355-G	20150329	79839.65		701260	20150427	H.M.V.
R025	Ray	54985/10	20150329	64995.54		701261	20150427	BC
K001	Jackie Tupp	917356	20150324	79990.86		701262	20150421	H.M.V.
H014	Honor Toze	659840	20150331	2953.29		701264	20150428	HMV
M020	Luke Hair	2872 BNA	20150409	41563.48		701284	20150507	BC
M130	Microcomputers	5776MCC	20150409	5334.93		701286	20150507	HV
H025	Ivan Aker	WNZ45C	20150411	21984.94		701302	20150509	VST
D025	Denise Bent	81350	20150411	65761.63		701303	20150509	HMV
B010	Carter Bout	971028A	20150411	52264.16		701304	20150509	H.M.V.
P007	Nellie Dunn	000516CJW	20150412	92231.51		701307	20150510	HV
M130	Microcomputers	5791MCC	20150417	68752.26		701316	20150515	H.M.V.
A128	A Meadow	117- 2323	20150417	19935.19		701319	20150515	CW
F128	Ern Payed	82 115 1	20150419	375.72		701323	20150517	VMH
R007	Philip Upp Garage	1393/21	20150414	62795.19		701324	20150512	V.S.T
B010	Carter Bout	971034A	20150430	2480.49		701349	20150529	HMV
W007	Trevor Wills	TJ9749	20150430	56175.65		701351	20150529	V.S.T
G010	Fixes	871504BUZ	20150501	31571.3		701354	20150529	CW
R011	Polly Gunn	L-1282/63	20150503	55802.44		701356	20150531	BC
H014	IM Right	4861- 97	20150509	1868.56		701378	20150606	VMH
T004	Richmond	IN/1159/97	20150510	28889.45		701380	20150608	H.M.V.
H014	Honor Toze	659860	20150512	9149.07		701385	20150609	WJT
R010	Pole Tacks	LBQ-709-XY	20150512	18651.62		701386	20150609	HMV
W005	Will Scarlet	330/4/QPZ/1	20150515	47078.32		701396	20150612	HMV
R008	Penny Cillin	100191	20150519	17614.61		701402	20150616	V.S.T
F130	Farmer	14652	20150521	66649.45		701407	20150618	VMH
M025	Luke Hair	2896 BNA	20150522	90839.5		701411	20150619	WJT
F130	1 Moore	IN 6486 97	20150519	590.17		701417	20150616	PJM
R008	Phillippa Pail	97/1292/A	20150529	3752.46		701423	20150626	WJT
F128	Ern Payed	82 121 1	20150529	67288.5		701425	20150626	CW
K001	Jackie Tupp	917382	20150526	33936.8		701435	20150623	HMV
K001	Joyce Tick	54714	20150602	33641.9		701440	20150630	WJT
F128	Edward Zoff	99809ABC	20150605	30020.53		701449	20150703	VMH
M130	Microcomputers	5823MCC	20150606	8247.21		701457	20150704	CW
C202	Cary S Matic	CS - 623 -97	20150606	1573.18		701458	20150704	HMV
Z001	Wong Way	10023-97-213	20150606	10633.49		701461	20150704	HMV
M020	Linda Hand	GR196 97	20150612	92274.62		701478	20150710	WJT
P008	O Kay Yahs	BC 469784 W	20150612	14759.29		701480	20150710	CW
D025	Denise Bent	81360	20150613	4898.43		701486	20150711	VMH
M020	Linda Hand	GR206 97	20150618	72433.51		701496	20150716	HMV
C202	Cary S Matic	CS - 634 -97	20150619	10671.81		701500	20150717	HMV
M025	L Hair	289 A2Z	20150622	51124.58		701508	20150720	HMV
R007	Philip Upp Garage	1417/21	20150623	5702.62		701512	20150721	BC
B008	A Raid	3501091	20150623	13147.16		701515	20150721	WJT
F123	Dick Tate	35266DUF	20150626	29982.12		701522	20150724	CW
D025	Chimps Teaparty	147911CTR	20150627	7175.52		701525	20150725	HMV
T008	Tim Table	261231FF	20150629	0		701527	20150727	H.M.V.
F128	Edward Zoff	99818ABC	20150630	4335.61		701535	20150728	VMH
R020	Polly Gunn	L-1321/68	20150702	29626		701540	20150730	HMV
N005	Miles Long	FR-1026 82	20150702	79306.51		701547	20150730	HMV
G020	Gus Main	T5789VB	20150702	1785.12		701550	20150730	BC
M123	Luke Hair	51617	20150702	2949.42		701556	20150730	WJT
P007	Nellie Dunn	000538CJW	20150703	63941.16		701566	20150731	HMV
G010	Fixes	871538BUZ	20150703	72809.45		701568	20150731	WJT
N005	Miles Long	FR-1035 91	20150706	10941.25		701577	20150803	HV
H025	IM Right	4889- 97	20150710	12279.42		701587	20150807	HMV
R025	Ray	54997/10	20150711	7010.41		701591	20150808	HMV
D025	Chimps Teaparty	147914CTR	20150711	6242.65		701596	20150808	H.M.V.
N001	Mike Atsil	AZ389	20150712	4641.13		701605	20150809	HV
W007	Trevor Wills	TJ9766	20150714	93254.75		701610	20150811	HMV
P007	Nellie Dunn	000542CJW	20150714	25884.91		701611	20150811	HV
M025	Luke Hair	2941 BNA	20150717	78064.15		701618	20150814	BC
M014	Kurt N Upp	123513	20150718	79902.9		701628	20150815	HMV
M123	Luke Hair	51655	20150720	83.39		701631	20150816	H.M.V.
P006	N Rich	9724777	20150720	36734.81		701635	20150816	HV
T009	Truckstop	97 2070.29J	20150725	720.54		701649	20150822	H.M.V.
D025	Denise Bent	81366	20150721	26048.07		701659	20150818	H.M.V.
M123	Luke Hair	51667	20150728	18677.43		701683	20150825	WJT
B008	A Raid	3501108	20150804	36939.75		701688	20150901	BC
D025	Chimps Teaparty	147925CTR	20150807	785.91		701698	20150904	HMV
D025	Denise Bent	81367	20150812	38662.44		701711	20150910	HMV
P010	P Green	566853T	20150816	8961.88		701720	20150913	HMV
A128	A Meadow	117- 2391	20150818	28857.72		701727	20150915	BC
M014	Kurt N Upp	123522	20150821	79765.18		701732	20150918	WJT
R008	Philip Upp Garage	1443/21	20150822	19773.18		701737	20150919	V.S.T
B008	A Raid	3501118	20150818	20248.35		701740	20150915	BC
T006	Ronnie Biggs	7899499	20150825	75243		701742	20150922	HMV
T009	Truckstop	97 2073.29J	20150825	36382.04		701753	20150922	BC
W011	Winchester	1684 IOU-97	20150903	37322.67		701756	20150928	V.S.T
W005	Will Scarlet	344/4/QPZ/1	20150903	1072.46		701759	20150928	V.S.T
P007	Nellie Dunn	000554CJW	20150904	35361.76		701761	20151002	VMH
M014	Kurt N Upp	123532	20150907	74182.01		701777	20151005	WJT
M025	L Hair	339 A2Z	20150907	4748.13		701778	20151005	BC
H025	Ivan Aker	WNZ92C	20150908	18785.53		701785	20151006	WJT
P010	P Green	566862T	20150911	81068.78		701795	20151009	WJT
T005	Richmond	IN/1177/97	20150918	26476.44		701814	20151016	HMV
T007	Round Table	BUR1384-G	20150918	25.77		701815	20151016	HMV
W020	Witch Products	54G	20150920	29463.41		701826	20151018	BC
M123	Luke Hair	51690	20150922	35179.83		701828	20151020	HMV
H025	Ivan Aker	WNZ97C	20150924	98990.25		701831	20151022	WJT
G020	Fixes	871552BUZ	20150925	76758.03		701838	20151023	WJT
P010	P Green	566869T	20150925	57247.56		701841	20151023	V.S.T
M020	Linda Hand	GR264 97	20150925	17510.96		701842	20151023	WJT
M128	Maurice Mynah	IN-392937	20150922	24939.3		701851	20151020	VMH
R010	Phillippa Pail	97/1361/A	20150922	6249.12		701855	20151020	WJT
P006	N Rich	9724813	20150929	1831.14		701860	20151027	VMH
H025	IM Right	4920- 97	20150929	2546.27		701862	20151027	WJT
D025	Chimps Teaparty	147936CTR	20151003	49162.23		701871	20151031	CB
P009	O Kay Yahs	BC 469880 W	20151006	36653.95		701896	20151103	H.M.V.
M130	Microcomputers	5897MCC	20151013	43018.86		701897	20151110	H.M.V.
N005	Miles Long	FR-1065 137	20151013	84188.29		701899	20151110	H.M.V.
M128	Maurice Mynah	IN-392939	20151016	10901.67		701903	20151113	CW
F130	Ern Payed	82 200 1	20151017	60435.75		701909	20151114	BC
T004	Ri Pent	PPN98930	20151017	60044.38		701911	20151114	BC
W025	Wite Wash	2001/144.63	20151023	2526.55		701931	20151120	WJT
G020	Fixes	871560BUZ	20151024	35462.59		701934	20151121	WJT
R020	Polly Gunn	L-1364/77	20151026	88128.54		701936	20151122	HMV
M123	Luke Hair	51723	20151031	7582.46		701947	20151128	H.M.V.
F123	Denise Bent	81381	20151027	43738.1		701952	20151124	WJT
B010	Carter Bout	971071A	20151027	6302.26		701953	20151124	H.M
R008	Penny Cillin	100285	20151106	27882.82		701973	20151204	HMV
W005	Wanda Farr	10139 A	20151106	67889.29		701976	20151204	WJT
W008	Trevor Wills	TJ9788	20151107	15301.09		701977	20151205	BC
G020	Fixes	871567BUZ	20151108	43159.24		701980	20151206	HV
P009	O Kay Yahs	BC 469903 W	20151113	9707.03		701986	20151211	HMV
N001	Microcomputers	5918MCC	20151113	58986.66		701987	20151211	HMV
D014	Cary S Matic	CS - 712 -97	20151114	30101.08		701988	20151212	CW
F130	1 Moore	IN 6520 97	20151116	51482.26		701991	20151213	HMV
R010	Phillippa Pail	97/1372/A	20151119	205.49		702001	20151229	H.M.V.
P008	O Kay Yahs	BC 469701 W	20150108	11001.66		701015	20150207	H.M.V.
Z001	Miles Long	FR-963 32	20150110	8579.04		701018	20150208	HMV
F130	A Meadow	117- 2287	20150110	34259.55		701019	20150209	HMV
R011	Polly Gunn	L-1232/56	20150117	30457.59		701057	20150216	HMV
P008	O Kay Yahs	BC 469703 W	20150112	32293.4		701061	20150216	HMV
C202	Cary S Matic	CS - 564 -97	20150119	25943.21		701063	20150217	H.M.V.
P007	Noah Lott	9359 NL	20150120	83880.73		701069	20150219	BC
R007	Philip Upp Garage	1351/21	20150121	1353.14		701075	20150219	HMV
T005	Ri Pent	PPN98778	20150121	32169.7		701076	20150219	WJT
N001	Mike Atsil	AZ279	20150114	39900.83		701077	20150219	BC
W007	Trevor Wills	TJ9732	20150124	74625.32		701082	20150223	BC
R011	Polly Gunn	L-1236/57	20150126	42026.88		701087	20150224	WJT
M014	Linda Hand	GR150 97	20150126	56227.23		701089	20150224	WJT
C202	Cary S Matic	CS - 571 -97	20150128	2957.2		701093	20150226	H.M.V.
R007	Philip Upp Garage	1358/21	20150129	4367.36		701100	20150228	BC
R025	Ray	54977/10	20150202	4445.06		701108	20150303	H.M.V.
K001	Jackie Tupp	917341	20150202	29976.77		701109	20150303	VMH
H014	Honor Toze	659818	20150202	25022.46		701111	20150303	H.M.V.
W007	Trevor Wills	TJ9737	20150207	17674.1		701127	20150309	HMV
T010	Wanda Farr	10028 A	20150207	48201.7		701129	20150309	BC
M020	Luke Hair	2852 BNA	20150209	6125.21		701135	20150310	H.M.V.
M128	Maurice Mynah	IN-392835	20150212	9222.32		701143	20150313	HV
B008	A Raid	3501057	20150219	93316.19		701152	20150320	WJT
T006	Round Table	BUR1351-G	20150209	48397.51		701156	20150310	WJT
K001	Jackie Tupp	917346	20150216	40870.68		701158	20150317	VMH
H014	Honor Toze	659823	20150216	14849.23		701160	20150317	HMV
Z001	Wong Way	10002-97-213	20150223	83768.82		701169	20150324	V.S.T
T010	Wanda Farr	10038 A	20150226	87175.59		701180	20150328	HMV
R011	Polly Gunn	L-1252/59	20150226	60841.77		701183	20150327	V.S.T
M014	Kurt N Upp	123478	20150303	97909.41		701196	20150402	HV
F128	Ern Payed	82 98 1	20150306	75553.42		701200	20150403	HMV
K001	Jackie Tupp	917347	20150306	81351.91		701210	20150404	CW
W011	Witch Products	28G	20150310	6616.16		701219	20150409	HMV
D025	Denise Bent	81346	20150317	35695.4		701227	20150416	VMH
G010	Fixes	871491BUZ	20150317	13700.91		701233	20150416	VMH
M025	Luke Hair	51555	20150326	62387.21		701251	20150424	WJT
R007	Philip Upp Garage	1382/21	20150328	87051.45		701253	20150424	WJT
T008	Truckstop	97 2053.29J	20150403	21544.61		701269	20150501	HMV
T010	Wanda Farr	10050 A	20150330	55274.85		701278	20150428	WJT
G010	Fixes	871495BUZ	20150330	4008.87		701279	20150428	VMH
P009	P Green	566754T	20150406	44710.47		701282	20150505	BC
M014	Linda Hand	GR174 97	20150406	5710.81		701283	20150505	V.S.T
P008	O Kay Yahs	BC 469750 W	20150407	57416.87		701285	20150507	CB
G010	Fixes	871502BUZ	20150410	11948.23		701309	20150509	VMH
M025	Luke Hair	51574	20150417	94541.82		701322	20150516	V.S.T
P006	N Rich	9724692	20150413	34068.89		701326	20150512	HV
T004	Richmond	IN/1157/97	20150421	524.93		701330	20150521	H.M.V.
T006	Round Table	BUR1358-G	20150421	16875.86		701331	20150521	H.M.V.
D014	Chimps Teaparty	147894CTR	20150424	89224.57		701337	20150522	VMH
K001	Joyce Tick	54700	20150424	39940.01		701338	20150522	WJT
T009	Truckstop	97 2056.29J	20150424	3421.19		701340	20150523	HMV
W020	Witch Products	35G	20150425	45682.68		701342	20150524	HMV
W008	Winchester	1662 IOU-97	20150425	8808.62		701343	20150524	H.M.V.
M025	Luke Hair	51589	20150420	64088.87		701344	20150519	WJT
R008	Penny Cillin	100187	20150428	2662.37		701350	20150529	WJT
M020	Linda Hand	GR179 97	20150502	9402.53		701358	20150531	HV
B008	A Raid	3501082	20150508	15888.34		701377	20150606	WJT
T008	Tim Table	261221FF	20150511	7660.83		701389	20150609	WJT
W020	Witch Products	36G	20150514	3629.61		701392	20150612	HMV
W008	Winchester	1666 IOU-97	20150515	972.5		701393	20150612	H.M.V.
Z001	Wong Way	10007-97-213	20150515	5487.14		701394	20150612	HMV
W025	Wite Wash	2001/120.63	20150515	52278.64		701395	20150612	HMV
F128	Edward Zoff	99807ABC	20150515	4527.58		701397	20150612	HV
N001	Mike Atsil	AZ364	20150712	18118.15		701398	20150810	CW
H025	Ivan Aker	WNZ61C	20150516	528.58		701399	20150615	HV
B010	Carter Bout	971035A	20150511	36815.47		701401	20150609	HMV
P009	P Green	566769T	20150521	7624.26		701409	20150619	WJT
M014	Kurt N Upp	123502	20150525	13931.17		701421	20150623	CW
R007	Philip Upp Garage	1400/21	20150529	17863.48		701426	20150626	WJT
R025	Ray	54992/10	20150525	88643.66		701434	20150623	BC
F123	Dick Tate	35256DUF	20150525	60709.45		701436	20150623	VMH
H014	Honor Toze	659868	20150529	469.09		701437	20150627	WJT
W020	Witch Products	39G	20150601	29691.39		701444	20150630	WJT
W005	Will Scarlet	335/4/QPZ/1	20150604	21412.31		701448	20150703	WJT
M020	Linda Hand	GR195 97	20150604	2304.1		701454	20150703	WJT
A128	A Meadow	117- 2349	20150605	25111.7		701460	20150704	CW
G020	Gus Main	T5774VB	20150605	47143.84		701462	20150704	WJT
R008	Penny Cillin	100193	20150601	27421.39		701470	20150630	WJT
F130	Farmer	14665	20150615	21436.8		701493	20150714	HMV
R020	Polly Gunn	L-1314/67	20150615	8662.03		701494	20150714	HMV
F128	Ern Payed	82 141 1	20150622	1063.18		701511	20150721	HMV
H014	IM Right	4888- 97	20150625	67522.83		701516	20150723	H.M.V.
T006	Ronnie Biggs	7899477	20150625	13614.84		701517	20150724	H.M.V.
W008	Willis S	LMN/9.21	20150622	3890.76		701534	20150721	HMV
P007	Nellie Dunn	000533CJW	20150629	1105.62		701536	20150728	VMH
F130	Farmer	14670	20150630	65359.65		701539	20150730	HMV
C202	Cary S Matic	CS - 644 -97	20150630	6270.19		701546	20150730	CW
A128	A Meadow	117- 2364	20150630	14723.28		701548	20150730	BC
M014	Kurt N Upp	123511	20150630	24311.39		701553	20150730	HMV
T005	Ri Pent	PPN98874	20150630	32005.98		701559	20150730	HMV
G020	Gus Main	T5799VB	20150707	38292		701580	20150806	HMV
M123	Luke Hair	51628	20150707	55600.88		701581	20150806	WJT
R007	Philip Upp Garage	1434/21	20150809	4550.9		701583	20150807	HMV
T005	Ri Pent	PPN98878	20150809	31089.33		701584	20150807	WJT
B008	A Raid	3501101	20150809	7948.57		701586	20150807	WJT
T004	Richmond	IN/1166/97	20150710	50437.78		701589	20150808	HMV
T009	Truckstop	97 2066.29J	20150710	12011.47		701599	20150808	H.M.V.
M123	Luke Hair	51631	20150710	90529.49		701603	20150808	V.S.T
H025	Ivan Aker	WNZ86C	20150713	1405.62		701606	20150811	BC
R008	Penny Cillin	100223	20150713	5116.34		701609	20150811	BC
P009	O Kay Yahs	BC 469822 W	20150717	24225.07		701619	20150814	HV
G020	Gus Main	T5811VB	20150717	85695.08		701625	20150815	HMV
T004	Ri Pent	PPN98887	20150718	94185.24		701634	20150816	WJT
H025	IM Right	4894- 97	20150720	17092.46		701637	20150817	HMV
D025	Chimps Teaparty	147918CTR	20150724	27989.13		701646	20150821	H.M.V.
W020	Witch Products	50G	20150724	20673.18		701651	20150822	H.M.V.
W011	Winchester	1677 IOU-97	20150725	28231.17		701652	20150823	HMV
B010	Carter Bout	971059A	20150727	16045.99		701660	20150824	HMV
T010	Wanda Farr	10102 A	20150728	10534.22		701664	20150827	V.S.T
M130	Microcomputers	5863MCC	20150730	7545.77		701672	20150828	VMH
C202	Cary S Matic	CS - 668 -97	20150731	3618.98		701673	20150828	BC
P008	Noah Lott	9434 NL	20150731	74913.8		701679	20150829	HV
R008	Philip Upp Garage	1441/21	20150727	64748.9		701685	20150825	WJT
F123	Dick Tate	35277DUF	20150806	60468.26		701695	20150904	HMV
R011	Pole Tacks	LBQ-738-XY	20150807	25067.07		701697	20150904	WJT
G010	Fixes	871544BUZ	20150814	28982.84		701717	20150911	BC
M020	Linda Hand	GR241 97	20150815	61565.46		701721	20150913	WJT
T007	Round Table	BUR1381-G	20150825	95767.75		701744	20150924	H.M.V.
R011	Pole Tacks	LBQ-747-XY	20150828	13098.33		701749	20150926	WJT
Z001	Wong Way	10018-97-213	20150831	367.68		701757	20150928	HMV
G010	Fixes	871549BUZ	20150904	46904.2		701763	20151002	HMV
R020	Polly Gunn	L-1347/73	20150904	79458.3		701765	20151002	WJT
P010	P Green	566857T	20150904	27875.46		701766	20151002	WJT
M020	Linda Hand	GR244 97	20150904	39772.4		701767	20151002	V.S.T
G020	Gus Main	T5836VB	20150904	52350.68		701775	20151003	WJT
M123	Luke Hair	51684	20150831	19563.4		701780	20150929	BC
F130	Ern Payed	82 184 1	20150831	99670.53		701781	20150929	HMV
T010	Wanda Farr	10120 A	20150908	23878.94		701791	20151008	HMV
R020	Polly Gunn	L-1353/74	20150911	66078.48		701794	20151009	HMV
A128	A Meadow	117- 2395	20150907	70979.93		701802	20151006	BC
M123	Luke Hair	51685	20150914	234.24		701806	20151013	HMV
B008	A Raid	3501121	20150917	15045.62		701811	20151016	BC
H025	IM Right	4911- 97	20150917	65695.51		701812	20151016	WJT
D025	Chimps Teaparty	147935CTR	20150918	96206.56		701821	20151017	BC
P009	O Kay Yahs	BC 469870 W	20150925	77588.96		701844	20151024	CW
A128	A Meadow	117- 2401	20150921	11015.78		701848	20151020	BC
M123	Luke Hair	51708	20150921	24730.1		701856	20151020	WJT
T005	Roger Peterson	L-832648-1	20150928	35718.11		701859	20151027	WJT
B008	A Raid	3501122	20150928	5691.62		701861	20151027	BC
T006	Ronnie Biggs	7899506	20150928	95094.26		701863	20151027	BC
H014	Honor Toze	659925	20150928	9951.94		701869	20151030	WJT
T009	Truckstop	97 2080.29J	20151003	80648.49		701874	20151101	WJT
W020	Witch Products	55G	20150928	34684.61		701876	20151027	HMV
W005	Will Scarlet	350/4/QPZ/1	20151005	11694.27		701880	20151103	BC
R008	Penny Cillin	100255	20151009	29686.09		701886	20151107	V.S.T
W005	Wanda Farr	10134 A	20151010	81987.26		701889	20151108	HMV
R020	Polly Gunn	L-1363/76	20151005	2539.31		701892	20151103	HMV
F130	1 Moore	IN 6518 97	20151013	33680.54		701901	20151112	HMV
P006	N Rich	9724815	20151017	10811.7		701912	20151116	CW
H014	Honor Toze	659940	20151019	15707.88		701921	20151119	HMV
T008	Tim Table	261261FF	20151020	12916.98		701925	20151119	V.S.T
T009	Truckstop	97 2081.29J	20151020	95609.15		701926	20151119	V.S.T
G010	Farmer	14703	20151024	38875.95		701935	20151122	BC
P009	O Kay Yahs	BC 469889 W	20151026	19856.98		701940	20151124	HMV
W005	Wanda Farr	10137 A	20151101	73427.16		701957	20151130	HMV
P010	P Green	566914T	20151102	96392.9		701961	20151201	HMV
M020	Linda Hand	GR278 97	20151102	75537.32		701962	20151201	HMV
M025	Luke Hair	3010 BNA	20151102	55702.5		701963	20151201	H.M.V.
P009	O Kay Yahs	BC 469897 W	20151102	75192.58		701964	20151201	HMV
N001	Microcomputers	5914MCC	20151102	21059.57		701965	20151201	HMV
N005	Miles Long	FR-1079 145	20151102	33332.69		701967	20151201	HMV
B010	Carter Bout	971077A	20151103	70825.47		701970	20151203	H.M
B010	Carter Bout	971084A	20151105	37760.87		701972	20151204	H.M.V.
P007	Nellie Dunn	000570CJW	20151107	3508.84		701978	20151206	HMV
G010	Farmer	14717	20151102	16631.14		701981	20151201	HMV
N001	Mike Atsil	AZ278	20150104	54721.86		701001	20150202	WJT
B010	Carter Bout	971004A	20150104	6844.63		701004	20150203	CB
P009	P Green	566698T	20150106	79237.49		701012	20150205	BC
M020	Luke Hair	2828 BNA	20150106	1185.46		701014	20150205	WJT
M025	L Hair	216 A2Z	20150112	24224.39		701025	20150212	HMV
T006	Round Table	BUR1345-G	20150112	94329.52		701036	20150212	HMV
T008	Truckstop	97 2040.29J	20150112	54068.06		701045	20150212	BC
W008	Winchester	1649 IOU-97	20150113	40542.22		701048	20150212	HMV
W025	Wong Way	9999-97-213	20150114	59109.76		701049	20150215	WJT
T009	Wanda Farr	10010 A	20150115	86441.66		701054	20150216	HMV
M014	Linda Hand	GR142 97	20150113	22398.62		701059	20150216	HMV
M020	Luke Hair	2837 BNA	20150113	70509.14		701060	20150216	WJT
Z001	Miles Long	FR-969 39	20150119	795.59		701064	20150217	HMV
D025	Denise Bent	81341	20150122	57998.57		701079	20150221	HV
P010	Penny Cillin	100150	20150122	16700.56		701081	20150221	HMV
T009	Wanda Farr	10020 A	20150119	47232.67		701084	20150223	HMV
P008	O Kay Yahs	BC 469708 W	20150126	39501.24		701091	20150226	HMV
T005	Ri Pent	PPN98787	20150129	45989.77		701101	20150228	V.S.T
T006	Round Table	BUR1350-G	20150202	12116.98		701107	20150303	WJT
F123	Dick Tate	35220DUF	20150202	16155.1		701110	20150303	BC
W008	Winchester	1651 IOU-97	20150205	77885.51		701119	20150306	HMV
H025	Ivan Aker	WNZ36C	20150205	47206.67		701123	20150306	VST
B010	Carter Bout	971008A	20150205	38655.49		701125	20150307	VMH
P006	Nellie Dunn	000509CJW	20150208	56863.54		701128	20150309	HMV
C202	Cary S Matic	CS - 581 -97	20150209	55923.17		701138	20150310	H.M.V.
F130	1 Moore	IN 6456 97	20150210	4267.33		701141	20150313	CW
M014	Kurt N Upp	123468	20150212	62854.99		701145	20150313	HMV
M025	Luke Hair	51532	20150212	9502.27		701148	20150314	HMV
T005	Ri Pent	PPN98804	20150115	20421.85		701150	20150315	H.M.V.
N005	N Rich	9724646	20150209	657.43		701151	20150310	HV
T004	Richmond	IN/1148/97	20150209	51588.53		701155	20150310	WJT
R010	Pole Tacks	LBQ-690-XY	20150216	21738.15		701161	20150319	BC
T007	Tim Table	261206FF	20150219	69895.8		701164	20150320	HMV
W005	Will Scarlet	318/4/QPZ/1	20150223	98376.75		701171	20150324	H.M.V.
H025	Ivan Aker	WNZ39C	20150223	5118.2		701174	20150324	VST
B010	Carter Bout	971016A	20150223	35309.02		701176	20150324	VMH
G010	Fixes	871481BUZ	20150224	11744.73		701181	20150328	HV
M130	Microcomputers	5767MCC	20150228	93585.39		701188	20150329	BC
A128	A Meadow	117- 2309	20150226	7036.75		701191	20150328	H.V.
P007	Noah Lott	9379 NL	20150301	32451.68		701195	20150402	HV
M025	L Hair	248 A2Z	20150301	63440.86		701197	20150402	WJT
T005	Ri Pent	PPN98810	20150305	28785.09		701202	20150403	H.M.V.
B008	A Raid	3501067	20150305	4404.87		701204	20150403	WJT
H014	Honor Toze	659835	20150306	23250.89		701212	20150406	HMV
T007	Tim Table	261208FF	20150309	39659.16		701216	20150409	BC
W008	Winchester	1653 IOU-97	20150310	10025.39		701220	20150410	WJT
F123	Edward Zoff	99804ABC	20150313	5768.49		701224	20150412	BC
H025	Ivan Aker	WNZ44C	20150315	1780.46		701226	20150414	VST
R011	Polly Gunn	L-1264/60	20150317	42789.73		701235	20150417	H.M.V.
M020	Luke Hair	2864 BNA	20150319	55813.97		701238	20150417	HMV
F130	1 Moore	IN 6468 97	20150320	23071.46		701244	20150418	BC
P007	Noah Lott	9381 NL	20150421	8990.82		701247	20150522	H.M.V.
W025	Wite Wash	2001/116.63	20150402	38206.37		701274	20150501	BC
F128	Edward Zoff	99805ABC	20150403	70403.18		701276	20150503	BC
R011	Polly Gunn	L-1269/61	20150406	53635.08		701281	20150505	H.M.V.
M025	Luke Hair	51563	20150409	73516.66		701297	20150508	WJT
F128	Ern Payed	82 113 1	20150409	28906.39		701298	20150508	VMH
T005	Ri Pent	PPN98831	20150409	79086.25		701300	20150508	BC
P009	P Green	566760T	20150413	60242.14		701312	20150514	HMV
P008	O Kay Yahs	BC 469759 W	20150416	6711.33		701315	20150515	HV
G020	Gus Main	T5758VB	20150416	13012.52		701321	20150515	HMV
H014	IM Right	4848- 97	20150419	34790.38		701328	20150519	VMH
T005	Ronnie Biggs	7899464	20150419	16198.64		701329	20150519	WJT
M025	Luke Hair	51590	20150424	43124.69		701345	20150523	WJT
D025	Denise Bent	81351	20150427	11915.57		701348	20150529	HV
G020	Gus Main	T5765VB	20150505	6007.6		701366	20150608	WJT
M128	Maurice Mynah	IN-392869	20150507	41686.45		701367	20150605	CW
P006	N Rich	9724706	20150507	1916.38		701376	20150606	CW
T006	Round Table	BUR1362-G	20150508	44905.96		701381	20150608	HMV
W007	Trevor Wills	TJ9753	20150517	28718.94		701403	20150616	H.M.V.
C202	Cary S Matic	CS - 620 -97	20150522	76220.09		701414	20150620	HMV
Z001	Miles Long	FR-1005 74	20150522	31038.95		701415	20150620	HV
A128	A Meadow	117- 2343	20150522	50654.56		701416	20150622	CW
G020	Gus Main	T5768VB	20150524	40947.54		701418	20150623	WJT
M123	Luke Hair	51602	20150526	5560.05		701424	20150626	BC
H014	IM Right	4873- 97	20150529	21287.16		701430	20150629	CW
D025	Chimps Teaparty	147903CTR	20150531	18583.59		701439	20150630	BC
T008	Tim Table	261226FF	20150531	17889.1		701441	20150630	WJT
P010	P Green	566787T	20150602	60469.35		701453	20150703	WJT
M025	Luke Hair	2906 BNA	20150602	21678.05		701455	20150703	WJT
P008	O Kay Yahs	BC 469780 W	20150604	1424.29		701456	20150703	HV
F130	Farmer	14658	20150609	24589.43		701475	20150710	H.M.V.
M130	Microcomputers	5824MCC	20150609	21473.1		701481	20150710	VST
Z001	Miles Long	FR-1018 77	20150611	59333.5		701483	20150710	VST
P007	Nellie Dunn	000526CJW	20150612	145.5		701490	20150712	CW
G010	Fixes	871522BUZ	20150615	11410.16		701492	20150714	HMV
P007	Noah Lott	9423 NL	20150619	49128.26		701506	20150720	VST
R008	Phillippa Pail	97/1307/A	20150619	11741.07		701509	20150720	WJT
H014	Honor Toze	659882	20150625	8076.69		701523	20150724	HMV
R011	Pole Tacks	LBQ-715-XY	20150626	14613.8		701524	20150725	WJT
T010	Wanda Farr	10080 A	20150629	57754.32		701537	20150730	BC
M130	Microcomputers	5842MCC	20150629	10927.45		701545	20150730	HMV
M025	L Hair	297 A2Z	20150629	3656.26		701554	20150730	HMV
N001	Mike Atsil	AZ388	20150717	8717.65		701560	20150815	HMV
R020	Polly Gunn	L-1325/69	20150630	15185.05		701570	20150731	WJT
F128	Ern Payed	82 154 1	20150706	6551.94		701582	20150806	HMV
P006	N Rich	9724762	20150707	51690.07		701585	20150807	HMV
K001	Jackie Tupp	917390	20150710	95890.94		701592	20150808	WJT
M123	Luke Hair	51640	20150710	19639.94		701604	20150808	H.M.V.
R020	Polly Gunn	L-1328/70	20150714	44572.46		701615	20150814	WJT
M130	Microcomputers	5852MCC	20150716	50776.75		701620	20150814	HV
N005	Miles Long	FR-1040 97	20150717	4089.67		701622	20150815	HV
P008	Noah Lott	9425 NL	20150717	60194.66		701627	20150815	HMV
B008	A Raid	3501107	20150717	15799.16		701636	20150816	CB
T006	Ronnie Biggs	7899489	20150720	973.76		701638	20150818	HMV
R025	Ray	54999/10	20150720	73953.63		701641	20150820	WJT
K001	Jackie Tupp	917400	20150721	38727.8		701642	20150821	WJT
Z001	Wong Way	10012-97-213	20150724	81318.72		701653	20150823	WJT
P007	Nellie Dunn	000547CJW	20150727	93461.99		701663	20150825	HV
P010	P Green	566833T	20150727	74654.01		701668	20150827	HMV
N005	Miles Long	FR-1046 106	20150730	22949.53		701674	20150828	VMH
M014	Kurt N Upp	123521	20150731	72093.97		701680	20150829	HMV
M025	L Hair	317 A2Z	20150731	47901.59		701681	20150830	WJT
R010	Phillippa Pail	97/1334/A	20150731	76891.73		701682	20150830	HMV
T004	Ri Pent	PPN98890	20150730	33830.46		701686	20150828	V.S.T
P006	N Rich	9724788	20150803	3965.3		701687	20150901	HV
T006	Ronnie Biggs	7899494	20150803	124.15		701690	20150901	BC
B010	Carter Bout	971060A	20150811	7447.07		701712	20150911	HMV
T010	Wanda Farr	10110 A	20150812	8865.03		701716	20150911	BC
G010	Farmer	14689	20150812	14600.93		701718	20150911	WJT
M128	Maurice Mynah	IN-392920	20150818	75031.08		701730	20150918	VMH
P008	Noah Lott	9441 NL	20150818	47377.86		701731	20150918	HV
M025	L Hair	330 A2Z	20150820	3316.16		701733	20150918	HMV
F130	Ern Payed	82 174 1	20150821	22480.76		701736	20150919	WJT
K001	Jackie Tupp	917413	20150825	7882.88		701746	20150925	BC
T008	Tim Table	261245FF	20150828	9551.01		701752	20150927	BC
W005	Will & Wont	18/JMB/0729	20150929	72972.54		701754	20151030	V.S.T
W020	Witch Products	52G	20150831	49503.02		701755	20150928	HMV
N005	Miles Long	FR-1051 118	20150904	73925.39		701772	20151003	VMH
M128	Maurice Mynah	IN-392928	20150904	57857.56		701776	20151005	VMH
R010	Phillippa Pail	97/1353/A	20150830	36130.16		701779	20150929	WJT
Z001	Mike Atsil	AZ408	20150907	24728.37		701784	20151006	VMH
R008	Penny Cillin	100241	20150907	30607.37		701788	20151008	WJT
P007	Nellie Dunn	000557CJW	20150907	12219.44		701790	20151008	VMH
M020	Linda Hand	GR256 97	20150911	23011.03		701796	20151010	WJT
M130	Microcomputers	5882MCC	20150911	21555.49		701799	20151012	VMH
G020	Gus Main	T5844VB	20150913	27388.73		701804	20151013	HMV
T004	Ri Pent	PPN98921	20150914	6150.08		701809	20151015	HMV
R007	Peter Rabbitt	KG0385	20150918	79901.01		701820	20151017	BC
Z001	Mike Atsil	AZ409	20150717	77086.87		701830	20150816	VMH
R008	Penny Cillin	100244	20150921	28048.91		701834	20151022	WJT
W008	Trevor Wills	TJ9776	20150921	49375.29		701835	20151022	HV
R020	Polly Gunn	L-1359/75	20150922	91715.65		701840	20151023	BC
D014	Cary S Matic	CS - 690 -97	20150925	17024.1		701846	20151026	BC
N005	Miles Long	FR-1059 128	20150925	73089.25		701847	20151026	CW
T005	Richmond	IN/1182/97	20150927	49215.5		701864	20151027	WJT
T007	Round Table	BUR1389-G	20150928	52179.96		701865	20151029	BC
W025	Wite Wash	2001/142.63	20150927	2955.65		701879	20151027	HMV
M025	L Hair	358 A2Z	20151016	23150.18		701906	20151114	HMV
H025	IM Right	4929- 97	20151017	48063.97		701914	20151116	HMV
D025	Chimps Teaparty	147939CTR	20151018	29415.5		701923	20151119	HV
M025	Joyce Tick	54824	20151018	81544.17		701924	20151119	HMV
W020	Witch Products	56G	20151020	23175.56		701928	20151120	WJT
F128	Edward Zoff	99842ABC	20151022	40135.53		701933	20151120	HMV
P010	P Green	566899T	20151023	76353.12		701937	20151122	H.M.V.
M020	Linda Hand	GR269 97	20151023	24854.73		701938	20151122	BC
M025	Luke Hair	3002 BNA	20151018	4781.47		701939	20151119	H.M.V.
D014	Cary S Matic	CS - 705 -97	20151026	70907.38		701942	20151126	VMH
N005	Miles Long	FR-1073 140	20151027	7962.64		701943	20151127	HMV
H025	Ivan Aker	WNZ105C	20151026	47197.22		701951	20151124	HMV
W008	Trevor Wills	TJ9785	20151026	4582.11		701955	20151124	HMV
G020	Fixes	871562BUZ	20151101	90287.15		701958	20151201	HMV
K001	Ivan Aker	WNZ106C	20151102	48885.06		701968	20151203	HV
W008	Trevor Wills	TJ9787	20151103	3561.25		701974	20151204	HMV
R020	Polly Gunn	L-1368/79	20151108	19620.22		701982	20151208	WJT
N005	Miles Long	FR-1082 155	20151113	8795.55		701989	20151212	HMV
B008	A Meadow	117- 2413	20151113	19816.88		701990	20151213	H.V.
N005	Miles Long	FR-1090 163	20151116	1731.52		702001	20151215	WJT
F123	Dick Tate	35239DUF	20150522	78105.1		701334	20150622	VMH
Z001	Wong Way	10006-97-213	20150501	57980.56		701273	20150602	H.M.V.
M025	L Hair	269 A2Z	20150508	36539.36		701295	20150609	WJT
W005	Wanda Farr	10140 A	20151206	66244.39		701979	20151206	WJT
B008	A Raid	3501068	20150425	76113.99		701256	20150531	WJT
H014	Gus Main	T5866VB	20151127	15913.11		701946	20151128	VMH
W005	Will Scarlet	316/4/QPZ/1	20150115	85728.78		701051	20150215	H.M.V.
M128	Maurice Mynah	IN-392838	20150331	85074.72		701194	20150508	H.M.V.
F130	1 Moore	IN 6469 97	20150507	2844.68		701290	20150613	PJM
F130	Farmer	14627	20150327	13802.27		701182	20150328	WJT
R025	Ray	55006/10	20151016	512.77		701816	20151124	WJT
