110211059	QUEBEC	32	4.368	139.776		100	25	18	760948	20201204	9.15	20200513	8.45	535	4.02
111201103	OTTAWA	125	3.511	438.875		300	100	70	760474	20201108	8.75	20200812	7.95	794	3.694
111601902	QUEBEC	670	0.69	462.3		900	200	540	760848	20201203	1.49	20201202	1.35	2488	0.638
111807059	QUEBEC	684	0.591	404.244		750	100	432	760949	20201204	1.09	20200413	0.99	2156	0.55
111807558	QUEBEC	61	1.877	114.497		300	100	48	760950	20201204	3.95	20101105	3.55	86	1.732
111813056	TORONTO	990	0.548	542.52		3000	500	900	760951	20201204	1.15	20201006	1.05	493	0.504
111815558	QUEBEC	140	0.571	79.94		500	100	150	760516	20201114	1.19	20200319	1.05	101	0.525
111821608	OTTAWA	360	0.482	173.52		388	169	400	760849	20201203	1.35	20200430	1.29	1011	0.493
111821703	QUEBEC	380	0.401	152.38		404	127	200	760851	20201203	1.15	20200606	1.09	3756	0.4
111821809	TORONTO	250	0.46	115		250	100	150	760852	20201203	1.29	20200221	1.19	100	0.474
111824705	QUEBEC	320	0.652	208.64		431	166	200	760853	20201203	1.75	20200528	1.59	1635	0.649
113219101	QUEBEC	9	3.299	29.691	Y	7	4	12	760386	20201018	7.59	20101016	7.25	189	3.102
113401101	TORONTO	63	0.85	53.55		125	63	60	760952	20201204	2.09	20200701	2.29	590	0.81
113401704	OTTAWA	60	0.97	58.2		50	10	45	760953	20201204	2.35	20200526	2.15	49	0.92
113411019	QUEBEC	20	2.83	56.6		66	0	20	760462	20201108	3.45	20201108	0	0	0
116003054	TORONTO	240	0.505	121.2		217	59	240	760418	20201029	1.05	20201112	0.95	778	0.458
116003551	OTTAWA	360	0.899	323.64		288	119	1152	760334	20200925	1.9	20200213	1.75	488	0.833
116030109	QUEBEC	4	5.19	20.76	Y	103	2	20	760427	20201031	12.65	20200810	10.95	85	4.995
116030904	OTTAWA	35	2.245	78.575	Y	103	2	100	760045	20200212	5.5	20200914	4.99	242	2.17
116035403	QUEBEC	70	0.949	66.43		81	0	50	760954	20201204	2.29	20200726	2.09	79	0.91
117202655	QUEBEC	900	0.35	315		870	335	450	760796	20201202	0.99	20101006	0	2676	0.319
117208754	QUEBEC	300	0.403	120.9		265	58	300	760798	20201202	1.15	20200523	0.99	386	0.378
117231008	QUEBEC	100	0.978	97.8		130	40	100	760854	20201203	2.19	20200818	2.15	0	0.87
120250100	QUEBEC	315	3.014	949.41		327	164	360	760509	20201113	7.49	20200602	7.25	1362	3.101
120254902	QUEBEC	60	5.32	319.2		173	62	50	760855	20201203	11.75	20200109	10.95	55	4.892
123202607	QUEBEC	133	0.683	90.839		231	91	160	760609	20201121	1.75	20101002	1.69	0	0
123418809	QUEBEC	80	0.976	78.08		164	82	120	760721	20201129	2.45	20201020	2.25	427	0.859
133006658	QUEBEC	82	5.402	442.964		216	8	60	760955	20201204	11.35	20200218	9.85	0	4.928
133007087	TORONTO	59	7.155	422.145		172	61	36	760956	20201204	14.95	20200612	13.95	10	6.548
135215507	QUEBEC	108	1.79	193.32		111	56	108	760684	20201128	4.59	20200204	4.39	0	0
135240058	QUEBEC	39	1.953	76.167		56	10	18	760957	20201204	4.29	20200204	4.25	23	1.889
135277655	OTTAWA	140	0.505	70.7		137	19	48	760958	20201204	1.09	20101110	1.05	740	0.485
135277951	OTTAWA	126	1.934	243.684		301	150	120	760566	20201118	4.45	20200723	0	108	1.934
135278356	TORONTO	60	1.449	86.94		223	37	72	760517	20201114	3.15	20200725	0	534	1.384
135278557	OTTAWA	45	2.172	97.74		186	68	30	760959	20201204	4.75	20200222	0	348	2.065
135278959	QUEBEC	114	1.01	115.14		191	96	72	760960	20201204	2.25	20200426	0	50	0.99
135279353	TORONTO	210	2.12	445.2		168	59	162	760567	20201118	4.59	20200714	4.29	1176	2.02
135279755	QUEBEC	172	1.581	271.932		188	69	96	760961	20201204	3.59	20200819	3.29	58	1.581
142000202	QUEBEC	280	0.83	232.4		374	162	250	760856	20201203	1.49	20200716	1.29	1657	0.77
142017756	QUEBEC	186	2.065	384.09		349	74	60	760962	20201204	4.29	20200829	3.75	0	1.889
142018055	QUEBEC	222	2.328	516.816		378	89	120	760568	20201118	4.85	20101015	4.39	1481	2.131
142019052	TORONTO	13	2.812	36.556		60	0	30	760672	20201126	5.75	20200906	5.35	380	2.545
142019158	OTTAWA	40	3.384	135.36		107	0	60	760569	20201118	6.95	20200116	6.45	11	3.07
143000501	QUEBEC	0	1.76	0		200	50	50	760551	20201117	4.75	20200711	4.55	543	1.76
143001001	OTTAWA	255	2.663	679.065		429	140	200	760857	20201203	5.45	20200415	4.99	1375	1.79
143031214	OTTAWA	246	3.54	870.84		222	36	162	760204	20200630	4.56	20201111	4.33	130	3.21
143600404	QUEBEC	50	3.385	169.25		90	20	45	760858	20201203	8.55	20200103	7.85	28	3.162
143611055	QUEBEC	75	11.906	892.95		60	0	35	760570	20201118	21.45	20200927	0	479	11.044
150204805	QUEBEC	150	1.785	267.75		270	85	30	704450	20080925	4.09	20101201	3.79	751	1.6
150206503	QUEBEC	12	5.816	69.792		210	105	20	760859	20201203	13.25	20101124	11.95	642	5.528
160410509	QUEBEC	410	1.983	813.03		378	139	480	760550	20201116	5.35	20101103	4.99	4488	2.19
164011152	QUEBEC	230	0.712	163.76		234	92	360	760685	20201128	1.99	20101226	2.19	0	0.79
164011302	QUEBEC	320	0.729	233.28		406	153	160	760860	20201203	2.15	20200417	1.99	1078	0.69
164011408	QUEBEC	162	1.89	306.18		155	52	72	760861	20201203	3.99	20201225	4.45	617	1.889
164011609	OTTAWA	280	0.463	129.64		449	200	170	760862	20201203	1.35	20201010	1.42	1450	0.496
164011905	OTTAWA	100	2.19	219		230	65	70	760552	20201117	5.95	20100927	5.45	910	2.189
220205305	QUEBEC	0	67.139	0	Y	200	100	24	760096	20200330	99.95	20200625	0	339	62.26
220601502	QUEBEC	59	30.691	1810.769		247	99	60	760146	20200427	47.95	20200103	45.95	676	29.87
220604504	TORONTO	0	43.55	0	Y	175	88	18	760136	20200422	69.95	20200527	59.95	265	43.55
222070007	QUEBEC	5	21.287	106.435		104	52	18	760380	20201015	46.25	20201223	43.85	250	21.287
232217705	QUEBEC	105	1.221	128.205		209	55	60	761013	20201205	3.45	20200504	0	46	1.2
232217809	QUEBEC	100	1.268	126.8		300	0	30	761014	20201205	3.59	20200629	0	32	1.25
232219308	QUEBEC	70	0.94	65.8		231	41	90	760518	20201114	2.39	20200920	0	2890	0.94
232220307	QUEBEC	200	0.247	49.4		235	18	200	761015	20201205	0.69	20200817	0	287	0.24
232825608	QUEBEC	190	0.267	50.73		152	1	250	760510	20201113	0.69	20201217	0.65	122	0.264
232826806	QUEBEC	110	0.47	51.7		138	69	90	760863	20201203	1.39	20201228	1.29	113	0.47
232830902	QUEBEC	70	0.92	64.4		81	16	50	760864	20201203	2.85	20201224	2.59	1277	0.92
233214209	TORONTO	100	0.725	72.5		130	40	100	760388	20201018	2.15	20200607	1.95	212	0.713
233260592	QUEBEC	20	0.909	18.18		300	0	20	760429	20201102	2.69	20200128	2.35	590	0.902
233302301	OTTAWA	160	0.47	75.2		500	10	90	761080	20201205	1.69	20200521	1.49	407	0.47
233709604	QUEBEC	40	0.755	30.2		32	0	35	761081	20201205	2.25	20101116	2.05	12	0.754
233805409	QUEBEC	20	4.92	98.4		166	58	9	761082	20201205	10.15	20200328	10.95	221	4.915
260200409	QUEBEC	72	20.735	1492.92		158	4	60	760463	20201108	28.95	20100823	30.95	2148	20.823
260800109	QUEBEC	11	3.58	39.38		234	42	5	760464	20201108	7.75	20200815	7.25	111	3.578
311110078	QUEBEC	710	3.149	2235.79		618	0	800	761083	20201205	4.95	20201123	5.39	1730	3.142
311304572	TORONTO	185	0.729	134.865		223	112	80	760865	20201203	1.49	20200315	1.35	2145	0.65
311705575	QUEBEC	170	1.87	317.9		186	68	100	760868	20201203	3.49	20200501	3.19	2177	1.74
312509507	QUEBEC	46	7.486	344.356		212	56	72	760871	20201203	13.29	20100823	12.25	651	7.08
312707209	TORONTO	264	7.278	1921.392		386	193	210	760459	20201108	12.99	20200517	12.49	659	6.9
312708904	TORONTO	36	7.281	262.116		29	0	72	760371	20201010	14.99	20201130	13.99	2058	7.018
312904076	OTTAWA	56	12.878	721.168		195	47	40	760874	20201203	21.99	20200612	19.99	424	11.749
313149407	TORONTO	80	5.814	465.12		214	7	360	760305	20200914	13.95	20200827	0	789	5.95
313149519	TORONTO	241	4.65	1120.65		218	34	420	704485	20081010	6.75	20201128	6.52	180	4.22
313303800	OTTAWA	1	16.821	16.821		201	100	4	704478	20080929	29.95	20200625	0	811	17.19
313304003	QUEBEC	0	16.822	0	Y	150	0	5	700731	20010921	29.95	20201130	0	406	17.19
313305201	QUEBEC	0	21.89	0		225	88	6	704672	20081118	44.95	20201106	0	58	21.89
313305603	TORONTO	7	35.089	245.623		56	28	2	700731	20010921	59.95	20200304	0	164	35.19
313314312	OTTAWA	230	5.6	1288		409	205	960	760302	20200912	7.33	20201128	6.98	860	5.2
313333209	QUEBEC	10	1.27	12.7		183	92	1200	760603	20201121	2.95	20200923	0	1918	1.33
313401400	QUEBEC	0	63	-67		207	79	12	760579	20201119	120	20200620	119.99	238	62.308
313402005	QUEBEC	3	62	186		127	0	4	760580	20201119	120	20201029	109.95	0	0
316002505	QUEBEC	170	1.704	289.68	Y	286	143	160	760480	20201109	3.39	20101115	2.95	3278	1.689
316003502	OTTAWA	51	5.534	282.234	Y	66	0	30	760493	20201113	11.15	20101101	9.99	188	5.242
316004203	TORONTO	130	0.53	68.9	Y	229	40	180	760604	20201121	1.29	20200331	1.25	290	0.53
319000202	QUEBEC	535	2.01	1075.35		603	302	300	760877	20201203	3.79	20101230	3.49	2905	1.97
319001200	OTTAWA	280	1.83	512.4		424	212	30	761145	20050128	3.75	20101110	0	6685	1.83
319502103	OTTAWA	150	3.36	504		120	10	100	760481	20201109	7.25	20200118	6.49	1833	3.24
319502801	QUEBEC	390	0.619	241.41		537	244	400	760494	20201113	1.29	20100905	1.19	621	0.58
321701072	QUEBEC	340	0.869	295.46		272	86	800	760419	20201029	1.95	20201125	1.79	1637	0.869
330701905	OTTAWA	56	18.239	1021.384		95	22	20	760880	20201203	35.99	20101108	0	379	18.05
330720907	QUEBEC	48	17.507	840.336		88	19	72	760252	20200731	32.99	20200501	0	162	18.48
330721109	OTTAWA	28	22.709	635.852		1000	0	36	760271	20200816	39.99	20200503	0	111	23
340115109	QUEBEC	1290	0.952	1228.08		1182	491	640	760382	20201015	1.79	20201031	0	10895	0.94
340130008	OTTAWA	1340	1.019	1365.46		1222	561	1440	760460	20201108	2.55	20201029	2.35	549	0.871
340307008	QUEBEC	550	0.995	547.25		640	245	960	760310	20200915	2.35	20201215	2.15	8012	0
340308519	QUEBEC	60	1.12	67.2		173	87	160	760390	20201019	1.86	20200713	1.95	168	1.32
340720655	QUEBEC	282	3.05	860.1		351	125	72	760689	20201128	6.99	20200326	0	878	3.05
350156702	OTTAWA	780	0.24	187.2		749	300	480	760800	20201202	0.59	20200928	0.55	260	0.24
350157001	TORONTO	168	1.58	265.44		334	117	78	760802	20201202	3.69	20101111	3.75	4016	1.58
350157403	TORONTO	558	1.708	953.064		596	248	600	760673	20201126	4.99	20200113	5.25	4364	1.89
350160407	QUEBEC	880	4.345	3823.6		729	265	500	760804	20201202	9.49	20101130	8.39	1378	4.173
350161002	QUEBEC	87	4.55	395.85		220	85	40	760806	20201202	9.99	20200215	8.69	1360	4.347
350190305	QUEBEC	197	4.95	975.15		233	66	108	760883	20201203	10.99	20201212	0	1004	4.95
380101905	QUEBEC	61	7.766	473.726		174	87	60	760610	20201121	20.75	20200223	18.99	93	7.643
380102003	QUEBEC	205	4.57	936.85		214	32	100	760886	20201203	13.39	20200115	12.49	110	4.648
380301707	QUEBEC	130	3.698	480.74		279	115	120	760889	20201203	9.29	20200416	8.69	1594	3.631
380500702	QUEBEC	1130	0.863	975.19		1079	490	400	760892	20201203	2.39	20201002	2.19	6261	0.863
380700409	OTTAWA	3940	1.686	6642.84		3152	1476	1875	760511	20201113	2.65	20200904	2.95	22692	1.687
380700809	QUEBEC	1775	0.352	624.8		1545	773	550	760553	20201117	0.79	20200924	0.75	3960	0.352
381100509	OTTAWA	615	1.347	828.405		667	234	600	760895	20201203	2.95	20101027	2.75	7680	1.342
381100700	OTTAWA	930	0.661	614.73		769	310	480	760623	20201121	1.39	20200819	1.29	9527	0.633
381502107	OTTAWA	101	7.164	723.564		181	15	80	760554	20201117	17.99	20200301	17.49	442	7.171
381700401	TORONTO	75	3.309	248.175		285	143	100	760896	20201203	9.49	20201227	8.49	335	3.309
382101001	QUEBEC	188	11.461	2154.668	Y	300	150	300	760897	20201203	27.95	20200726	26.95	645	12.24
382102506	QUEBEC	6	1.64	9.84	Y	105	52	140	760438	20201104	3.89	20101216	3.55	1016	1.676
410513006	TORONTO	18	16.969	305.442		189	95	24	760414	20201028	39.49	20101211	0	610	17
420304105	TORONTO	104	3.279	341.016		133	17	120	760690	20201128	7.99	20200801	0	1677	3.15
420304401	OTTAWA	140	3.12	436.8		287	69	96	760963	20201204	7.99	20101020	0	1089	3
420317818	QUEBEC	86	9.71	835.06		94	22	160	760420	20201029	10.48	20101022	9.6	160	9.32
420317913	OTTAWA	74	8.32	615.68		59	0	140	760421	20201029	12.6	20200924	10.9	280	7.8
421020509	QUEBEC	25	22.05	551.25		45	23	6	760738	20201130	54.95	20200517	46.95	40	22.049
421028604	TORONTO	20	5.109	102.18		141	71	20	760964	20201204	19.95	20200118	13.95	228	5.109
421033602	QUEBEC	14	16.3	228.2		161	0	24	760465	20201108	34.95	20200415	32.95	366	16.299
421036403	QUEBEC	0	56.5	0		225	13	12	760344	20200929	119	20200319	105	45	0
421036805	QUEBEC	0	13.75	0		125	63	24	760355	20201003	34.95	20200705	29.95	16	13.749
421103002	QUEBEC	0	25.4	0		25	0	22	760353	20201003	64.99	20101107	59.99	148	27.558
421106004	TORONTO	23	16.202	372.646		93	0	22	760374	20201011	42.99	20201023	39.99	292	18.472
421114205	QUEBEC	5	34.15	170.75		29	0	12	760356	20201003	80.49	20201004	74.95	25	34.025
421131308	QUEBEC	3	32.76	98.28		152	76	18	760335	20200927	75.95	20200929	69.95	116	31.657
421143307	TORONTO	1	24.102	24.102	Y	10	0	12	760327	20200919	0	20200924	0	18	28.098
421152008	TORONTO	0	13.86	0		200	100	22	760346	20200930	32.99	20101130	29.99	56	14.556
421202005	QUEBEC	0	14.577	0		150	75	18	760314	20200917	36.95	20200423	32.95	102	14.324
421202909	OTTAWA	42	7.024	295.008		84	17	24	760739	20201130	18.95	20101009	17.95	7	7.024
421208904	QUEBEC	0	6.6	50		0	0	30	760324	20200919	16.95	20201218	15.95	248	6.584
421290103	QUEBEC	0	19.05	0		25	0	12	760315	20200917	56.95	20201121	49.95	58	18.428
421290706	QUEBEC	0	7.35	0		225	88	24	760254	20200803	18.95	20200326	16.95	125	7.347
421300405	OTTAWA	0	9.371	0	Y	125	38	24	760295	20200911	22.95	20101214	0.2	0	0
421511008	QUEBEC	88	2.57	226.16		70	10	48	760965	20201204	5.25	20101205	6.99	0	0
421531007	OTTAWA	16	3.2	51.2		13	0	256	760406	20201025	7.49	20200329	0	0	0
421613009	TORONTO	0	11.27	0		125	0	11	760365	20201008	25.99	20200225	0	155	11.27
421621009	QUEBEC	0	22.93	0		175	5	8	760366	20201008	52.99	20201012	0	25	22.93
430110101	QUEBEC	201	3.807	765.207		236	68	216	760740	20201130	7.99	20101009	0	7	3.64
430125102	QUEBEC	24	4.84	116.16	Y	169	85	310	704561	20081113	11.99	20101204	0	204	4.84
430128200	TORONTO	41	19.7	807.7		183	16	90	760519	20201114	43.95	20100825	39.95	57	19.699
430161006	TORONTO	60	8.59	515.4		273	112	80	760605	20201121	19.99	20200827	0	625	8.59
430301115	OTTAWA	30	6.338	190.14		174	12	48	761016	20201205	13.49	20201027	0	173	5.89
430315005	TORONTO	51	12.968	661.368		266	58	48	761017	20201205	28.49	20200823	0	248	12.39
430351004	TORONTO	111	6.769	751.359		289	94	36	761018	20201205	18.49	20200608	0	822	7.087
430501118	OTTAWA	132	8.412	1110.384		106	3	60	761019	20201205	18.99	20101004	0	1287	8.09
430562409	QUEBEC	120	9.82	1178.4		125	11	54	760966	20201204	12.6	20200201	11.9	420	9.76
430902504	OTTAWA	12	3.78	45.36		35	0	36	760741	20201130	8.95	20200429	8.75	3387	3.779
430903205	QUEBEC	4	3.124	12.496		28	0	54	760630	20201122	6.99	20201214	0	1276	3
430903406	TORONTO	145	2.987	433.115		241	20	30	760638	20201123	6.49	20200818	5.45	605	2.85
430906006	OTTAWA	72	3.945	284.04		258	29	72	761020	20201205	8.95	20201018	0	559	3.78
430910007	OTTAWA	120	3.967	476.04		321	61	72	761021	20201205	11.95	20200824	10.99	119	4.969
440100608	QUEBEC	88	5.08	447.04		120	35	64	761022	20201205	10.99	20200918	9.95	410	5.08
440105028	TORONTO	37	8.38	310.06		255	127	30	760674	20201126	19.95	20200106	17.95	0	0
440106017	OTTAWA	32	10.43	333.76		151	0	10	760967	20201204	21.95	20200406	19.95	0	0
440120406	TORONTO	0	12.816	0		200	75	72	760094	20200316	27.49	20201104	24.95	1369	12.706
440120808	QUEBEC	0	13.156	0		175	63	72	760154	20200507	27.49	20200515	24.95	1171	12.965
440124606	QUEBEC	0	9.483	0		0	0	70	760084	20200306	17.95	20200315	16.75	548	8.8
440129105	QUEBEC	2	19.9	39.8		152	1	15	760132	20200421	39.95	20100823	0	42	19.9
440303000	QUEBEC	96	9.387	901.152		252	101	48	760898	20201203	18.99	20200420	17.95	140	9.387
440330308	OTTAWA	310	14.976	4642.56		398	149	140	760520	20201114	29.99	20201222	27.99	1073	13.773
440400808	OTTAWA	84	13.6	1142.4		267	134	96	760624	20201121	29.95	20200515	26.95	58	13.598
440402601	OTTAWA	86	19.7	1694.2		94	0	50	760691	20201128	25	20200327	22.5	186	17.68
440404003	QUEBEC	24	36	864		69	0	24	760370	20201010	39.5	20200422	38	49	36
460112202	QUEBEC	940	0.731	687.14		827	339	320	760899	20201203	1.79	20200728	1.89	12655	0.73
460121009	QUEBEC	540	0.582	314.28		482	241	1440	760512	20201113	1.19	20200704	1.09	21456	0.582
460151002	QUEBEC	280	0.729	204.12	Y	249	100	960	760692	20201128	1.59	20101010	1.49	31109	0.744
460181006	TORONTO	400	0.665	266		545	198	400	760900	20201203	1.39	20200710	1.29	4309	0.666
460183508	OTTAWA	1940	0.779	1511.26		1702	776	640	760693	20201128	1.39	20200709	1.29	21158	0.795
460186404	OTTAWA	1390	0.663	921.57		1312	556	1280	760901	20201203	1.79	20200313	1.49	2595	0.728
460310105	OTTAWA	220	1.759	386.98		176	38	80	760902	20201203	4.29	20101003	4.99	2789	1.861
460310602	QUEBEC	370	1.7	629		496	248	320	760903	20201203	4.29	20200730	4.99	5337	1.867
460907100	OTTAWA	425	1.128	479.4		390	195	300	760555	20201117	2.79	20100930	2.59	1376	1.127
460908001	QUEBEC	200	1.194	238.8		285	68	750	760430	20201102	2.89	20201021	2.69	2958	1.194
460910008	QUEBEC	6	5.444	32.664		55	0	48	760606	20201121	12.49	20101021	0	8290	5.45
460914007	OTTAWA	240	6.609	1586.16		267	59	240	761023	20201205	16.99	20100826	15.99	244	6.42
460931004	QUEBEC	150	6.77	1015.5		295	123	96	760968	20201204	13.99	20100904	15.75	1742	6.84
460935003	OTTAWA	30	6.088	182.64		24	12	60	760631	20201122	11.99	20200528	13.75	1170	5.93
460970608	OTTAWA	184	2.215	407.56		272	136	128	760513	20201113	5.69	20201215	0	2184	2.215
461104205	QUEBEC	330	0.976	322.08		489	245	240	760904	20201203	1.99	20200911	1.89	2082	0.974
461107207	OTTAWA	720	1.028	740.16		776	313	240	760905	20201203	2.19	20101101	1.79	19344	1.022
461109709	OTTAWA	680	0.326	221.68		719	335	640	760694	20201128	0.85	20201230	0	8556	0.325
461109804	QUEBEC	660	0.379	250.14		728	364	320	760906	20201203	0.89	20200821	0	1326	0.313
461110000	QUEBEC	750	2.132	1599		750	300	140	760907	20201203	3.99	20200723	0	868	2.4
461115006	QUEBEC	190	1.391	264.29		177	39	1200	760322	20200918	2.39	20200918	2.99	10538	1.391
461116212	OTTAWA	410	0.45	184.5		378	139	210	760908	20201203	0.7	20200720	0.67	1206	0.412
462501900	QUEBEC	1116	0.76	848.16		1043	446	864	760695	20201128	1.39	20201230	1.29	2051	0.759
462518207	OTTAWA	875	0.45	393.75		875	338	450	760909	20201203	0.99	20200326	0.95	3895	0.45
510503002	OTTAWA	-8	9.081	0		112	56	42	760812	20201202	23.95	20201227	21.95	62	8.75
510509207	QUEBEC	250	1.774	443.5		200	50	150	761024	20201205	4.95	20200310	4.5	1004	1.774
510536505	QUEBEC	120	8.418	1010.16		221	86	135	760675	20201126	19.95	20200918	17.99	410	7.81
510539000	QUEBEC	165	2.17	358.05		307	129	200	760676	20201126	5.5	20200731	0	3979	2.17
510541503	TORONTO	90	5.87	528.3		297	149	80	760813	20201202	14.9	20200201	0	7169	5.87
521102302	QUEBEC	14	7.2	100.8		36	0	10	760654	20201124	15.95	20101226	15.5	328	7.222
521342007	QUEBEC	7	28.79	201.53	Y	206	78	40	760345	20200929	33.95	20200609	66	17	29.6
521363003	QUEBEC	20	42.29	845.8	Y	191	21	15	760126	20200417	49.95	20200430	95	155	42.726
521365609	QUEBEC	7	33.8	236.6	Y	31	15	2	760276	20200826	39.95	20201113	85	59	34.542
530543706	OTTAWA	32	7.7	246.4		251	125	20	760696	20201128	15.5	20200311	14.95	115	7
530543907	QUEBEC	40	11.55	462		207	104	30	760697	20201128	29.95	20101227	0	17	10.5
530545309	QUEBEC	71	31.26	2219.46		107	0	48	860473	20200420	54.95	20101119	34.95	870	28.42
530656009	QUEBEC	20	19.5	390		41	0	24	760441	20201104	23.7	20101022	22.7	84	18.6
530754605	QUEBEC	6	16.55	99.3	Y	5	0	26	760256	20200807	34.95	20200317	0	165	16.55
530915012	QUEBEC	30	5.18	155.4	Y	249	75	216	760318	20200917	14.95	20200109	14.25	262	5.18
530942006	TORONTO	198	5.12	1013.76		358	179	162	761025	20201205	12.95	20200401	11.45	1303	5.072
530942408	OTTAWA	60	5.115	306.9		98	24	54	761026	20201205	12.95	20200911	11.45	303	4.996
530942609	TORONTO	78	5.119	399.282		262	56	54	760762	20201202	12.95	20200630	11.45	759	5.01
530944009	TORONTO	249	3.58	891.42		199	100	108	761027	20201205	9.95	20101007	8.95	2422	3.584
531180001	QUEBEC	4	6.9	27.6	Y	103	27	28	760422	20201029	15.95	20200216	0	1689	6.9
531210503	QUEBEC	154	3.58	551.32		248	74	80	761028	20201205	8.95	20200627	7.95	305	3.448
531220307	OTTAWA	177	3.09	546.93		192	21	96	761029	20201205	7.95	20200521	6.95	98	3
531220402	QUEBEC	93	3.09	287.37		124	62	96	760523	20201114	7.95	20201021	6.95	239	3
531220603	QUEBEC	108	2.16	233.28		186	43	96	760524	20201114	5.5	20201017	4.95	389	2.089
531230005	OTTAWA	96	2.16	207.36		127	13	96	760742	20201130	5.5	20201116	4.95	19	2.043
531360206	TORONTO	99	11.92	1180.08		304	102	60	760253	20200731	23.95	20200214	21.95	206	11.92
531609952	OTTAWA	37	9.54	352.98		30	0	40	760814	20201202	21.95	20200122	19.95	105	9.367
531620006	TORONTO	4	10.38	41.52		178	64	32	760347	20200930	19.95	20200417	0	85	10.005
531901003	OTTAWA	60	4.36	261.6		48	0	20	760815	20201202	10.95	20201223	9.95	402	4.161
531901701	QUEBEC	90	2.15	193.5		147	0	80	760677	20201126	5.5	20201005	4.95	223	1.845
640701500	QUEBEC	0	0.768	0		150	50	1110	704262	20080513	1.79	20200423	1.59	3707	0.729
640712004	OTTAWA	0	1.901	0		0	0	170	704361	20080805	3.45	20200227	2.99	1649	1.689
640714506	QUEBEC	230	0.72	165.6		384	192	25	760348	20200930	1.69	20200527	1.35	757	0.63
640720501	TORONTO	0	2.62	0		100	0	340	704362	20080805	5.95	20200222	4.95	341	2.484
640807500	TORONTO	0	0.88	0		0	0	410	704364	20080807	1.69	20101024	1.59	205	0.83
640814005	QUEBEC	0	1.06	0		200	0	110	704365	20080826	2.95	20200719	2.69	310	1.012
640818004	TORONTO	0	1.94	0		150	0	40	704366	20080901	4.75	20200803	5.49	199	1.83
640819509	TORONTO	0	1.155	0		150	0	385	704368	20080901	2.85	20201103	3.25	1167	1.11
641107009	TORONTO	33	18.015	594.495		76	13	12	760495	20201113	27.49	20200429	24.7	92	16.71
641108008	OTTAWA	41	25.338	1038.858		183	41	20	760415	20201028	42.99	20200823	37.95	107	23.52
641108505	QUEBEC	21	28.976	608.496		167	58	10	761030	20201205	42.5	20200426	38.25	161	26.81
641119000	OTTAWA	29	32.932	955.028		123	0	10	760655	20201124	49.95	20201215	44.95	52	30.749
641121006	OTTAWA	4	50.734	202.936		178	64	2	760491	20201111	75.95	20200603	68.95	1	46.96
641123508	QUEBEC	24	30.222	725.328		69	0	6	761031	20201205	44.5	20200206	39.99	127	27.848
641126002	QUEBEC	4	62.751	251.004		153	2	6	760328	20200921	99.95	20200606	94.5	30	59.428
641400707	QUEBEC	54	16.11	869.94		168	59	10	760496	20201113	28.95	20101019	0	1067	16.11
641405005	TORONTO	24	4.833	115.992		219	60	8	760442	20201106	11.95	20201003	10.95	72	4.6
642400403	OTTAWA	0	1.097	0		125	0	768	760385	20201017	2.49	20101017	2.75	680	1.02
642402503	TORONTO	180	1.462	263.16		144	72	480	760394	20201022	2.75	20200604	2.45	3373	1.364
642405008	QUEBEC	30	3.57	107.1		99	0	72	760325	20200919	6.95	20200524	7.95	555	3.571
643001818	OTTAWA	240	0.868	208.32		242	21	70	761032	20201205	1.99	20201122	1.89	828	0.81
643003812	QUEBEC	2250	0.129	290.25		1875	888	1500	760601	20201120	0.49	20101114	0.39	468	0.125
643035506	QUEBEC	330	3.369	1111.77		414	182	300	760257	20200807	4.57	20200924	4.25	529	3.373
643037787	QUEBEC	1720	2.226	3828.72		1601	751	9000	760443	20201106	3.49	20100920	3.29	53080	2.296
643037882	OTTAWA	860	4.733	4070.38		813	407	1500	760454	20201106	7.29	20101210	6.99	2071	4.83
660202502	OTTAWA	125	1.438	179.75		225	113	30	760352	20201001	3.49	20100915	3.39	220	1.374
660208009	OTTAWA	240	0.568	136.32		367	109	100	760816	20201202	1.79	20201207	1.69	190	0.549
660211002	QUEBEC	120	1.277	153.24		121	61	60	760817	20201202	3.99	20200905	3.49	221	1.229
660218003	QUEBEC	85	1.512	128.52		268	109	25	760251	20200731	3.69	20200524	3.25	32	1.464
660218509	OTTAWA	88	0.662	58.256		120	10	80	760818	20201202	1.89	20200617	1.69	106	0.647
660221007	TORONTO	76	0.804	61.104		186	0	80	760819	20201202	1.99	20201103	1.69	148	0.775
660221504	QUEBEC	104	2.533	263.432		258	104	80	760820	20201202	6.59	20200413	5.99	366	2.448
660222702	QUEBEC	105	0.663	69.615		259	55	60	760821	20201202	1.89	20200214	1.65	394	0.646
660302001	QUEBEC	55	2.466	135.63		44	0	50	760822	20201202	6.59	20200823	5.95	302	2.38
660402008	OTTAWA	70	1.723	120.61		256	78	25	760823	20201202	4.59	20100826	0	714	1.657
660408001	QUEBEC	90	0.361	32.49		247	24	40	760825	20201202	0.99	20200419	0.89	922	0.347
660414504	QUEBEC	240	0.328	78.72		292	146	200	760827	20201202	0.99	20200226	0.89	2108	0.289
660900109	OTTAWA	0	0.479	0		150	50	550	760185	20200621	1.99	20101129	0	5775	0.444
660900257	OTTAWA	0	0.36	0		25	0	150	760187	20200621	1.09	20101003	0	212	0.342
660901350	QUEBEC	0	0.49	0		175	0	140	760189	20200621	1.79	20100922	1.59	12071	0.48
660901559	QUEBEC	0	1.11	0		200	0	65	760175	20200606	3.79	20200325	0	2071	1.109
660901952	TORONTO	0	1.32	0		100	25	55	760175	20200606	3.69	20101125	0	6473	1.327
660902018	OTTAWA	430	1	430		519	160	600	760296	20200911	1.7	20200607	1.5	790	0.98
660902113	OTTAWA	620	0.12	74.4		671	336	600	760475	20201108	0.22	20100909	0.21	2300	0.11
660902558	OTTAWA	0	0.32	0		75	0	130	760155	20200516	1.29	20201009	0.99	1290	0.308
661205602	QUEBEC	192	2.29	439.68		354	102	150	860483	20200520	4.99	20200927	4.49	101	2.18
661226503	TORONTO	80	1.5	120		64	7	80	760602	20201120	4.19	20200302	3.95	101	1.481
661242006	QUEBEC	2	14.932	29.864		27	0	16	760052	20200215	29.95	20201119	0	4	14.938
661250006	OTTAWA	150	0.608	91.2		170	85	50	760497	20201113	1.65	20200319	1.49	946	0.55
661256507	TORONTO	624	2.89	1803.36		699	350	840	860484	20200520	6.45	20200930	5.99	2347	2.748
830103504	OTTAWA	105	0.54	56.7		184	42	30	760910	20201203	1.89	20201008	1.79	1373	0.54
830105001	OTTAWA	50	1.577	78.85		40	20	220	760423	20201029	3.49	20200317	2.59	890	1.438
830106009	QUEBEC	10	0.225	2.25		183	0	200	760424	20201029	0.75	20200422	0.69	1734	0.206
830107503	OTTAWA	44	2.57	113.08		260	105	64	760698	20201128	6.95	20200424	5.95	285	2.541
830110507	QUEBEC	105	0.395	41.475		309	105	60	760911	20201203	2.49	20201013	2.45	2838	0.734
830120501	OTTAWA	64	2.244	143.616		201	1	48	760699	20201128	6.95	20200908	5.95	7	2.058
850604509	OTTAWA	36	6.46	232.56		79	0	30	760743	20201130	14.29	20200831	13.49	543	5.375
850622008	OTTAWA	84	1.843	154.812		117	9	72	760744	20201130	4.99	20201209	4.49	3922	1.85
850660909	QUEBEC	84	1.801	151.284		267	59	108	760571	20201118	3.99	20200811	0	0	1.82
851401509	OTTAWA	344	2.315	796.36		375	163	252	760912	20201203	4.99	20200414	3.99	5262	2.242
851520000	OTTAWA	6	0.85	5.1		80	40	144	760372	20201010	2.29	20100918	1.99	3151	0.849
911747707	OTTAWA	190	1.524	289.56		227	64	230	760913	20201203	4.49	20101027	3.99	1481	1.524
911748006	OTTAWA	125	2.526	315.75		250	100	115	760914	20201203	6.49	20200309	5.79	2448	2.524
911749300	TORONTO	43	10.02	430.86		259	55	56	760764	20201202	25.99	20101005	0	234	10.02
930103103	QUEBEC	112	3.52	394.24		90	0	72	761033	20201205	7.09	20201225	6.49	17	3.52
1041023009	OTTAWA	192	1.708	327.936		254	52	120	761034	20201205	3.99	20200723	3.59	312	1.558
1041024209	OTTAWA	186	1.708	317.688		199	49	126	761035	20201205	3.99	20201025	3.59	709	1.547
1041027209	QUEBEC	90	1.87	168.3		297	124	126	760411	20201026	4.29	20201027	3.99	728	1.603
1041032304	QUEBEC	78	1.699	132.522		287	69	240	760525	20201114	3.99	20201010	3.59	2757	1.528
1041710009	OTTAWA	68	6.927	471.036		54	0	48	760745	20201130	13.99	20100830	11.99	405	5.888
1050100102	OTTAWA	156	1.64	255.84		350	175	216	760556	20201117	4.99	20101227	0	233	1.49
1050153509	OTTAWA	0	2.407	0		100	50	96	760482	20201109	6.29	20200430	5.69	38	2.194
1050153700	QUEBEC	39	4.996	194.844		31	0	42	761036	20201205	12.65	20101210	11.49	778	4.545
1050155006	TORONTO	372	0.97	360.84		498	249	456	760431	20201102	2.45	20201215	2.19	9292	0.879
1050157009	TORONTO	342	1.1	376.2		449	0	372	760592	20201119	3.29	20200928	2.69	3027	1.1
1050190706	QUEBEC	576	1.36	783.36		561	280	288	760969	20201204	3.99	20201017	3.59	485	1.24
1050194409	QUEBEC	66	3.144	207.504		128	64	96	760593	20201119	7.55	20200804	6.99	191	3.084
1050516654	QUEBEC	24	2.283	54.792		244	22	132	760432	20201102	5.59	20201019	4.85	3022	2.04
1050525801	QUEBEC	18	2.283	41.094		189	70	132	760476	20201108	5.59	20201020	4.85	4053	2.04
1050528209	OTTAWA	294	2.284	671.496		310	55	264	760746	20201130	5.59	20200902	4.85	2618	2.139
1050595306	QUEBEC	150	1.256	188.4		195	98	372	760433	20201102	3.35	20200222	2.75	1122	1.236
1050596409	OTTAWA	1272	2.98	3790.56		1218	509	1152	760748	20201130	6.99	20200904	5.75	613	2.816
1050711208	OTTAWA	246	2.507	616.722		347	98	360	760286	20200906	6.39	20100826	5.95	3764	2.36
1050947504	OTTAWA	114	2.766	315.324		216	83	162	760288	20200906	7.29	20200829	6.89	1435	2.516
1060717552	TORONTO	180	2.237	402.66		244	47	144	760625	20201121	5.99	20200204	5.15	2010	2.034
1060717569	QUEBEC	78	4.368	340.704		137	0	90	760915	20201203	10.99	20200522	9.99	835	4.138
1060903300	QUEBEC	300	1.068	320.4		340	170	168	761037	20201205	2.59	20101111	2.15	412	0.915
1061501207	OTTAWA	672	0.261	175.392		663	306	720	760557	20201117	0.99	20101211	1.19	19078	0.31
1070102200	TORONTO	672	1.24	833.28		538	169	432	761084	20201206	3.45	20200313	3.19	587	1.16
1070124500	OTTAWA	1332	0.47	626.04		1291	570	1296	761085	20201206	1.09	20100824	0.95	1203	0.44
1070152509	QUEBEC	96	5.569	534.624		252	126	192	760282	20200828	12.75	20101226	12.49	336	5.149
1070162006	QUEBEC	1494	1.76	2629.44		1195	548	1536	760970	20201204	4.45	20200412	4.25	579	1.695
1070163003	QUEBEC	222	2.259	501.498		328	64	108	760971	20201204	5.99	20200228	5.75	1420	2.165
1070172009	QUEBEC	624	0.66	411.84		400	50	648	760972	20201204	2.39	20100909	2.15	1485	0.66
1070172900	QUEBEC	84	1.37	115.08		192	21	60	760632	20201122	3.29	20100913	2.99	713	1.258
1070202502	TORONTO	1608	2.705	4349.64		1286	593	648	760594	20201119	6.15	20200224	6.49	3143	2.447
1070205303	OTTAWA	780	1.199	935.22		674	287	672	761086	20201206	3.09	20101025	2.79	7056	1.098
1070319208	OTTAWA	280	1.847	517.16		299	75	240	760973	20201204	3.25	20200213	2.99	1149	1.668
1070319303	OTTAWA	10	3.76	37.6		83	0	200	760595	20201119	7.99	20200116	7.15	122	3.651
1070401508	QUEBEC	144	2.91	419.04		215	83	180	760466	20201108	7.69	20201006	6.95	277	2.66
1070402008	TORONTO	84	3.417	287.028		142	0	108	760750	20201130	8.69	20101204	7.99	1023	3.21
1070406007	QUEBEC	24	2.14	51.36		219	0	2160	760467	20201108	4.59	20200607	4.99	15629	1.986
1070501007	OTTAWA	228	0.64	145.92		257	104	108	760752	20201130	1.69	20200611	1.49	1896	0.59
1070515508	OTTAWA	204	0.58	118.32		363	132	216	760974	20201204	1.35	20200316	1.19	8077	0.58
1070541005	QUEBEC	360	3.874	1394.64		288	44	240	761087	20201206	7.69	20100916	6.99	1052	3.61
1070588100	TORONTO	402	1.34	538.68		400	60	780	760633	20201122	3.25	20200128	2.89	4744	1.328
1070588406	OTTAWA	660	0.31	204.6		553	277	864	760428	20201101	0.95	20200430	0.85	1589	0.29
1070588501	TORONTO	150	1.01	151.5		270	135	144	760634	20201122	2.99	20200828	2.69	1639	1.008
1070602009	OTTAWA	36	0.91	32.76		80	40	204	760514	20201113	2.05	20201210	1.85	2606	0.896
1070801207	LONDON	900	0.94	846		400	200	500	761088	20201206	3.15	20201001	2.85	800	0.882
1070801503	OTTAWA	336	2.42	813.12		294	147	576	760635	20201122	6.25	20200708	5.89	1261	2.355
1110301509	QUEBEC	616	0.61	375.76		518	234	672	760829	20201202	1.95	20100926	0	0	0.777
1110701009	OTTAWA	636	0.622	395.592		684	242	348	760975	20201204	1.99	20201104	1.79	0	0.613
1110701506	QUEBEC	372	0.861	320.292		448	199	168	760976	20201204	2.79	20100908	2.59	0	0.846
1110906008	QUEBEC	216	1.019	220.104		373	161	168	760916	20201203	4.49	20201017	3.95	2445	0.945
1110906505	QUEBEC	264	1.412	372.768		211	56	372	760515	20201113	3.49	20100925	2.89	15376	1.389
1111104502	QUEBEC	0	1.119	0		175	63	576	760164	20200528	2.69	20201019	2.49	8075	1.055
1112110003	TORONTO	96	1.07	102.72		102	0	128	760977	20201204	4.49	20201114	4.19	0	1.06
1112110701	OTTAWA	46	3.21	147.66		262	31	36	760978	20201204	9.69	20200322	8.99	0	3.18
1112111009	TORONTO	114	3.281	374.034		91	46	132	760979	20201204	10.99	20200205	10.15	0	3.25
1112122500	TORONTO	360	0.48	172.8		388	144	360	761038	20201205	1.29	20201104	0.99	796	0.45
1112123507	QUEBEC	150	1.125	168.75		120	0	156	761039	20201205	3.19	20200704	2.99	917	1.099
1112138009	OTTAWA	360	1.536	552.96		338	144	288	760917	20201203	4.19	20201002	3.79	5149	1.388
1112320009	TORONTO	186	2.668	496.248		299	99	240	761040	20201205	6.49	20100828	5.49	2611	2.398
1112503650	QUEBEC	1776	0.491	872.016		1446	698	816	760626	20201121	1.29	20101220	0.99	14737	0.483
1112503859	TORONTO	696	0.904	629.184		782	291	480	760918	20201203	2.49	20200603	1.95	14596	0.823
1112520902	TORONTO	360	2.96	1065.6		313	57	576	760477	20201108	7.49	20201015	0	721	2.96
1112522304	QUEBEC	570	0.481	274.17		581	191	480	761041	20201205	1.35	20101111	1.25	675	0.46
1112522801	QUEBEC	348	1.05	365.4		303	152	576	760643	20201124	2.69	20200718	2.59	1272	0.995
1120101501	TORONTO	1300	1.545	2008.5		1090	445	780	760754	20201130	3.49	20100905	2.79	704	1.364
1120303001	OTTAWA	610	0.623	380.03		663	282	700	760980	20201204	1.89	20200805	1.35	1134	0.584
1120304009	QUEBEC	330	0.624	205.92		389	145	300	760981	20201204	1.89	20200513	1.75	1758	0.593
1120314003	QUEBEC	42	2.03	85.26		184	17	120	760596	20201119	4.99	20200305	4.35	693	2.007
1130104602	QUEBEC	204	0.76	155.04		313	157	480	760392	20201019	1.99	20201022	1.89	1657	0.72
1130302505	OTTAWA	102	0.92	93.84		207	103	336	760404	20201025	2.25	20101226	0	1394	0.92
1130310609	OTTAWA	360	0.92	331.2		313	132	144	760700	20201128	2.25	20200812	0	186	0.92
1130311703	TORONTO	156	0.92	143.52		175	0	144	760701	20201128	2.25	20200710	0	2573	0.92
1130312709	OTTAWA	222	1.7	377.4		203	26	180	760919	20201203	4.49	20101231	4.15	2240	1.7
1130312806	OTTAWA	426	1.7	724.2		566	233	504	760920	20201203	4.49	20201014	4.15	6780	1.7
1130352009	OTTAWA	126	1.86	234.36		176	0	120	760702	20201128	4.19	20100907	3.69	5490	1.688
1130360201	OTTAWA	192	1.688	324.096		279	114	288	760439	20201104	4.19	20201002	3.69	6952	1.688
1130370809	QUEBEC	120	1.7	204		121	0	252	760558	20201117	4.49	20201007	0	0	1.7
1130370904	OTTAWA	108	1.7	183.6		286	43	84	760921	20201203	4.49	20200803	0	0	1.7
1130371002	QUEBEC	420	1.7	714		511	156	384	760440	20201104	4.49	20200628	0	0	1.7
1130371108	QUEBEC	324	1.7	550.8		484	192	384	760478	20201108	4.49	20200429	0	0	1.7
1130371309	QUEBEC	180	2.386	429.48		144	22	192	760703	20201128	5.49	20200121	0	9689	2.27
1130371500	OTTAWA	264	2.294	605.616		261	81	192	760922	20201203	5.49	20201112	0	8820	2.27
1130371709	OTTAWA	72	2.252	162.144		133	66	384	760283	20200830	5.49	20200726	0	9348	2.27
1130701006	OTTAWA	924	0.46	425.04		939	420	360	860313	20200311	1.65	20200301	1.39	1822	0.46
1130702109	QUEBEC	132	0.841	111.012		331	115	384	760405	20201025	1.89	20200629	1.75	27129	0.76
1130704008	OTTAWA	576	0.48	276.48		586	293	336	860316	20200311	1.19	20200414	0.99	5562	0.47
1131111206	QUEBEC	580	6.537	3791.46		589	270	624	760319	20200917	16.49	20101224	14.99	150	6.677
1312112000	OTTAWA	951	74.191	70555.641		986	443	189	760400	20201025	99.95	20100907	0	3928	72.92
1313120500	OTTAWA	1723	33.937	58473.451		1378	639	540	760401	20201025	49.95	20100828	0	1786	36.44
1318202008	OTTAWA	1370	5.19	7110.3		1246	598	30	760022	20081230	9.95	20200506	0	7461	5.19
1318211407	QUEBEC	780	1.312	1023.36		674	337	880	760042	20200129	2.49	20201201	2.99	5029	1.472
1319019405	OTTAWA	440	0.72	316.8		452	226	900	760036	20200120	1.59	20100828	0	740	0.721
1319019606	QUEBEC	460	0.72	331.2		543	197	600	760038	20200120	1.59	20201227	0	2767	0.722
1320102882	QUEBEC	202	10.329	2086.458		337	68	84	760035	20200111	17.49	20200226	16.95	1907	10.43
1320200103	OTTAWA	2182	17.026	37150.732		1871	835	2196	760402	20201025	24.95	20200716	27.95	8256	17.932
1410103609	QUEBEC	145	0.47	68.15		141	21	75	760982	20201204	0.99	20201230	0	2659	0.451
1412009508	TORONTO	204	1.922	392.088		213	7	168	760425	20201029	4.49	20201123	3.99	1038	1.8
1415102501	QUEBEC	35	10.783	377.405		178	0	120	760456	20201107	21.99	20200521	19.95	984	10.23
1415104305	QUEBEC	27	10.334	279.018		197	48	54	760284	20200901	21.99	20100921	0	665	9.85
1415106003	TORONTO	18	10.283	185.094		39	20	33	760367	20201008	21.99	20200103	0	202	9.85
1415392209	QUEBEC	130	4.614	599.82		304	152	310	760457	20201107	9.49	20200103	8.95	119	4.327
1415398700	OTTAWA	210	1.908	400.68		268	134	320	760458	20201107	3.99	20200809	0	500	1.76
1415400104	TORONTO	65	7	455		77	0	450	760407	20201025	16.99	20101208	15.95	1691	7
1415801001	TORONTO	210	2.075	435.75		318	84	108	760627	20201121	4.99	20200108	3.99	121	1.996
1416401506	OTTAWA	27	16.158	436.266		97	23	14	760983	20201204	37.99	20200526	34.95	33	14.893
1421104001	OTTAWA	560	0.402	225.12		448	224	960	760678	20201126	1.05	20200205	0.95	4720	0.383
1421122302	OTTAWA	240	0.157	37.68		242	121	360	760572	20201118	0.32	20200813	0.35	262	0.13
1421123606	QUEBEC	96	0.59	56.64	Y	202	76	144	760074	20200302	1.35	20200226	1.19	298	0.483
1421123902	TORONTO	270	0.54	145.8		416	183	240	760984	20201204	1.35	20200428	1.19	350	0.54
1421123953	QUEBEC	198	0.99	196.02		283	92	360	760408	20201025	2.45	20101016	2.15	1706	0.99
1421124307	QUEBEC	288	0.99	285.12		330	140	144	760985	20201204	2.45	20200828	2.15	2110	0.99
1421201006	TORONTO	640	0.111	71.04		662	306	300	760831	20201202	0.3	20100908	0.35	2637	0.106
1421202003	QUEBEC	620	0.196	121.52		646	248	800	760679	20201126	0.52	20200314	0.65	708	0.185
1421221407	QUEBEC	492	0.045	22.14	Y	494	247	540	760244	20200727	0.17	20100904	0.14	1114	0.045
1421221809	OTTAWA	624	0.109	68.016		699	250	360	760986	20201204	0.22	20101109	0.19	1031	0.092
1421223209	OTTAWA	282	0.348	98.136		351	75	150	760987	20201204	0.79	20200513	0.75	1942	0.309
1421223507	OTTAWA	366	0.583	213.378		343	171	288	760468	20201108	1.29	20201015	1.15	1863	0.52
1422101500	TORONTO	1540	0.775	1193.5		1307	579	1280	760095	20200321	1.99	20201127	1.69	7199	0.757
1423112007	QUEBEC	684	0.337	230.508		547	199	216	760274	20200822	0.99	20200607	0.59	4257	0.259
1430205503	QUEBEC	250	11.13	2782.5		250	75	260	760214	20200713	21.99	20101028	20.99	780	10.296
1430406006	TORONTO	93	10.88	1011.84		74	0	144	760273	20200821	19.99	20101230	17.99	59	9.812
1430500305	TORONTO	197	4.76	937.72		358	179	180	760293	20200908	9.95	20200202	8.95	452	4.394
1433212705	QUEBEC	28	13.31	372.68		197	49	8	760044	20200129	29.95	20201206	27.5	2	12.92
1440110509	QUEBEC	280	1.325	371		374	87	240	760833	20201202	2.99	20200511	2.89	82	1.223
1440306902	OTTAWA	80	5.885	470.8		264	107	48	760835	20201202	13.99	20200603	12.75	1160	5.326
1440512001	OTTAWA	4	9.74	38.96		78	0	70	760114	20200406	21.99	20201030	19.95	291	9.74
1442118502	QUEBEC	192	0.578	110.976		329	89	576	760461	20201108	1.59	20200722	1.49	1653	0.578
1442120001	OTTAWA	468	0.374	175.032		524	237	288	760923	20201203	1.09	20200731	0.99	3881	0.375
1446102008	QUEBEC	30	2.689	80.67		224	62	20	760766	20201202	6.49	20200910	5.95	294	2.514
1450163105	OTTAWA	210	2.6	546		368	184	280	760768	20201202	5.75	20100909	4.95	899	2.6
1460223010	QUEBEC	408	0.972	396.576		326	138	1344	760333	20200922	2.39	20200121	2.25	575	0.972
1460224017	QUEBEC	456	1.092	497.952		590	195	648	760373	20201010	2.79	20101206	2.65	4644	1.092
1480100107	QUEBEC	0	6	0		175	88	48	760263	20200810	12.95	20200831	0	16	5.46
1480300100	QUEBEC	126	0.825	103.95		176	63	216	760311	20200915	1.65	20200823	0	25	0.72
1480400106	OTTAWA	192	1.691	324.672		154	52	504	760258	20200807	3.95	20101218	0	879	1.56
1611113208	QUEBEC	1026	1.485	1523.61		896	423	1440	760134	20200421	3.49	20200520	2.89	931	1.43
1611119009	OTTAWA	420	0.892	374.64		336	118	360	760924	20201203	2.15	20100909	1.99	4155	0.906
1612700509	QUEBEC	1164	1.017	1183.788		1081	491	480	760559	20201117	2.45	20101228	0	9798	0.956
1612702006	OTTAWA	304	1.081	328.624		318	84	176	760836	20201202	2.59	20200317	2.29	3474	1.014
1612802500	QUEBEC	104	10.732	1116.128		183	17	42	760837	20201202	25.45	20200907	23.95	330	10.752
1612805205	TORONTO	2544	3.098	7881.312		2185	993	2160	760403	20201025	6.99	20200701	5.99	2250	3.032
1612833413	QUEBEC	348	3.055	1063.14		353	102	320	760498	20201113	6.49	20200621	5.99	5836	2.768
1616111609	QUEBEC	60	0.51	30.6		248	124	120	760563	20201117	1.35	20200123	0	4340	0.54
1620104508	TORONTO	1560	4.206	6561.36		1473	737	1728	760838	20201202	9.49	20200102	8.75	912	4.206
1620108018	TORONTO	840	0.915	768.6		822	361	1980	760297	20200911	2.59	20101025	0	7936	0.915
1620113801	OTTAWA	216	1.23	265.68		398	99	132	760770	20201202	2.99	20200519	2.49	11199	1.16
1621101123	TORONTO	576	2.076	1195.776		486	143	576	760839	20201202	4.75	20101215	4.45	691	1.94
1621102506	QUEBEC	140	6.41	897.4		187	69	118	760723	20201129	14.95	20201124	13.95	665	6.41
1621104109	QUEBEC	348	2.206	767.688		428	214	336	760282	20200828	5.29	20201108	4.95	79	1.986
1622100504	QUEBEC	432	0.549	237.168		471	160	540	760499	20201113	1.39	20200420	1.19	5653	0.515
1622101615	OTTAWA	924	1.05	970.2		839	370	1008	760252	20200731	2.25	20200411	2.09	306	0.968
1623225001	QUEBEC	408	2.794	1139.952		326	138	264	705108	20081124	5.75	20101012	5.45	4676	2.529
1624106169	QUEBEC	504	0.818	412.272		478	189	216	760607	20201121	1.99	20200420	0.99	0	0.818
1625103809	TORONTO	648	2.069	1340.712		643	322	432	760500	20201113	4.49	20200413	3.95	1677	1.929
1626109117	OTTAWA	300	1.344	403.2		290	95	372	760501	20201113	2.99	20200911	2.69	4670	1.283
1626124302	TORONTO	252	1.951	491.652		427	113	216	760502	20201113	4.75	20200609	4.45	5075	1.92
1626125003	TORONTO	540	0.785	423.9		632	241	360	760608	20201121	1.79	20101206	1.69	922	0.737
1626203006	QUEBEC	1824	0.804	1466.496		1509	680	504	760840	20201202	1.99	20200211	1.69	7043	0.727
1635560001	OTTAWA	108	0.778	84.024		136	18	120	760628	20201121	1.75	20200401	1.55	4	0.76
1650112010	QUEBEC	324	0.966	312.984		484	217	228	760644	20201124	2.39	20101029	2.29	2654	0.903
1650124019	TORONTO	297	1.16	344.52		288	94	216	760531	20201115	2.29	20201009	2.15	197	1.027
1650130014	QUEBEC	43	2.11	90.73	Y	184	42	50	760162	20200519	5.45	20200429	4.95	477	2.11
1650138012	QUEBEC	168	0.574	96.432		359	180	480	760272	20200816	1.39	20200718	1.29	5699	0.58
1710684014	OTTAWA	90	0.38	34.2		172	61	60	760925	20201203	1.09	20200525	0	1427	0.369
1710686516	TORONTO	50	0.27	13.5		165	0	60	760926	20201203	1.09	20200825	0	391	0.333
1710815309	OTTAWA	80	1.022	81.76		289	145	20	760927	20201203	2.79	20200416	2.59	1307	1.022
1710825506	QUEBEC	270	0.379	102.33		241	96	180	760988	20201204	1.09	20101110	0.99	3986	0.419
1710826006	QUEBEC	380	0.596	226.48		404	152	150	760989	20201204	1.65	20101113	1.59	4563	0.677
1710829008	OTTAWA	85	2.234	189.89		143	47	50	760990	20201204	5.45	20200310	4.95	64	2.03
1710833802	OTTAWA	50	0.739	36.95		165	0	120	760521	20201114	1.89	20200819	1.75	1135	0.68
1710834800	QUEBEC	220	0.692	152.24		351	76	150	760991	20201204	1.79	20200804	1.75	2713	0.62
1710857007	QUEBEC	70	1.21	84.7		81	0	60	760992	20201204	2.95	20201001	2.65	148	1.13
1710857504	QUEBEC	120	1.74	208.8		196	73	240	760409	20201025	4.79	20201128	4.29	561	1.62
1710857705	TORONTO	35	5.205	182.175		103	27	20	760725	20201129	12.45	20201110	11.5	49	4.68
1711401828	QUEBEC	0	0.556	0	Y	125	13	20	760704	20201128	1.49	20200204	0	687	0.54
1712223509	QUEBEC	252	1.816	457.632		327	138	240	760928	20201203	3.59	20200719	3.25	2020	1.754
1720108900	TORONTO	20	0.635	12.7		116	8	120	760780	20201202	1.95	20101112	1.75	661	0.677
1720201814	QUEBEC	36	0.844	30.384		104	2	36	761042	20201205	2.35	20101017	0	206	0.81
1720160113	QUEBEC	36	0.849	30.564		129	0	36	760645	20201124	2.35	20200331	0	537	0.81
1720162213	OTTAWA	70	0.97	67.9		256	53	80	760479	20201108	2.35	20201215	0	589	0.92
1720162719	TORONTO	54	1.422	76.788		168	59	24	760336	20200927	3.25	20101119	0	0	1.36
1720164104	OTTAWA	25	1.813	45.325		145	48	35	760332	20200921	4.49	20100824	4.25	109	1.761
1720164409	TORONTO	75	1.84	138		235	18	35	760929	20201203	4.49	20200226	4.25	42	1.789
1720164802	OTTAWA	24	4.788	114.912		169	85	20	760930	20201203	11.95	20200125	10.95	32	4.628
1720520618	TORONTO	180	1.06	190.8		319	135	160	760646	20201124	2.99	20100906	0	685	1.06
1720534611	TORONTO	60	0.49	29.4		98	0	60	761043	20201205	1.25	20200711	0	1543	0.49
1720538219	QUEBEC	132	0.84	110.88		206	28	96	761044	20201205	2.35	20100924	0	372	0.84
1721611723	OTTAWA	180	0.327	58.86		244	122	50	760841	20201202	1.09	20200117	0.99	381	0.329
1721611731	QUEBEC	240	0.36	86.4		317	134	120	760705	20201128	1.19	20101020	1.09	3281	0.356
1721611924	QUEBEC	240	0.312	74.88		242	71	250	760706	20201128	1.09	20101114	0.99	3648	0.3
1721612416	OTTAWA	270	0.327	88.29		241	71	50	760842	20201202	1.09	20101005	0.99	1939	0.313
1721612503	QUEBEC	400	0.327	130.8		520	235	60	760843	20201202	1.09	20100823	0.99	4549	0.314
1721616005	TORONTO	80	0.519	41.52		289	95	120	760844	20201202	1.65	20200621	1.49	1923	0.494
1721617203	OTTAWA	40	0.487	19.48		132	66	50	760845	20201202	1.35	20101111	1.29	8241	0.475
1721661115	OTTAWA	162	0.8	129.6		155	2	60	761045	20201205	2.89	20200628	0	0	0.8
1721661316	QUEBEC	54	0.8	43.2		43	22	48	760647	20201124	2.89	20200422	0	35	0.8
1721680300	QUEBEC	140	4.995	699.3		187	69	60	761046	20201205	11.95	20101005	10.75	0	5.34
1721680701	QUEBEC	260	4.995	1298.7		408	129	120	761047	20201205	11.95	20200419	10.75	417	5.34
1721682217	QUEBEC	90	0.677	60.93		272	61	80	760648	20201124	1.69	20201101	0	292	0.677
1722161167	OTTAWA	0	0.327	0	Y	125	13	50	760323	20200918	1.09	20201112	0.99	403	0.306
1725043909	QUEBEC	110	1.742	191.62		263	57	40	761048	20201205	4.99	20200823	0	671	1.859
1725403311	OTTAWA	160	1.194	191.04		178	39	80	761049	20201205	3.95	20200426	0	0	1.276
1725405202	OTTAWA	390	0.792	308.88		387	194	40	761050	20201205	2.5	20201106	0	4485	0.846
1725406009	TORONTO	430	1.275	548.25		519	210	80	761051	20201205	3.5	20200918	0	7	1.364
1725436108	QUEBEC	0	0.515	0	Y	50	0	500	760782	20201202	1.65	20200622	1.5	5255	0.667
1725479203	OTTAWA	150	0.953	142.95		345	148	200	760711	20201128	2.75	20100903	0	0	0.927
1725497504	TORONTO	80	7.98	638.4		89	0	70	760931	20201203	19.49	20200214	17.95	421	7.77
1725497705	LONDON	38	5.503	209.114		55	28	14	760932	20201203	13.49	20101206	11.95	63	4.989
1725831509	QUEBEC	30	5.507	165.21		249	125	18	761052	20201205	13.25	20201213	11.95	321	5.6
1725832506	QUEBEC	20	4.422	88.44		141	0	8	761053	20201205	10.75	20100928	9.75	188	4.45
1725833006	QUEBEC	28	4.21	117.88		222	111	12	761054	20201205	9.95	20200623	8.95	213	4.21
1725901205	QUEBEC	48	3.953	189.744		238	94	36	761055	20201205	10.29	20200607	0	602	4.225
1725902001	TORONTO	50	1.492	74.6		90	0	50	760597	20201119	5.29	20200323	0	116	1.594
1725902202	TORONTO	52	1.699	88.348		42	0	24	761056	20201205	5.79	20201222	0	180	1.815
1725903601	TORONTO	75	2.379	178.425		110	0	80	760784	20201202	7.95	20101231	0	377	2.536
1725904408	QUEBEC	256	3.064	784.384		205	27	180	761057	20201205	9.29	20200124	0	3186	3.275
1725905509	QUEBEC	56	3.4	190.4		195	0	36	761058	20201205	10.29	20200607	0	400	3.4
1725908109	TORONTO	175	0.529	92.575		215	108	60	761059	20201205	1.89	20200528	0	127	0.566
1725908407	QUEBEC	210	2.763	580.23		393	172	160	760786	20201202	8.95	20101018	0	1712	2.953
1725909108	TORONTO	230	1.285	295.55		409	155	180	760788	20201202	2.95	20201003	0	415	1.374
1725909309	OTTAWA	50	1.242	62.1		215	8	60	761062	20201205	4.29	20201120	0	1335	1.326
1725910107	OTTAWA	30	0.798	23.94		99	50	80	760526	20201114	2.59	20101020	0	966	0.852
1725910308	QUEBEC	20	0	0		41	0	80	760790	20201202	2.79	20101124	0	156	1.068
1725911104	OTTAWA	16	5.662	90.592		138	44	12	761063	20201205	13.95	20201013	0	748	6.05
1725911707	OTTAWA	72	9.039	650.808		83	0	84	760792	20201202	18.49	20200709	0	134	9.66
1725913109	OTTAWA	130	0.442	57.46		129	0	90	761064	20201205	1.25	20200108	0	361	0.472
1725913405	TORONTO	100	0.477	47.7		205	28	155	760377	20201013	1.49	20200109	0	3795	0.508
1725915209	OTTAWA	115	0.854	98.21		117	9	25	761065	20201205	2.49	20200619	0	952	0.912
1725915801	QUEBEC	30	0.854	25.62		174	12	75	760794	20201202	2.49	20200223	0	510	0.912
1725915907	QUEBEC	105	0.854	89.67		259	105	75	760527	20201114	2.49	20200428	0	97	0.912
1725916407	OTTAWA	20	0.567	11.34		41	0	225	760598	20201119	1.75	20200307	0	21	0.606
1725917944	TORONTO	68	4.154	282.472		54	27	60	760599	20201119	10.95	20200519	0	823	4.44
1730610203	QUEBEC	300	1.925	577.5		465	183	225	761066	20201205	4.25	20200401	3.99	790	1.896
1730615009	QUEBEC	65	2.843	184.795		152	51	60	761067	20201205	6.49	20200314	5.95	1279	2.824
1730616006	QUEBEC	180	1.174	211.32		269	35	150	761068	20201205	2.85	20200924	2.69	861	1.199
1730623009	OTTAWA	135	3.281	442.935		233	42	40	761069	20201205	6.95	20200724	6.45	2765	3.271
1730624006	QUEBEC	140	3.901	546.14		187	94	60	760772	20201202	7.95	20101022	6.95	521	3.891
1730629002	OTTAWA	85	9.999	849.915		118	9	35	761070	20201205	21.95	20200609	19.95	553	9.957
1730630001	QUEBEC	85	3.614	307.19		118	34	45	761071	20201205	7.79	20201009	7.25	9	3.572
1730642009	OTTAWA	150	2.082	312.3		170	35	180	760774	20201202	4.79	20200507	4.69	1939	2.084
1730691416	TORONTO	162	5.792	938.304		330	165	180	760528	20201114	13.79	20200705	11.95	547	5.287
1730695415	OTTAWA	90	4.924	443.16		122	0	180	760529	20201114	11.59	20200626	10.35	1126	4.429
1730696709	TORONTO	102	3.029	308.958		232	0	372	760378	20201013	6.99	20201024	6.29	920	2.685
1730714400	OTTAWA	90	3.406	306.54		222	111	60	761072	20201205	7.99	20200729	7.65	119	3.262
1730718809	QUEBEC	171	14.129	2416.059		212	31	150	266	20201005	24.95	20200802	33.95	4219	14.129
1730719100	QUEBEC	26	11.99	311.74		246	73	24	761073	20201205	28.95	20200327	27.95	229	11.746
1730719309	TORONTO	24	13.142	315.408		44	22	8	761074	20201205	31.89	20201108	30.75	329	12.489
1730721009	QUEBEC	35	5.051	176.785		103	52	30	760434	20201102	12.29	20200501	11.95	602	5.007
1730723005	TORONTO	39	11.592	452.088		256	28	20	761075	20201205	25.95	20101225	25.49	10	11.587
1730723407	OTTAWA	29	14.425	418.325		73	12	20	761076	20201205	35.95	20200826	33.95	139	14.042
1730723904	TORONTO	14	21.907	306.698		236	18	40	760483	20201109	49.95	20200903	48.5	295	21.588
1730730400	QUEBEC	42	1.539	64.638		209	54	72	760776	20201202	3.59	20200824	3.29	266	1.321
1730733209	TORONTO	80	7.838	627.04		264	107	60	760532	20201115	18.95	20200827	17.95	1264	6.758
1730733602	QUEBEC	0	4.729	0		100	0	36	760656	20201124	11.99	20200329	10.75	1719	4.103
1730734007	QUEBEC	86	16.407	1411.002		194	97	120	760435	20201102	34.95	20201224	37.95	535	14.608
1730820018	TORONTO	140	1.394	195.16		112	6	100	761077	20201205	3.39	20200102	3.29	814	1.33
1730820042	QUEBEC	195	2.334	455.13		381	166	150	760778	20201202	5.69	20100928	5.49	1768	2.22
1730882115	OTTAWA	220	0.531	116.82		201	1	360	760933	20201203	1.95	20101027	0	1316	0.522
1731265218	OTTAWA	49	10.131	496.419		64	7	24	761078	20201205	19.49	20200118	16.95	112	8.697
1731265419	QUEBEC	180	4.839	871.02		194	72	180	760600	20201119	8.49	20200515	7.89	831	4.239
1731610407	TORONTO	104	7.67	797.68		133	67	48	760993	20201204	15.95	20201212	14.75	530	7.34
1731618003	QUEBEC	3420	2.6	8892		2861	1331	5120	760727	20201129	3.99	20200124	3.49	129306	0
1740201405	QUEBEC	11	13.757	151.327		184	67	12	760323	20200918	62.4	20201103	54	142	12.834
1740204206	OTTAWA	132	1.421	187.572		306	78	96	760934	20201203	3.09	20200730	3.99	1244	1.346
1740210402	QUEBEC	60	0	0		273	137	80	760363	20201005	1.09	20101028	0.99	728	0.356
1740210508	TORONTO	190	0.376	71.44		352	101	240	760508	20201113	1.09	20101219	0.99	341	0.359
1740407000	QUEBEC	30	0.391	11.73		49	0	160	760379	20201013	1.19	20200723	1.09	924	0.344
1750430905	QUEBEC	190	0.971	184.49		152	0	120	760729	20201129	2.25	20201211	0	778	0.915
1750431405	OTTAWA	215	0.8	172		322	136	100	760730	20201129	1.99	20200807	1.79	602	0.718
1750431606	OTTAWA	30	0.391	11.73		249	125	200	760649	20201124	0.99	20200215	0.85	281	0.34
1750432106	OTTAWA	170	0.3	51		286	143	360	760650	20201124	0.75	20200720	0.65	282	0.269
1750432201	OTTAWA	0	0.42	0		75	0	210	703755	20080223	1.15	20200522	0	0	0
1760111009	QUEBEC	60	1.402	84.12		248	74	80	760935	20201203	3.99	20101222	0	3380	1.524
1780217503	QUEBEC	100	0.884	88.4		305	53	320	760651	20201124	1.99	20200405	1.79	1730	0.819
1790501508	TORONTO	60	0.521	31.26		273	87	108	760680	20201126	0.99	20101222	1.09	2147	0.525
1790501709	QUEBEC	0	0.524	0		25	0	108	760492	20201111	0.99	20201207	1.09	2710	0.525
1790502008	QUEBEC	120	0.514	61.68		221	11	108	760681	20201126	0.99	20201215	1.25	669	0.525
1810101007	OTTAWA	120	1.495	179.4		96	48	20	761121	20201217	3.75	20101128	3.25	276	1.497
1810105905	QUEBEC	10	0.897	8.97	Y	108	29	480	761089	20201206	1.95	20201012	1.75	1578	0.805
1890107401	TORONTO	10800	1.35	14580		12000	1000	600	704498	20081112	1.99	20200206	0	50463	1.35
1890107602	OTTAWA	7360	1.35	9936		6000	3000	200	705179	20081205	1.99	20200330	0	24937	1.35
1930410107	QUEBEC	0	0.604	0		175	88	1368	704284	20080525	0.49	20200128	0.99	0	0.38
1930619000	QUEBEC	0	0.67	0		50	0	1440	704491	20081018	0.79	20100916	1.59	0	0.63
1930620305	TORONTO	0	0.72	0		50	0	648	704492	20081018	0.89	20201212	1.79	84	0.7
1930903402	OTTAWA	0	8.7	0		25	0	81	704493	20081102	9.99	20200520	19.99	0	9.2
1933300707	OTTAWA	0	0.4	0		125	13	528	760312	20200915	0.49	20201116	0.99	0	0.4
1940100158	QUEBEC	0	6.378	0		100	25	882	760282	20200828	4.97	20200507	9.95	0	6
1950100809	OTTAWA	0	0.56	0		25	0	1280	760260	20200807	0.58	20101129	1.15	0	0.56
1950101002	TORONTO	0	0.455	0		175	88	4632	760282	20200828	0.47	20200905	0.95	0	0.455
1950102909	QUEBEC	0	0.75	0		125	63	1152	760255	20200804	0.73	20200327	1.45	0	0.75
2260100702	TORONTO	564	5.73	3231.72		451	151	400	760731	20201129	9.29	20200130	8.99	6026	5.652
2260394007	OTTAWA	24	0.34	8.16	Y	19	0	108	760294	20200908	0.95	20201113	0	830	0.34
2270610004	QUEBEC	612	2.48	1517.76		690	245	480	760636	20201122	5.95	20200831	5.29	4418	2.981
2270905109	OTTAWA	2172	0.728	1581.216		1738	794	696	760936	20201203	1.39	20200225	1.29	5425	0.75
2272300101	TORONTO	1384	2.324	3216.416		1282	641	1248	760937	20201203	4.79	20200510	3.99	22097	2.605
2272303505	OTTAWA	2148	0.56	1202.88		1793	897	1152	760732	20201129	1.99	20200326	1.59	532	0.519
2429000515	OTTAWA	0	1.935	0		25	13	320	760064	20200228	4.75	20200911	0	0	0
2429003001	QUEBEC	260	1.77	460.2		333	67	180	760846	20201202	4.15	20200201	4.45	0	0
2429005511	QUEBEC	0	0.495	0		50	25	480	760103	20200402	1.19	20101122	0	0	0
2429008810	QUEBEC	0	1.16	0		0	0	768	760125	20200415	1.75	20201208	2.69	0	0
2910608500	OTTAWA	0	27.475	0		225	88	190	704276	20080514	50.99	20101107	46.95	662	26.4
2910623809	QUEBEC	45	29.52	1328.4		136	0	40	760652	20201124	59.88	20200103	54.59	68	28.39
2920601206	QUEBEC	712	3.549	2526.888		570	210	288	760205	20200706	7.49	20200512	6.99	11933	3.549
2970101604	QUEBEC	720	0.947	681.84		601	301	240	760355	20201004	2.99	20101016	2.85	1698	0.965
2970101805	QUEBEC	300	0.634	190.2		315	133	140	760653	20201124	2.25	20101010	2.15	4986	0.604
2970102908	QUEBEC	360	1.125	405		363	107	50	760756	20201130	2.85	20200119	2.75	1916	1.128
3010241505	OTTAWA	170	0.563	95.71		211	56	140	760426	20201029	1.69	20101220	0	817	0.563
3011004509	TORONTO	276	8.52	2351.52		221	35	70	760938	20201203	18.95	20101216	16.95	1580	9.66
3011501001	QUEBEC	160	0.94	150.4		153	2	60	760994	20201204	2.59	20200609	0	2478	0.9
3011509000	OTTAWA	70	1.119	78.33		206	53	50	760573	20201118	2.59	20200916	0	1279	1.04
3011513009	QUEBEC	60	0.997	59.82		248	99	190	760574	20201118	2.75	20200329	2.5	1421	0.91
3011515005	TORONTO	100	4.53	453		180	65	140	760637	20201122	9.65	20200102	10.75	2934	4.22
3011516500	OTTAWA	150	0.859	128.85		120	60	80	760995	20201204	1.75	20200305	2.25	486	0.8
3020200302	QUEBEC	19	3.247	61.693		40	0	24	760996	20201204	8.95	20200421	4.5	850	3.268
3020200704	QUEBEC	129	7.779	1003.491		178	64	89	760997	20201204	15.95	20101115	8.95	372	7.358
3030243000	QUEBEC	1090	0.28	305.2		1022	436	50	760847	20201202	1.05	20200322	0	252	0.32
3030243507	OTTAWA	480	0.325	156		584	267	800	760682	20201126	1.15	20200111	0	3003	0.37
3030245501	QUEBEC	200	0.757	151.4		360	155	50	760683	20201126	2.35	20200209	0	4669	0.86
3040301208	OTTAWA	120	0.945	113.4		146	48	30	760733	20201129	2.39	20200520	2.2	1594	0.922
3040301600	QUEBEC	90	1.41	126.9		197	99	40	760998	20201204	3.85	20200603	3.5	478	1.415
3040302406	QUEBEC	70	1.575	110.25		156	0	50	760999	20201204	3.85	20101011	3.5	417	1.489
3040302607	QUEBEC	10	1.938	19.38		33	0	20	761000	20201204	4.95	20200411	4.5	507	1.927
3040303604	TORONTO	80	2.011	160.88		164	82	40	760326	20200919	4.94	20100828	4.5	906	1.929
3040305207	TORONTO	20	2.005	40.1		41	0	20	760375	20201011	4.95	20100904	4.45	2755	1.927
3040306003	QUEBEC	100	1.946	194.6		230	115	100	761001	20201204	4.95	20200512	4.5	687	1.927
3040309608	TORONTO	310	1.099	340.69		473	187	480	760734	20201129	2.75	20100913	2.45	6490	1.068
3040310004	QUEBEC	50	2.034	101.7		115	58	70	760469	20201108	4.95	20201205	4.45	120	1.927
3040503702	TORONTO	40	1.537	61.48		232	16	20	760470	20201108	3.95	20201029	3.5	1043	1.531
3040505104	QUEBEC	90	1.846	166.14		222	86	70	761002	20201204	3.85	20200422	4.35	711	1.625
3040615000	QUEBEC	770	0.414	318.78		841	421	640	761003	20201204	1.29	20200104	1.15	9728	0.447
3040621407	QUEBEC	60	2.296	137.76		148	74	50	760376	20201011	7.95	20200103	7.15	249	2.496
3040622002	OTTAWA	50	1.52	76		240	70	30	761004	20201204	5.25	20200210	4.69	284	1.65
3040623209	OTTAWA	25	1.488	37.2		145	48	5	761005	20201204	4.75	20200326	3.85	513	1.562
3040624809	OTTAWA	110	0.696	76.56		88	44	100	760471	20201108	2.19	20200923	1.95	1932	0.742
3040907506	OTTAWA	15	3.031	45.465		62	0	48	760735	20201129	8.95	20200405	7.95	253	3.194
3050400909	TORONTO	5	1.92	9.6		179	0	250	760575	20201118	5.25	20201230	4.75	414	1.954
3060801006	TORONTO	135	2.412	325.62		283	92	135	760576	20201118	5.95	20200312	0	474	2.153
3060806500	OTTAWA	138	3.82	527.16		235	118	114	761006	20201204	8.95	20200804	0	241	3.455
3061902500	QUEBEC	0	1.45	0		150	0	320	705156	20081125	3.25	20200406	0	2182	1.463
3062001106	OTTAWA	1092	1.97	2151.24		999	424	768	761007	20201204	4.75	20200102	4.45	1047	2.206
3062006007	OTTAWA	375	7.44	2790		500	200	144	761008	20201204	16.95	20100902	19.95	3057	7.2
3121206003	QUEBEC	450	2.59	1165.5		585	218	200	760364	20201006	5.99	20200224	0	173	2.59
3121206300	QUEBEC	50	2.59	129.5		65	0	50	760577	20201118	5.99	20200618	0	218	2.59
3131300401	QUEBEC	0	9.16	0		75	0	16	760265	20200810	20.35	20101102	20.99	621	8.4
3131301208	QUEBEC	0	9.16	0		125	0	80	760306	20200914	20.35	20200329	20.49	0	8.4
3131301409	OTTAWA	0	11.34	0		175	0	80	760275	20200823	24.45	20200315	24.49	753	10.4
3131303403	QUEBEC	0	0.709	0		125	63	300	760277	20200823	1.75	20101119	1.65	1444	0.65
3131304009	QUEBEC	0	0.65	0		0	0	150	760320	20200917	1.75	20200311	1.65	3180	0.65
3140422307	OTTAWA	26	8.159	212.134		46	0	24	761009	20201204	21.99	20200121	20.15	1026	8.153
3140422508	QUEBEC	32	10.62	339.84		176	0	48	760736	20201129	27.99	20200924	27.65	289	10.62
3140423209	OTTAWA	52	13.76	715.52		92	0	44	760578	20201118	34.99	20200107	34.75	24	13.759
3140423400	QUEBEC	8	19.67	157.36		206	0	10	761010	20201204	49.99	20201018	50.25	33	19.652
3140423706	QUEBEC	20	1.958	39.16		191	46	120	760013	20081214	5.49	20200222	4.99	2118	1.957
3210152005	TORONTO	2583	0.147	379.701		2800	1000	3969	760412	20201026	0.39	20200522	0.35	12025	0.138
3220200505	OTTAWA	63	2.27	143.01		75	13	70	760737	20201129	3.29	20101113	3.11	665	1.7
3240120706	QUEBEC	130	1.263	164.19		179	40	150	760343	20200928	3.59	20100823	0	31	1.079
3250102409	QUEBEC	231	1.54	355.74		285	42	432	760564	20201117	2.95	20200724	2.75	3009	1.391
3250111808	OTTAWA	474	1.18	559.32		379	115	216	760713	20201128	2.95	20100907	2.65	962	1.317
3250136000	QUEBEC	324	1.12	362.88		334	92	264	760715	20201128	2.6	20201002	2.5	1071	1.105
3250149609	QUEBEC	198	0.71	140.58		358	104	144	760939	20201203	2.19	20200616	1.99	2173	0.71
3250149800	QUEBEC	264	1.45	382.8		261	106	264	760717	20201128	3.49	20200823	3.25	1368	1.513
3250170100	QUEBEC	570	1.72	980.4		531	216	54	760719	20201128	4.49	20101012	3.95	379	1.925
3250192008	QUEBEC	78	2.964	231.192		87	0	72	760629	20201121	7.55	20200501	6.99	447	3.703
3415507507	OTTAWA	3514	4.415	15514.31		2911	1431	1120	760657	20201124	10.99	20200715	9.99	3630	5
3416101011	OTTAWA	335	17.849	5979.415		268	109	800	760153	20200505	29.95	20101031	34.95	4913	17.849
3416403705	OTTAWA	11	128.436	1412.796		134	42	10	761079	20201205	249	20200319	0	181	121.8
3416403906	QUEBEC	986	22.661	22343.746		914	407	400	760472	20201108	44.99	20201124	0	573	21.48
3416405158	OTTAWA	14	27.58	386.12		61	0	14	760416	20201028	54.99	20200907	0	5057	27.58
3416406305	QUEBEC	2120	4.58	9709.6		1896	923	920	760940	20201203	8.99	20101107	0	37519	4.58
3416406557	QUEBEC	685	14.929	10226.365		573	187	100	760941	20201203	34.99	20201028	0	2966	14.92
3416502006	TORONTO	100	83.645	8364.5		280	140	111	760116	20200406	189	20200818	0	658	83.645
3421004669	OTTAWA	170	6.087	1034.79	Y	361	81	150	760316	20200917	14.95	20200313	0	2130	6.58
3421004766	OTTAWA	330	4.08	1346.4	Y	289	45	320	760317	20200917	8.95	20200525	0	6169	4.11
3422600157	QUEBEC	1584	0.628	994.752		1467	634	1080	760533	20201115	1.25	20200628	0	4571	0.59
3425017006	OTTAWA	240	0.382	91.68		192	0	300	760321	20200917	0.85	20200129	0.75	0	0.397
3425028008	QUEBEC	300	3.6	1080		290	120	648	760016	20081228	6.95	20201002	6.45	16815	3.6
3425030004	OTTAWA	5460	0.499	2724.54		4543	2272	3360	760043	20200202	0.95	20201020	0.89	16248	0.46
3431004455	OTTAWA	92	3.076	282.992		99	49	288	760313	20200915	5.25	20200509	0	125	2.7
3431006555	QUEBEC	810	1.999	1619.19		698	299	258	760658	20201124	3.99	20200614	0	657	2.1
3670300302	QUEBEC	69	8.499	586.431		230	0	60	761011	20201204	18.95	20201227	16.95	555	8.008
3730135000	QUEBEC	1368	2.11	2886.48		1294	600	216	760410	20201025	4.99	20200912	5.49	57	2.138
3740110008	QUEBEC	1900	1.02	1938		1570	685	1000	760942	20201203	2.75	20200329	2.45	8150	1.223
3810145801	OTTAWA	918	12.127	11132.586		859	330	576	760473	20201108	19.99	20200627	0	20	11.29
3810510003	TORONTO	51	44.557	2272.407		41	0	21	760484	20201109	95.99	20200911	84.95	263	42.514
3810512008	QUEBEC	110	14.967	1646.37		288	50	120	760485	20201109	27.99	20200321	24.95	699	14.28
3810700107	OTTAWA	99	13.5	1336.5		229	15	100	760943	20201203	26.99	20101105	24.95	0	0
3810915005	QUEBEC	119	10.327	1228.913		245	10	120	760545	20201115	14.95	20200814	21.95	0	0
3811300104	TORONTO	0	4.95	0		125	0	108	760455	20201106	10.99	20201224	9.95	992	4.95
3811313005	QUEBEC	45	2.75	123.75		261	81	150	760489	20201109	6.99	20200310	5.95	1337	2.817
3811355008	QUEBEC	4	126.54	506.16		53	27	12	760383	20201015	209	20101229	199	125	126.54
3811500107	TORONTO	5	4.364	21.82		79	0	800	760381	20201015	9.45	20200902	8.95	0	0
4110134001	QUEBEC	310	0.28	86.8		373	100	320	761122	20201217	0.69	20200828	0.65	582	0.242
4110182000	TORONTO	270	0.28	75.6		316	100	170	761123	20201217	0.79	20200314	0	33730	0.28
4110182156	TORONTO	310	0.38	117.8		448	100	140	761130	20201218	0.99	20100902	0	4397	0.38
4110182452	QUEBEC	250	0.65	162.5		400	200	225	761131	20201218	1.79	20200907	0	8283	0.65
4110182708	QUEBEC	650	0.33	214.5		745	373	400	761104	20201216	0.99	20100911	0	11650	0.33
4110182759	OTTAWA	300	0.69	207		440	195	252	761105	20201216	1.99	20101118	0	41496	0.69
4110301601	QUEBEC	468	0.95	444.6		374	187	576	761092	20201208	2.75	20200511	2.45	0	0.9
4120105707	OTTAWA	780	1.6	1248		649	300	936	761094	20201209	3.95	20200927	2.95	0	1.345
4120115342	QUEBEC	38	5.47	207.86		205	53	36	761106	20201216	11.99	20100823	0	97	5.04
4120118089	TORONTO	176	3.83	674.08		216	58	50	761120	20201217	9.99	20100829	8.56	159	3.63
4120200087	QUEBEC	156	1.9	296.4		175	12	12	761132	20201218	4.5	20200815	0	1697	1.76
4120200166	QUEBEC	16	6.16	98.56		138	19	96	761096	20201212	15.49	20200719	13.99	387	5.72
4120141304	QUEBEC	6	1.58	9.48		55	2	10	761101	20201214	4.45	20201217	4.95	7	1.85
4120148009	OTTAWA	30	4.36	130.8		124	0	147	761090	20201207	10.95	20201005	9.95	427	4.03
4120201002	TORONTO	24	3.47	83.28		194	97	66	761098	20201213	8.95	20201006	7.95	605	3.23
4120181207	QUEBEC	64	3.79	242.56		276	38	48	761102	20201214	7.95	20101021	6.95	324	3.49
4120181800	QUEBEC	44	4.42	194.48		185	68	72	761107	20201216	9.95	20201006	9.5	535	4.21
4120199514	QUEBEC	96	6.75	648		152	0	72	761108	20201216	15.99	20200315	0	67	6.75
4120438405	OTTAWA	84	7.39	620.76		267	0	64	761109	20201216	16.95	20100901	15.95	148	7.157
4120602506	QUEBEC	32	2.95	94.4		201	75	36	761133	20201218	6.95	20201121	6.45	658	2.95
4120700508	OTTAWA	58	6.95	403.1		146	73	48	761110	20201216	14.95	20101009	13.95	1469	6.493
4127501319	QUEBEC	12	11.7	140.4		210	80	9	761124	20201217	27.95	20200902	24.95	210	0
4127503313	OTTAWA	140	1.38	193.2		337	169	63	761111	20201216	3.45	20200203	0	1083	0
4127504110	QUEBEC	43	7.874	338.582		59	30	32	761125	20201217	17.95	20200719	0	236	0
4210105006	TORONTO	60	4.91	294.6		148	0	40	761112	20201216	11.99	20200821	10.99	129	4.376
4210115035	TORONTO	27	5.5	148.5		97	23	8	761134	20201218	9.99	20200402	10.99	231	4.59
4210125005	OTTAWA	63	2.87	180.81		125	0	45	761135	20201218	6.99	20200926	6.25	1214	2.61
4210125502	QUEBEC	87	2.87	249.69		195	72	45	761136	20201218	6.99	20200815	6.25	270	2.714
4210129004	OTTAWA	78	0.8	62.4		212	56	63	761137	20201218	1.75	20101019	1.45	791	0.637
4210133005	OTTAWA	15	1.55	23.25		112	56	36	761126	20201217	3.59	20101231	3.25	280	1.349
4210137745	QUEBEC	12	9.65	115.8		235	117	24	761127	20201217	23.95	20201208	22.95	307	8.531
4210403009	TORONTO	42	9.95	417.9		159	0	30	761093	20201209	22.95	20200904	0	107	8.9
4210403201	TORONTO	15	13.9	208.5		237	0	20	761113	20201216	29.95	20200525	0	59	13.9
4210405021	QUEBEC	54	8.95	483.3		118	59	60	761099	20201213	18.95	20200205	19.95	0	8.252
4210405030	QUEBEC	30	12.9	387		99	0	20	761139	20201218	26.95	20101111	0	1	10.9
4312003509	QUEBEC	314	7.169	2251.066		251	26	46	761012	20201204	10.99	20200324	10.29	2079	6.581
4312020009	OTTAWA	1	9.808	9.808		176	0	6	760363	20201005	14.75	20201109	0	90	9
4321023001	QUEBEC	0	3.02	0	Y	25	0	144	760357	20201003	6.95	20200415	5.95	866	3.013
4321024506	OTTAWA	0	1.97	0	Y	0	0	160	760546	20201115	4.95	20100912	4.25	1576	1.969
4321025503	QUEBEC	0	3.1	0		50	0	81	760490	20201109	6.95	20200506	5.95	1514	3.1
4321028008	TORONTO	0	3.29	0		25	0	94	760547	20201115	10.95	20200212	9.95	2354	3.29
4321040009	QUEBEC	33	2.43	80.19		51	26	54	760548	20201115	5.15	20100912	0	1436	2.43
4322006504	QUEBEC	186	0.369	68.634		249	24	90	760944	20201203	0.99	20200225	0.89	359	0.353
4322010008	OTTAWA	720	0.663	477.36		751	326	400	760945	20201203	1.55	20200518	0	892	0.663
4323011008	QUEBEC	90	3.417	307.53		222	86	100	760396	20201023	7.95	20200601	0	274	3.25
4323030000	QUEBEC	216	1	216		173	11	180	760565	20201117	2.99	20200830	2.89	892	0.89
4323040004	OTTAWA	92	3.298	303.416		149	0	200	760530	20201114	7.65	20101017	0	2741	3
4324010509	QUEBEC	84	0.426	35.784		67	0	180	760417	20201028	1.09	20201218	0.95	1975	0.413
4324035009	TORONTO	0	1.263	0		100	0	162	760278	20200823	2.95	20100919	0	540	1.17
4326008500	QUEBEC	642	0.467	299.814		589	0	108	760946	20201203	1.3	20201105	1.2	3977	0.484
4332005109	QUEBEC	90	2.572	231.48	Y	122	0	120	760522	20201114	4.99	20200113	5.99	682	2.572
4351001506	TORONTO	170	0.588	99.96		236	68	300	760436	20201102	1.55	20101212	1.75	2165	0.541
4351002006	QUEBEC	370	0.586	216.82		521	186	600	760354	20201003	1.55	20101106	1.75	1245	0.533
4351004009	TORONTO	580	0.81	469.8		589	195	450	760413	20201026	1.89	20200702	1.75	1464	0.81
4351004508	OTTAWA	340	0.754	256.36		347	99	1800	760285	20200901	1.89	20200726	1.75	4032	0.81
4358000804	TORONTO	123	2.3	282.9		98	0	90	760758	20201130	5.99	20200203	3.99	1089	2.3
4358002407	TORONTO	66	2.3	151.8		53	0	108	760369	20201009	4.99	20200812	4.95	186	2.3
4358003002	QUEBEC	75	2.3	172.5		110	30	54	760760	20201130	4.99	20200817	4.95	513	2.3
4359001201	QUEBEC	66	2.81	185.46		103	1	216	760398	20201023	6.45	20200621	0	671	2.81
4359001402	OTTAWA	258	2.81	724.98		231	41	108	760549	20201115	6.45	20200518	0	55	2.81
4361002209	QUEBEC	28	12	336		197	74	96	760437	20201102	27.95	20201019	25.95	675	12
4361004808	TORONTO	165	3.465	571.725		232	66	72	760947	20201203	8.99	20201127	7.95	2585	3.194
4510105006	QUEBEC	70	3.79	265.3		90	30	48	761103	20201214	7.95	20101021	6.95	324	3.49
4510115035	QUEBEC	60	4.42	265.2		185	68	72	761114	20201216	9.95	20201006	9.5	535	4.21
4510125005	QUEBEC	-2	6.75	-13.5		40	0	72	761115	20201216	15.99	20200315	0	67	6.75
4510125502	OTTAWA	90	7.39	665.1		260	0	64	761116	20201216	16.95	20100901	15.95	148	7.157
4510129004	QUEBEC	40	2.95	118		200	75	36	761140	20201218	6.95	20201121	6.45	658	2.95
4510133005	OTTAWA	60	6.95	417		90	30	48	761117	20201216	14.95	20101009	13.95	1469	6.493
4510137745	QUEBEC	15	11.7	175.5		180	80	9	761128	20201217	27.95	20200902	24.95	210	0
4510401006	OTTAWA	220	1.38	303.6		250	150	63	761118	20201216	3.45	20200203	0	1083	0
4510403009	QUEBEC	32	7.874	251.968		60	30	32	761129	20201217	17.95	20200719	0	236	0
4510403201	TORONTO	50	4.91	245.5		140	0	40	761119	20201216	11.99	20200821	10.99	129	4.376
4510405021	TORONTO	30	5.5	165		90	23	8	761141	20201218	9.99	20200402	10.99	231	4.59
4510405030	OTTAWA	90	2.87	258.3		125	0	45	761142	20201218	6.99	20200926	6.25	1214	2.61
4512003509	QUEBEC	94	2.87	269.78		195	72	45	761143	20201218	6.99	20200815	6.25	270	2.714
4512020009	OTTAWA	8	0.8	6.4		212	56	63	761144	20201218	1.75	20101019	1.45	791	0.637
4520700508	QUEBEC	54	6.16	332.64		60	19	96	761097	20201212	15.49	20200719	13.99	387	5.72
4527501319	QUEBEC	29	1.58	45.82		40	2	10	761095	20201212	4.45	20201217	4.95	7	1.85
4527503313	OTTAWA	40	4.36	174.4		130	0	147	761091	20201207	10.95	20201005	9.95	427	4.03
4527504110	TORONTO	-5	3.47	-17.35		200	20	66	761100	20201213	8.95	20201006	7.95	605	3.23
